<?xml version="1.0" standalone="no"?>
<!DOCTYPE svg PUBLIC "-//W3C//DTD SVG 1.1//EN" "http://www.w3.org/Graphics/SVG/1.1/DTD/svg11.dtd" >
<svg xmlns="http://www.w3.org/2000/svg">
<metadata></metadata>
<defs>
<font id="helvetica_neueregular" horiz-adv-x="1138" >
<font-face units-per-em="2048" ascent="1638" descent="-410" />
<missing-glyph horiz-adv-x="569" />
<glyph unicode="&#xfb01;" horiz-adv-x="1060" d="M25 905h178v-905h174v905h205v154h-205v147q0 70 35 94q35 25 98 25q23 0 49 -2q27 -4 49 -12v151q-25 8 -55 13q-33 4 -57 4q-143 0 -217 -66q-76 -68 -76 -196v-158h-178v-154zM748 0h174v1059h-174v-1059zM748 1249h174v213h-174v-213z" />
<glyph unicode="&#xfb02;" horiz-adv-x="1060" d="M25 905h178v-905h174v905h205v154h-205v147q0 70 35 94q35 25 98 25q23 0 49 -2q27 -4 49 -12v151q-25 8 -55 13q-33 4 -57 4q-143 0 -217 -66q-76 -68 -76 -196v-158h-178v-154zM748 0h174v1462h-174v-1462z" />
<glyph horiz-adv-x="0" />
<glyph horiz-adv-x="0" />
<glyph unicode="&#xd;" horiz-adv-x="569" />
<glyph horiz-adv-x="0" />
<glyph unicode="&#x9;" horiz-adv-x="569" />
<glyph unicode="&#xa;" horiz-adv-x="569" />
<glyph horiz-adv-x="0" />
<glyph unicode=" "  horiz-adv-x="569" />
<glyph unicode="&#x09;" horiz-adv-x="569" />
<glyph unicode="&#xa0;" horiz-adv-x="569" />
<glyph unicode="!" horiz-adv-x="530" d="M152 0h227v227h-227v-227zM168 1012l51 -637h92l51 637v450h-194v-450z" />
<glyph unicode="&#x22;" horiz-adv-x="872" d="M223 934h139v528h-139v-528zM510 934h139v528h-139v-528z" />
<glyph unicode="#" d="M70 422h198l-59 -422h141l60 422h254l-60 -422h141l60 422h207v139h-187l43 307h201v140h-182l59 419h-141l-60 -419h-253l59 419h-141l-60 -419h-227v-140h209l-43 -307h-219v-139zM430 561l43 307h254l-43 -307h-254z" />
<glyph unicode="$" d="M51 446q16 -215 137 -335q121 -123 326 -144v-168h113v168q98 8 180 41t141 90q59 55 94 133q33 78 33 179q0 94 -35 161q-37 68 -88 113t-106 72q-55 25 -96 35l-123 32v504q188 -35 229 -237h174q-41 180 -139 282t-264 123v137h-113v-135q-88 -6 -164 -39 q-78 -33 -133 -88q-57 -57 -90 -133q-33 -78 -33 -170q0 -90 25 -154q25 -63 78 -106q51 -45 131 -76q78 -33 186 -59v-543q-123 20 -203 100q-82 80 -86 217h-174zM279 1085q0 117 69 179q68 59 166 69v-479q-51 14 -94 33q-43 18 -74 45q-33 25 -49 63q-18 37 -18 90z M627 129v514q55 -16 104 -35q49 -20 84 -49t55 -67q20 -41 21 -101q0 -66 -19 -112q-20 -49 -55 -80q-37 -33 -84 -49q-49 -16 -106 -21z" />
<glyph unicode="%" horiz-adv-x="2048" d="M188 1036q1 -83 19 -157q16 -74 55 -129t103 -86q63 -33 155 -33q90 0 152 35q61 35 102 92q39 55 57 131q16 74 17 153q0 84 -14 160q-16 74 -54 129q-39 55 -100 88q-63 33 -160 33q-94 0 -158 -33q-63 -35 -102 -92t-55 -131q-16 -76 -17 -160zM342 1040q0 48 6 101 q6 51 27 96q18 43 53 74q35 29 92 28q59 0 94 -28q33 -31 52 -74q18 -45 24 -96q4 -53 4 -99q0 -47 -6 -100t-24 -96q-20 -45 -56 -74q-35 -29 -94 -29q-57 0 -90 31q-35 29 -53 74q-18 43 -23 96q-6 51 -6 96zM385 -43h176l1100 1522h-174zM1200 381q1 -84 19 -158 q16 -74 55 -127q39 -55 102 -86q63 -33 156 -33q90 0 151 35q61 33 103 90q39 55 57 131q16 74 17 154q0 84 -15 160q-16 74 -53 129q-39 55 -100 88q-63 33 -160 33q-94 0 -158 -33q-63 -35 -102 -92t-55 -131q-16 -76 -17 -160zM1354 385q0 47 6 100q6 51 26 97 q18 43 54 73q35 29 92 29q59 0 94 -29q33 -31 51 -73q18 -45 25 -97q4 -53 4 -98q0 -47 -6 -100t-25 -97q-20 -45 -55 -73q-35 -29 -94 -29q-57 0 -90 31q-35 29 -54 74q-18 43 -22 96q-6 51 -6 96z" />
<glyph unicode="&#x26;" horiz-adv-x="1290" d="M68 375q0 -45 16 -113q14 -68 63 -131t140 -108q90 -45 237 -46q121 0 236 52q113 51 178 153l156 -182h227l-285 330l39 88q16 37 29 76q10 39 18 86q6 45 13 110h-166q-6 -113 -47 -227l-265 321q53 31 103 70q49 37 88 84t61 104q23 55 23 121q0 74 -29 131 q-31 55 -80 95q-49 37 -112 55q-66 18 -133 18q-80 0 -142 -24q-61 -25 -102 -66q-43 -43 -64 -96q-23 -55 -22 -115q0 -55 14 -98q12 -45 37 -84q23 -41 51 -80l60 -82q-70 -37 -131 -78q-63 -43 -109 -94q-47 -53 -74 -119q-29 -66 -28 -151zM252 377q0 66 20 115 q20 47 56 86q35 39 82 69q45 31 96 60l336 -404q-53 -80 -131 -127q-80 -47 -181 -47q-53 0 -102 18q-51 18 -90 52q-39 31 -62 77q-25 45 -24 101zM422 1153q0 80 53 119q53 37 115 37q78 0 123 -45q45 -47 45 -111q0 -47 -19 -84q-18 -39 -47 -70t-63 -55l-66 -45l-49 62 q-25 31 -45 63q-20 31 -33 63q-14 33 -14 66z" />
<glyph unicode="'" horiz-adv-x="569" d="M215 934h139v528h-139v-528z" />
<glyph unicode="(" horiz-adv-x="530" d="M96 553q0 -135 23 -258t65 -240q41 -117 101 -229q59 -115 133 -229h133q-145 236 -207 466q-63 231 -63 490q0 252 61 481t209 463h-133q-160 -211 -240 -457q-82 -246 -82 -487z" />
<glyph unicode=")" horiz-adv-x="530" d="M-18 -403h131q160 211 241 456q80 244 80 486q0 135 -22 258q-23 123 -64 241q-43 117 -102 232q-59 113 -133 227h-131q143 -236 206 -467q61 -233 62 -491q0 -250 -62 -480q-61 -231 -206 -462z" />
<glyph unicode="*" horiz-adv-x="720" d="M49 1214l217 -77l-133 -187l92 -63l133 196l142 -196l84 63l-135 187l223 77l-41 99l-219 -82v231h-109v-231l-217 82z" />
<glyph unicode="+" horiz-adv-x="1228" d="M98 449h447v-449h139v449h446v139h-446v448h-139v-448h-447v-139z" />
<glyph unicode="," horiz-adv-x="569" d="M170 0h121q2 -25 -2 -53q-6 -29 -21 -56q-14 -29 -37 -51q-25 -25 -59 -37v-102q119 35 172 119t53 200v207h-227v-227z" />
<glyph unicode="-" horiz-adv-x="796" d="M102 487h592v164h-592v-164z" />
<glyph unicode="." horiz-adv-x="569" d="M170 0h227v227h-227v-227z" />
<glyph unicode="/" horiz-adv-x="681" d="M-35 -33h148l606 1530h-150z" />
<glyph unicode="0" d="M86 713q0 -80 4 -166t21 -168q16 -82 47 -154q31 -74 84 -129t135 -86q80 -33 192 -33q115 0 195 33q80 31 133 86t84 129q31 72 47 154t21 168q4 86 4 166t-4 166t-21 168q-16 82 -47 155q-31 74 -84 129t-133 88q-82 33 -195 33t-192 -33q-82 -33 -135 -88t-84 -129 t-47 -155q-16 -82 -21 -168q-4 -86 -4 -166zM270 715q0 53 2 119q0 63 11 129q8 63 26 124q16 61 51 109q33 45 84 74t125 28q74 0 125 -28q51 -29 86 -74q33 -47 51 -109q16 -61 27 -124q8 -66 10 -129v-119q0 -82 -4 -183q-6 -102 -33 -190q-29 -90 -90 -152 q-61 -61 -172 -61t-172 61t-88 152q-29 88 -33 190q-6 100 -6 183z" />
<glyph unicode="1" d="M178 1040h377v-1040h174v1452h-133q-14 -82 -53 -135t-94 -84q-57 -31 -127 -41q-70 -12 -144 -12v-140z" />
<glyph unicode="2" d="M49 0h948v154h-745q12 68 53 120q39 51 96 97q55 45 123 86q68 39 135 80q68 43 132 90q63 47 112 106q49 57 80 131q29 74 29 170q0 102 -35 180q-37 78 -98 132q-61 51 -144 79q-84 27 -178 27q-115 0 -205 -39t-149 -106q-61 -70 -90 -164t-23 -205h174q-2 66 15 131 q14 63 49 115q35 51 90 84q53 31 129 30q57 0 108 -18t90 -53q37 -35 60 -82q23 -49 22 -109q0 -76 -22 -133q-25 -57 -70 -106q-47 -49 -117 -97q-70 -49 -161 -106q-76 -45 -146 -96t-125 -119t-90 -158q-37 -92 -47 -221z" />
<glyph unicode="3" d="M61 449q-2 -113 33 -201q33 -88 96 -148q63 -61 154 -92q90 -31 201 -31q102 0 194 29q90 27 158 82t109 139q39 82 38 191q0 131 -63 227q-66 96 -199 125v4q86 39 144 115q57 76 57 174q0 100 -33 174q-35 74 -94 121t-139 72q-82 23 -176 22q-109 0 -191 -35 q-84 -35 -139 -96t-84 -147q-31 -86 -35 -191h174q0 63 17 121q16 57 51 100q33 43 86 70q51 25 121 24q111 0 184 -57q74 -59 74 -176q0 -57 -23 -102t-59 -74q-39 -31 -88 -45q-51 -16 -107 -17h-57q-8 0 -19 2v-147q49 6 105 6q66 0 123 -16q55 -18 96 -54q41 -37 66 -88 q25 -53 24 -120q0 -66 -24 -117q-27 -53 -70 -88q-43 -37 -100 -55q-57 -20 -121 -21q-150 0 -228 90q-78 88 -81 230h-175z" />
<glyph unicode="4" d="M57 340h637v-340h164v340h197v154h-197v958h-139l-662 -944v-168zM207 494l483 710h4v-710h-487z" />
<glyph unicode="5" d="M72 391q2 -98 39 -176t100 -129q63 -53 147 -80q82 -29 177 -29q127 0 223 41q94 39 157 107t97 156q31 86 30 178q0 125 -36 219q-37 92 -101 156q-63 61 -149 92t-183 30q-74 0 -147 -24q-76 -27 -123 -80l-4 4l78 418h586v153h-717l-135 -753l149 -8q51 61 119 100 q66 37 151 37q74 0 136 -25q59 -25 102 -67q43 -45 68 -105q23 -61 22 -133q0 -86 -24 -149q-25 -66 -66 -109q-43 -43 -98 -63q-57 -23 -119 -23q-66 0 -119 21q-55 18 -94 55q-41 35 -64 84q-25 47 -28 102h-174z" />
<glyph unicode="6" d="M78 674q0 -115 18 -238q16 -123 70 -225q53 -102 151 -168t261 -66q137 0 231 48q92 45 149 116q55 70 80 156t25 166q0 100 -31 186t-86 150q-57 63 -139 100q-84 35 -189 35q-119 0 -208 -45q-92 -45 -154 -146l-4 5q2 84 16 180t54 180q37 82 104 137q68 53 178 53 q104 0 168 -59q63 -59 76 -158h174q-16 180 -123 277q-106 94 -287 94q-156 0 -258 -66t-164 -174q-61 -109 -86 -247q-27 -141 -26 -291zM285 453q0 68 20 129q18 59 57 104q39 43 95 70q55 25 129 24q74 1 129 -26t92 -70q37 -45 55 -104q16 -61 17 -129q0 -63 -19 -121 q-20 -59 -57 -105q-37 -45 -90 -69q-55 -27 -127 -27t-127 27q-57 25 -94 67q-39 43 -60 103q-20 59 -20 127z" />
<glyph unicode="7" d="M102 1264h762q-115 -121 -213 -265q-100 -143 -176 -303q-76 -162 -123 -336q-49 -176 -61 -360h194q10 170 58 350q47 180 123 350q74 170 170 320t206 258v149h-940v-163z" />
<glyph unicode="8" d="M82 418q0 -111 39 -193q37 -84 104 -139q66 -55 156 -82t194 -27q100 0 189 29q88 29 154 86q63 55 102 137q37 82 37 189q0 135 -64 229q-63 92 -194 133q92 41 147 123q53 80 53 178q0 70 -24 138q-25 66 -76 118q-53 51 -137 84q-84 31 -203 31q-84 0 -160 -25 q-78 -25 -137 -71q-59 -47 -94 -115q-35 -70 -35 -160q0 -98 55 -180q55 -84 148 -121q-123 -43 -189 -137q-66 -96 -65 -225zM266 410q0 63 25 114q23 51 65 88q41 37 99 58q55 18 118 18q61 0 117 -20q53 -23 94 -60t66 -86q23 -51 22 -110q0 -61 -20 -113 q-23 -51 -61 -88q-41 -39 -95 -59q-55 -23 -121 -23q-135 0 -221 76q-88 74 -88 205zM317 1075q1 55 21 96t55 70q33 29 80 43t98 14q106 0 177 -55q68 -57 67 -168q0 -111 -67 -172q-68 -61 -173 -61q-53 0 -100 14t-82 43t-55 74q-20 43 -21 102z" />
<glyph unicode="9" d="M70 979q0 -106 30 -197q29 -90 88 -153q57 -63 144 -99q86 -37 196 -36q106 0 197 55q90 53 139 145l4 -4q-8 -285 -88 -422q-80 -139 -239 -139q-104 0 -181 57q-76 57 -86 164h-174q16 -188 138 -280q121 -92 303 -93q264 0 385 203q119 201 118 578q0 207 -38 342 q-41 133 -109 211t-158 110q-90 31 -192 31q-104 0 -193 -35q-88 -35 -151 -96q-63 -63 -99 -150q-35 -88 -34 -192zM254 954q0 68 16 129q14 61 49 111q33 47 89 76q53 29 131 28q74 0 129 -26q55 -27 94 -72q37 -47 57 -106q18 -59 19 -127q-1 -64 -21 -121 q-20 -59 -59 -103q-39 -45 -94 -69q-55 -27 -123 -27q-63 0 -115 27q-53 25 -90 67q-39 43 -60 99q-23 55 -22 114z" />
<glyph unicode=":" horiz-adv-x="569" d="M170 0h227v227h-227v-227zM170 831h227v228h-227v-228z" />
<glyph unicode=";" horiz-adv-x="569" d="M170 0h121q2 -25 -2 -53q-6 -29 -21 -56q-14 -29 -37 -51q-25 -25 -59 -37v-102q119 35 174 119q53 84 51 200v207h-227v-227zM170 831h227v228h-227v-228z" />
<glyph unicode="&#x3c;" horiz-adv-x="1228" d="M94 455l1041 -469v137l-871 395l871 395v140l-1041 -471v-127z" />
<glyph unicode="=" horiz-adv-x="1228" d="M98 242h1032v139h-1032v-139zM98 655h1032v140h-1032v-140z" />
<glyph unicode="&#x3e;" horiz-adv-x="1228" d="M94 -14l1041 469v127l-1041 471v-140l871 -395l-871 -395v-137z" />
<glyph unicode="?" d="M113 1006h174q0 72 16 133t53 106q35 45 88 72t127 26q111 0 177 -63q63 -63 71 -176q4 -76 -18 -129q-23 -53 -60 -96q-39 -45 -82 -84q-45 -41 -84 -88q-41 -47 -67 -107q-29 -61 -33 -147v-97h174v80q0 53 17 96q14 41 41 78q25 35 57 68l129 129q31 35 55 76 q25 41 41 92q14 49 15 112q0 98 -31 175q-33 76 -90 129q-57 51 -135 79q-80 27 -177 27q-106 0 -192 -37t-146 -102q-59 -68 -90 -158q-33 -90 -30 -194zM446 0h228v227h-228v-227z" />
<glyph unicode="@" horiz-adv-x="1638" d="M86 737q0 -164 59 -303q59 -141 164 -244q102 -104 244 -163q139 -59 301 -60q98 0 193 25q94 23 178 69q82 45 151 113q70 66 119 152h-129q-88 -113 -223 -181q-137 -68 -285 -67q-129 0 -244 51q-115 49 -200 137q-88 86 -138 205q-51 119 -51 256q0 135 49 254 q47 119 132 209q84 90 198 143q113 51 244 51q109 0 209 -36q98 -37 176 -105q78 -70 125 -168q45 -98 45 -219q0 -82 -27 -166t-67 -151q-41 -68 -90 -111q-51 -43 -99 -43q-49 0 -49 64q0 23 8 51q6 27 15 53l172 582h-129l-47 -129q-35 92 -97 131q-61 37 -133 37 q-109 0 -196 -52q-90 -51 -152 -133q-63 -82 -98 -186t-35 -211q0 -68 22 -127q20 -59 60 -103q37 -43 92 -67q53 -27 119 -27q76 0 141 43q66 41 113 95h6q4 -68 41 -101t90 -33q72 0 156 43t155 121q72 78 121 189q47 109 47 241q0 139 -55 256q-55 115 -150 199 q-96 82 -223 129t-268 47q-156 0 -293 -59q-139 -59 -242 -162q-104 -104 -164 -242q-61 -139 -61 -297zM532 606q0 68 25 144q25 74 68 137t104 106q59 41 131 41q33 0 64 -16q29 -16 53 -41q23 -27 37 -62q12 -35 12 -71q0 -63 -25 -139t-67 -142q-43 -68 -100 -110 q-57 -45 -125 -45q-78 0 -127 57q-49 55 -50 141z" />
<glyph unicode="A" horiz-adv-x="1327" d="M-12 0h198l164 440h619l159 -440h215l-571 1462h-215zM412 604l247 682h5l243 -682h-495z" />
<glyph unicode="B" horiz-adv-x="1402" d="M160 0h706q109 0 193 37q82 35 139 94q55 57 84 133t29 156q0 135 -72 229t-207 123v4q104 41 162 127q55 84 55 201q0 111 -49 186q-51 76 -123 119q-33 20 -78 31q-47 10 -100 16q-53 4 -106 6h-633v-1462zM354 164v506h445q61 0 119 -11q57 -12 102 -38q43 -29 70 -76 q26 -45 26 -114v-5q0 -123 -72 -193q-73 -69 -198 -69h-4h-488zM354 834v464h389q63 0 121 -6q55 -8 99 -32q43 -25 67 -70q25 -45 25 -123q0 -117 -72 -174q-74 -59 -240 -59h-389z" />
<glyph unicode="C" horiz-adv-x="1478" d="M88 727q0 -160 43 -299q41 -139 125 -242q84 -102 211 -159q127 -59 297 -60q281 0 442 154q162 154 191 430h-195q-6 -90 -37 -168t-84 -133q-55 -57 -129 -88q-76 -33 -172 -33q-131 0 -225 49t-154 133q-61 82 -90 195q-28 107 -28 227v8q0 115 28 222q29 106 90 190 q59 82 154 131q92 49 223 49q154 0 266 -78q111 -78 144 -233h194q-16 117 -69 207q-53 88 -133 147t-183 90q-102 31 -217 31q-168 0 -297 -59q-131 -61 -217 -166q-88 -104 -133 -244q-45 -141 -45 -301z" />
<glyph unicode="D" horiz-adv-x="1441" d="M160 0h502q182 0 315 51t219 150q86 96 127 239q41 141 41 326q0 352 -182 524t-520 172h-502v-1462zM354 164v1134h328q135 0 227 -36q92 -39 152 -111q57 -74 84 -176q24 -100 24 -226v-10q0 -135 -26 -229q-29 -96 -72 -160q-43 -63 -96 -100q-55 -37 -111 -55 q-55 -20 -104 -25q-49 -6 -82 -6h-324z" />
<glyph unicode="E" horiz-adv-x="1251" d="M160 0h1016v164h-822v506h760v164h-760v464h815v164h-1009v-1462z" />
<glyph unicode="F" horiz-adv-x="1175" d="M160 0h194v670h672v164h-672v464h766v164h-960v-1462z" />
<glyph unicode="G" horiz-adv-x="1554" d="M88 702q0 -143 47 -276t137 -236q90 -102 220 -161q129 -61 292 -62q129 0 256 51q127 49 213 164l52 -182h122v770h-641v-164h467v-23q0 -87 -26 -163q-31 -88 -90 -152q-61 -66 -150 -102q-88 -37 -203 -37q-123 0 -215 49q-94 47 -157 129q-63 80 -97 187 q-32 101 -32 212v7q0 117 28 229q29 111 90 199q59 86 156 139q94 53 227 53q82 0 156 -18q72 -20 129 -60q57 -39 96 -98q39 -61 54 -145h194q-20 129 -76 221q-57 90 -139 149q-84 59 -188 88q-106 27 -226 27q-174 0 -303 -63q-131 -66 -217 -174q-88 -109 -131 -252 q-45 -145 -45 -306z" />
<glyph unicode="H" horiz-adv-x="1478" d="M160 0h194v670h770v-670h195v1462h-195v-628h-770v628h-194v-1462z" />
<glyph unicode="I" horiz-adv-x="530" d="M168 0h194v1462h-194v-1462z" />
<glyph unicode="J" horiz-adv-x="1062" d="M45 391q0 -209 111 -315q111 -109 315 -109q123 0 207 35q82 33 133 90q49 55 72 127q20 72 20 146v1097h-194v-1069q0 -121 -50 -192q-51 -72 -184 -72q-72 0 -117 23q-47 20 -71 59q-27 39 -37 92t-10 117v61h-195v-90z" />
<glyph unicode="K" horiz-adv-x="1366" d="M160 0h194v512l244 227l528 -739h246l-641 872l617 590h-252l-742 -729v729h-194v-1462z" />
<glyph unicode="L" d="M160 0h968v164h-774v1298h-194v-1462z" />
<glyph unicode="M" horiz-adv-x="1783" d="M164 0h184v1217h4l457 -1217h166l457 1217h4v-1217h184v1462h-266l-463 -1229l-461 1229h-266v-1462z" />
<glyph unicode="N" horiz-adv-x="1478" d="M158 0h184v1174h4l764 -1174h213v1462h-184v-1186h-4l-770 1186h-207v-1462z" />
<glyph unicode="O" horiz-adv-x="1556" d="M78 731q0 -150 45 -287q43 -139 131 -245t219 -168q131 -63 305 -64q174 0 305 64q131 61 220 168q88 106 133 245q43 137 43 287t-43 289q-45 137 -133 244q-88 106 -220 170q-131 63 -305 63t-305 -63t-219 -170q-88 -106 -131 -244q-45 -139 -45 -289zM272 731 q0 110 29 219q29 106 90 193q61 86 158 139q96 51 229 51t230 -51q96 -53 157 -139t90 -193q29 -109 29 -219q0 -111 -29 -217q-29 -109 -90 -195t-157 -137q-96 -53 -230 -53q-133 0 -229 53q-96 51 -158 137q-61 86 -90 195q-29 106 -29 217z" />
<glyph unicode="P" horiz-adv-x="1327" d="M160 0h194v598h447h8q215 0 328 113q113 115 112 319q0 205 -112 320q-114 112 -332 112h-4h-641v-1462zM354 762v536h381q166 0 244 -67q76 -70 76 -201t-76 -201q-75 -67 -231 -67h-13h-381z" />
<glyph unicode="Q" horiz-adv-x="1556" d="M78 731q0 -150 45 -287q43 -139 131 -245t219 -168q131 -63 305 -64q203 0 350 86l224 -178l98 123l-193 152q111 111 166 262q55 152 56 319q0 150 -43 289q-45 137 -133 244q-88 106 -220 170q-131 63 -305 63t-305 -63t-219 -170q-88 -106 -131 -244 q-45 -139 -45 -289zM272 731q0 111 29 219q29 106 90 193q61 86 158 139q96 51 229 51t230 -51q96 -53 157 -139t90 -193q29 -109 29 -219q0 -135 -41 -258q-41 -125 -127 -211l-194 156l-103 -119l162 -129q-98 -41 -203 -41q-133 0 -229 53q-96 51 -158 137 q-61 86 -90 195q-29 106 -29 217z" />
<glyph unicode="R" horiz-adv-x="1402" d="M160 0h194v625h475q72 0 115 -21q43 -23 70 -57q27 -37 39 -84q12 -49 20 -103q10 -53 12 -108l5 -102q2 -49 10 -89q6 -39 26 -61h217q-31 37 -45 86q-16 47 -24 100t-10 109q-2 55 -7 108q-6 53 -16 103q-12 49 -35 90q-25 39 -63 68q-41 29 -105 41v4q133 37 195 137 q59 100 59 233q0 178 -116 281q-119 102 -328 102h-688v-1462zM354 788v510h484q137 0 198 -69q61 -70 62 -180q0 -80 -27 -129q-29 -51 -74 -80q-47 -31 -108 -41t-129 -11h-406z" />
<glyph unicode="S" horiz-adv-x="1327" d="M76 481q0 -133 49 -229q47 -98 131 -160q82 -63 193 -94q109 -31 231 -31q100 0 203 25q100 23 182 76q82 51 135 135q51 82 51 198q0 109 -39 181q-41 72 -106 118q-68 47 -152 76q-84 27 -170 47l-172 39q-84 16 -149 43q-68 27 -107 70q-41 41 -41 108q0 72 29 121 q27 47 74 76q45 29 104 41t121 12q152 0 250 -69q96 -72 113 -230h184q-4 121 -45 209q-43 86 -115 143q-74 57 -170 84t-209 27q-100 0 -194 -24q-96 -27 -170 -78q-76 -53 -121 -133q-45 -82 -45 -193q0 -100 41 -166q39 -68 106 -108q66 -43 150 -68q84 -27 172 -45 l170 -39q84 -18 151 -47q66 -31 107 -78q39 -47 39 -123q0 -80 -33 -131t-86 -80q-53 -31 -119 -43q-68 -12 -133 -12q-82 0 -160 21q-78 20 -135 63q-59 43 -94 111q-37 66 -37 157h-184z" />
<glyph unicode="T" horiz-adv-x="1175" d="M4 1298h488v-1298h194v1298h488v164h-1170v-164z" />
<glyph unicode="U" horiz-adv-x="1478" d="M152 528q0 -293 159 -426q158 -135 441 -135q276 0 426 142q150 139 149 419v934h-194v-934q0 -197 -97 -297q-98 -102 -284 -102q-197 0 -301 102q-104 100 -105 297v934h-194v-934z" />
<glyph unicode="V" horiz-adv-x="1251" d="M0 1462l514 -1462h221l520 1462h-202l-422 -1267h-4l-418 1267h-209z" />
<glyph unicode="W" horiz-adv-x="1896" d="M25 1462l374 -1462h203l338 1229h4l334 -1229h203l391 1462h-195l-297 -1216h-4l-323 1216h-211l-328 -1216h-4l-287 1216h-198z" />
<glyph unicode="X" horiz-adv-x="1251" d="M0 0h217l406 604l393 -604h237l-514 752l484 710h-217l-381 -571l-365 571h-233l481 -710z" />
<glyph unicode="Y" horiz-adv-x="1327" d="M4 1462l565 -864v-598h195v598l559 864h-221l-428 -696l-438 696h-232z" />
<glyph unicode="Z" horiz-adv-x="1251" d="M45 0h1163v164h-932l908 1134v164h-1069v-164h839l-909 -1134v-164z" />
<glyph unicode="[" horiz-adv-x="530" d="M147 -403h383v139h-219v1622h219v139h-383v-1900z" />
<glyph unicode="\" horiz-adv-x="681" d="M-35 1497l604 -1530h150l-606 1530h-148z" />
<glyph unicode="]" horiz-adv-x="530" d="M0 -264v-139h383v1900h-383v-139h219v-1622h-219z" />
<glyph unicode="^" horiz-adv-x="1228" d="M102 541h146l364 737l371 -737h143l-446 886h-131z" />
<glyph unicode="_" horiz-adv-x="1024" d="M0 -152v-102h1024v102h-1024z" />
<glyph unicode="`" horiz-adv-x="454" d="M-45 1497l266 -293h131l-176 293h-221z" />
<glyph unicode="a" horiz-adv-x="1099" d="M74 272q0 -80 28 -135q27 -57 76 -92q47 -37 111 -51q63 -16 135 -17q111 0 207 39q94 37 166 123q0 -86 41 -123q39 -39 106 -39q80 0 125 27v135q-31 -10 -53 -10q-41 0 -47 29q-8 29 -8 90v545q0 92 -35 149t-92 90q-57 31 -127 41q-72 10 -144 10q-88 0 -168 -18 t-141 -59q-61 -43 -98 -111t-41 -166h174q6 117 80 160q74 41 184 41q41 0 84 -6q41 -6 76 -25q33 -18 55 -53q20 -35 20 -92q0 -49 -28 -74q-29 -27 -78 -39q-49 -14 -113 -20q-66 -8 -137 -23q-68 -12 -131 -31q-66 -18 -115 -53q-51 -37 -82 -94q-30 -55 -30 -142v-6z M258 285q0 66 31 104q29 37 76 57t106 31l119 17q57 6 110 18q53 10 86 35v-178q0 -37 -18 -78q-18 -43 -57 -78q-39 -37 -101 -59q-61 -25 -147 -25q-39 0 -76 8q-39 8 -65 27q-29 18 -46 49q-18 29 -18 72z" />
<glyph unicode="b" horiz-adv-x="1214" d="M137 0h174v141h4q29 -47 72 -78q41 -33 88 -51t96 -26q47 -8 86 -9q121 0 213 43q90 43 152 119q59 74 90 174q29 100 29 213t-31 213t-90 179q-61 76 -152 120q-92 45 -215 45q-111 0 -202 -39q-92 -41 -136 -129h-4v547h-174v-1462zM305 530q0 74 19 146q16 72 55 129 q39 55 100 90t150 35q84 0 147 -33q61 -33 103 -88q39 -55 59 -125q18 -72 18 -145q0 -78 -16 -152t-53 -131t-96 -92q-61 -35 -152 -35q-90 0 -154 35q-63 33 -102 88q-41 55 -59 129q-18 72 -19 149z" />
<glyph unicode="c" horiz-adv-x="1099" d="M74 516q0 -119 32 -217q31 -100 95 -172q61 -72 155 -111q92 -39 213 -39q203 0 322 107q117 106 145 303h-178q-16 -123 -88 -190q-74 -68 -203 -68q-82 0 -141 33t-96 88q-37 53 -54 123q-18 70 -18 143q0 80 16 156q16 74 56 131q37 57 100 92t158 35q111 0 176 -56 q66 -55 86 -155h180q-10 94 -49 164q-39 68 -98 112q-61 45 -140 68q-80 20 -170 20q-125 0 -219 -43q-94 -45 -155 -120q-63 -78 -95 -181q-30 -101 -30 -216v-7z" />
<glyph unicode="d" horiz-adv-x="1214" d="M74 532q0 -113 30 -213q31 -100 93 -176q59 -76 151 -120q90 -45 213 -46q111 0 203 39t135 127h4v-143h174v1462h-174v-544h-4q-29 47 -70 79q-43 31 -90 52q-47 18 -94 26t-88 8q-121 0 -211 -43q-92 -45 -151 -118q-61 -76 -91 -177q-30 -97 -30 -206v-7zM258 520 q0 78 16 152t54 131q37 57 98 92t149 35q90 0 154 -33q63 -35 105 -90q39 -55 57 -127q18 -74 18 -152q0 -74 -16 -145q-18 -72 -57 -127q-39 -57 -101 -92q-61 -35 -149 -35q-84 0 -146 33q-63 33 -102 88q-41 55 -59 127q-20 70 -21 143z" />
<glyph unicode="e" horiz-adv-x="1099" d="M74 532q4 -121 37 -223q31 -102 94 -176t157 -115q92 -41 220 -41q180 0 299 91q119 90 153 268h-172q-23 -104 -92 -156q-72 -51 -182 -51q-86 0 -150 29q-63 29 -104 78q-41 47 -60 110q-16 55 -16 117v14h793q1 15 1 31q0 82 -18 172q-23 106 -78 197q-57 90 -149 149 q-94 57 -236 57q-109 0 -198 -41q-92 -41 -158 -114q-68 -74 -104 -174q-37 -100 -37 -222zM258 631q4 61 27 117q23 53 61 94q39 41 94 65q53 23 121 23q66 0 121 -23q53 -25 94 -63q39 -41 64 -96q23 -55 26 -117h-608z" />
<glyph unicode="f" horiz-adv-x="606" d="M25 905h178v-905h174v905h205v154h-205v147q0 70 35 94q35 25 98 25q23 0 49 -2q27 -4 49 -12v151q-25 8 -55 13q-33 4 -57 4q-143 0 -217 -66q-76 -68 -76 -196v-158h-178v-154z" />
<glyph unicode="g" horiz-adv-x="1175" d="M74 524q0 -109 30 -205q29 -98 89 -169q59 -74 147 -117t207 -43q102 0 194 47q90 45 136 143h4v-69q0 -88 -17 -162q-18 -74 -57 -125q-39 -53 -98 -82q-59 -31 -146 -31q-43 0 -90 10q-47 8 -86 29q-41 20 -68 53q-29 33 -30 80h-174q4 -86 45 -145t104 -96 q61 -37 139 -54q76 -16 150 -16q254 0 373 129t118 389v969h-163v-152h-2q-47 88 -131 133q-84 43 -185 43q-137 0 -231 -51q-94 -53 -152 -133q-57 -82 -82 -180q-24 -96 -24 -188v-7zM258 545q0 76 18 145q16 70 56 123q37 53 96 86q59 31 143 31q82 0 140 -33 q57 -33 94 -86q35 -55 51 -123t16 -137q0 -74 -16 -148q-18 -74 -55 -131q-37 -59 -96 -94q-61 -37 -148 -37q-86 0 -143 37q-57 35 -92 94q-35 57 -50 129q-14 72 -14 144z" />
<glyph unicode="h" d="M131 0h174v598q0 72 21 133q18 59 57 105q39 45 98 69q57 25 137 25q100 0 158 -58q57 -57 58 -155v-717h174v696q0 86 -17 158q-18 70 -61 121t-113 80q-68 28 -167 28h-7q-47 0 -96 -10q-51 -10 -96 -31q-47 -23 -84 -55q-37 -35 -58 -84h-4v559h-174v-1462z" />
<glyph unicode="i" horiz-adv-x="454" d="M141 0h174v1059h-174v-1059zM141 1249h174v213h-174v-213z" />
<glyph unicode="j" horiz-adv-x="454" d="M-27 -246v-149q41 -8 88 -8q117 0 187 65q68 63 67 205v1192h-174v-1163q0 -82 -20 -113q-20 -33 -78 -33h-37q-8 0 -14 2q-8 0 -19 2zM141 1249h174v213h-174v-213z" />
<glyph unicode="k" horiz-adv-x="1062" d="M141 0h174v401l164 152l363 -553h221l-451 674l420 385h-233l-484 -463v866h-174v-1462z" />
<glyph unicode="l" horiz-adv-x="454" d="M141 0h174v1462h-174v-1462z" />
<glyph unicode="m" horiz-adv-x="1746" d="M131 0h174v659q0 31 17 78q14 45 49 88q33 43 88 74q53 31 129 31q59 0 98 -17q37 -18 59 -49q23 -33 33 -76q8 -43 8 -94v-694h175v659q0 123 73 197q74 74 203 74q63 0 104 -19q39 -18 62 -49q23 -33 31 -76t8 -92v-694h174v776q0 82 -25 142q-27 57 -71 94 q-47 37 -111 55q-66 16 -145 16q-104 0 -191 -47q-88 -47 -141 -133q-33 98 -113 139t-178 41q-223 0 -342 -180h-4v156h-164v-1059z" />
<glyph unicode="n" d="M131 0h174v598q0 72 21 133q18 59 57 105q39 45 98 69q57 25 137 25q100 0 158 -58q57 -57 58 -155v-717h174v696q0 86 -17 158q-18 70 -61 121t-113 80q-68 28 -167 28h-7q-236 0 -344 -192h-4v168h-164v-1059z" />
<glyph unicode="o" horiz-adv-x="1175" d="M74 528v-7q0 -113 32 -210q33 -100 99 -174q66 -76 162 -117q96 -43 221 -43q127 0 223 43q94 41 160 117q66 74 98 174q33 100 33 217t-33 220q-33 100 -98 176q-66 74 -160 116q-96 43 -223 43q-125 0 -221 -43t-162 -116q-66 -76 -99 -176q-32 -99 -32 -213v-7z M258 528q0 96 27 172q25 74 69 125q45 51 107 78q59 27 127 27t129 -27q59 -27 104 -78t72 -125q25 -76 25 -172t-25 -170q-27 -76 -72 -125q-45 -51 -104 -77q-61 -27 -129 -27t-127 27q-61 27 -107 77q-45 49 -69 125q-27 74 -27 170z" />
<glyph unicode="p" horiz-adv-x="1214" d="M137 -403h174v544h4q29 -47 72 -78q41 -33 88 -51t96 -26q47 -8 86 -9q121 0 213 43q90 43 152 119q59 74 90 174q29 100 29 213t-31 213t-90 179q-61 76 -152 120q-92 45 -215 45q-111 0 -202 -39q-92 -41 -136 -129h-4v144h-174v-1462zM305 530q0 74 19 146 q16 72 55 129q39 55 100 90t150 35q84 0 147 -33q61 -33 103 -88q39 -55 59 -125q18 -72 18 -145q0 -78 -16 -152t-53 -131t-96 -92q-61 -35 -152 -35q-90 0 -154 35q-63 33 -102 88q-41 55 -59 129q-18 72 -19 149z" />
<glyph unicode="q" horiz-adv-x="1214" d="M74 532q0 -113 30 -213q31 -100 93 -176q59 -76 151 -120q90 -45 213 -46q111 0 203 39t135 127h4v-546h174v1462h-174v-141h-4q-29 47 -70 79q-43 31 -90 52q-47 18 -94 26t-88 8q-121 0 -211 -43q-92 -45 -151 -118q-61 -76 -91 -177q-30 -97 -30 -206v-7zM258 520 q0 78 16 152t54 131q37 57 98 92t149 35q90 0 154 -33q63 -35 105 -90q39 -55 57 -127q18 -74 18 -152q0 -74 -16 -145q-18 -72 -57 -127q-39 -57 -101 -92q-61 -35 -149 -35q-84 0 -146 33q-63 33 -102 88q-41 55 -59 127q-20 70 -21 143z" />
<glyph unicode="r" horiz-adv-x="681" d="M125 0h174v471q0 102 20 182q20 78 66 133q45 55 119 84t178 29v184h-17q-129 0 -216 -57q-92 -61 -156 -190h-4v223h-164v-1059z" />
<glyph unicode="s" horiz-adv-x="1024" d="M63 334q4 -98 41 -166q37 -70 99 -111q61 -43 141 -61t168 -19q80 0 162 17q80 14 145 53q63 39 105 103q39 63 39 159q0 76 -29 127q-31 51 -78 86q-49 33 -111 53q-63 20 -129 35l-122 29q-61 12 -111 33q-49 18 -80 49q-33 29 -33 74q0 41 21 67q20 25 53 41 q33 14 74 21q39 6 78 6q43 0 86 -8q41 -10 75 -31q35 -20 58 -53q23 -35 26 -86h174q-6 96 -41 161q-35 63 -92 103q-59 37 -135 53q-76 14 -166 14q-70 0 -139 -16q-72 -18 -127 -53q-57 -37 -92 -94q-37 -57 -37 -138q0 -102 51 -159t129 -88q76 -33 166 -50 q90 -18 168 -39q76 -23 127 -57q51 -35 51 -102q0 -49 -24 -80q-25 -33 -62 -49q-39 -16 -84 -23q-45 -6 -86 -6q-53 0 -102 10q-51 10 -90 35q-41 23 -66 64q-25 39 -26 96h-175z" />
<glyph unicode="t" horiz-adv-x="645" d="M18 905h181v-674q0 -74 14 -118q14 -45 45 -70q29 -25 78 -33q47 -10 115 -10h133v154h-80q-41 0 -66 4q-27 2 -41 12t-18 29q-6 18 -6 49v657h211v154h-211v317h-174v-317h-181v-154z" />
<glyph unicode="u" d="M131 362q0 -86 19 -155q16 -72 59 -123t113 -78q70 -29 174 -29q117 0 202 48q86 45 142 143h4v-168h164v1059h-174v-598q0 -72 -19 -131q-20 -61 -59 -107q-39 -45 -97 -69q-59 -25 -139 -25q-100 0 -158 57q-57 57 -57 156v717h-174v-697z" />
<glyph unicode="v" horiz-adv-x="1024" d="M29 1059l393 -1059h186l387 1059h-182l-289 -883h-4l-297 883h-194z" />
<glyph unicode="w" horiz-adv-x="1552" d="M35 1059l340 -1059h188l213 842h4l215 -842h185l338 1059h-181l-237 -866h-4l-222 866h-190l-213 -866h-4l-240 866h-192z" />
<glyph unicode="x" horiz-adv-x="1060" d="M18 0h211l295 438l295 -438h223l-409 571l364 488h-209l-264 -371l-254 371h-223l369 -502z" />
<glyph unicode="y" horiz-adv-x="1024" d="M16 1059l420 -1053l-71 -178q-25 -47 -58 -72q-32 -24 -82 -24h-4q-27 0 -51 8l-51 16v-159q29 -10 59 -15q31 -4 62 -4q59 0 102 16q43 14 80 50q35 33 65 86q29 53 60 131l461 1198h-185l-297 -866h-4l-309 866h-197z" />
<glyph unicode="z" horiz-adv-x="983" d="M45 0h893v154h-676l647 786v119h-823v-154h598l-639 -772v-133z" />
<glyph unicode="{" horiz-adv-x="681" d="M98 475q33 0 64 -16t55 -47q23 -31 37 -76t14 -100v-371q0 -66 21 -115q20 -51 53 -84q31 -35 70 -51q39 -18 77 -18h144v122h-103q-31 0 -49 17q-18 14 -28 41q-12 25 -17 57q-4 31 -4 62v372q0 78 -20 129q-23 51 -52 84q-29 31 -57 45q-31 14 -49 17v6q18 4 49 20 q29 16 57 49q29 33 52 84q20 49 20 121v375q0 33 4 66q4 31 17 55q10 25 28 41q18 14 49 14h103v123h-144q-39 0 -77 -16q-39 -18 -70 -51q-33 -35 -53 -84q-20 -51 -21 -117v-373q0 -53 -14 -98t-37 -76q-25 -33 -55 -49q-31 -18 -64 -19v-139z" />
<glyph unicode="|" horiz-adv-x="454" d="M158 -436h139v2046h-139v-2046z" />
<glyph unicode="}" horiz-adv-x="681" d="M49 -281v-122h144q39 0 77 18q39 16 72 51q31 33 51 84q20 49 21 115v371q0 53 14 98q14 43 39 76q23 31 53 49q31 16 64 16v139q-33 0 -64 17q-31 16 -53 49q-25 31 -39 76t-14 100v373q0 66 -21 117q-20 49 -51 84q-33 33 -72 51q-39 16 -77 16h-144v-123h103 q31 0 49 -14q18 -16 30 -41q10 -27 15 -57q4 -33 4 -68v-371q0 -78 22 -129q20 -51 50 -82q29 -33 59 -47q29 -14 47 -16v-6q-18 -4 -47 -21q-31 -16 -59 -49q-29 -33 -50 -82q-23 -51 -22 -123v-372q0 -33 -4 -64q-4 -33 -15 -57q-12 -25 -30 -39q-18 -16 -49 -17h-103z " />
<glyph unicode="~" horiz-adv-x="1228" d="M141 469l74 -102q12 27 29 55q14 27 37 49q20 23 47 37t59 14q72 0 129 -24q57 -27 107 -56q51 -29 102 -47q49 -20 106 -20q47 0 87 16q37 14 67 39q31 25 55 57q25 31 47 64l-73 102l-37 -53q-18 -29 -39 -51q-23 -23 -47 -37q-27 -14 -57 -14q-41 0 -97 28 q-55 29 -112 54q-59 27 -117 47q-57 18 -111 18q-51 0 -90 -14q-41 -16 -71 -41q-33 -25 -56 -55q-23 -33 -39 -66z" />
<glyph unicode="&#xa1;" horiz-adv-x="530" d="M152 831h227v228h-227v-228zM168 45v-448h194v448l-51 637h-92z" />
<glyph unicode="&#xa2;" d="M94 516q0 -113 31 -209q31 -98 90 -170q57 -72 143 -112q86 -43 199 -48v-213h80v213q96 0 172 35q74 35 127 94q53 57 84 132q31 74 39 149h-174q-16 -104 -76 -176q-61 -72 -172 -82v801q98 -4 158 -60q59 -57 79 -151h179q-12 92 -47 162q-35 68 -88 112 q-55 43 -125 66q-72 23 -156 24v195h-80v-195q-115 -8 -201 -55q-88 -49 -145 -125q-59 -78 -88 -176q-29 -100 -29 -211zM279 516q0 76 14 148q14 70 47 127q31 55 84 92t133 47v-801q-74 6 -127 41t-86 88q-35 53 -49 121q-16 68 -16 137z" />
<glyph unicode="&#xa3;" d="M96 113l97 -133q47 31 96 51q49 18 108 18t113 -12q51 -14 102 -31l103 -26q49 -12 100 -13q80 0 160 21q78 18 139 71l-88 136q-37 -29 -84 -52q-49 -25 -98 -24q-47 0 -88 12l-84 25l-88 20q-47 10 -107 10q-61 0 -110 -18q-51 -18 -105 -41l-4 4q45 37 88 76t76 86 q33 45 53 100q20 53 21 123q0 43 -13 82q-12 39 -28 72h280v92h-325l-37 72q-18 35 -33 71q-16 37 -27 80q-10 41 -10 90q0 57 23 107q23 49 63 86q39 35 92 55t115 20q147 0 221 -96q74 -98 78 -278h174q4 264 -125 397q-131 131 -358 131q-94 0 -178 -29t-148 -82 q-66 -53 -102 -129q-39 -78 -39 -176t28 -174q27 -76 68 -145h-119v-92h174q18 -41 35 -92q16 -51 17 -99q0 -59 -19 -112q-18 -53 -49 -101q-33 -47 -74 -86t-84 -67z" />
<glyph unicode="&#xa4;" d="M51 297l99 -98l112 118q61 -55 141 -81q78 -29 170 -29q86 0 166 29q78 29 138 83l114 -118l96 96l-112 115q53 63 80 143q27 78 26 164q0 86 -26 166q-27 80 -80 137l112 113l-102 104l-117 -115q-55 47 -133 76q-78 27 -160 27q-86 0 -167 -27q-82 -29 -142 -78 l-114 115l-101 -100l117 -119q-57 -57 -84 -137t-27 -166t29 -162q27 -76 78 -137zM231 715q0 76 27 141q27 66 74 115q45 47 108 76q61 27 135 26q73 0 134 -29q59 -29 104 -75q43 -49 70 -113q25 -66 24 -137q0 -74 -24 -139q-27 -66 -70 -113q-45 -49 -106 -78t-134 -29 q-72 0 -133 29q-63 27 -108 74q-47 47 -74 112q-27 66 -27 140z" />
<glyph unicode="&#xa5;" d="M0 1462l375 -706h-189v-123h252l37 -68v-86h-289v-123h289v-356h195v356h295v123h-295v86l37 68h258v123h-191l365 706h-213l-346 -723l-357 723h-223z" />
<glyph unicode="&#xa6;" horiz-adv-x="454" d="M158 -180h139v510h-139v-510zM158 842h139v512h-139v-512z" />
<glyph unicode="&#xa7;" d="M72 666q0 -84 30 -148q31 -63 82 -115q49 -51 115 -90q63 -41 129 -75l131 -72q63 -35 115 -72q49 -37 80 -80t30 -94q0 -43 -18 -74q-18 -33 -47 -53q-29 -23 -66 -33q-39 -10 -75 -10q-104 0 -168 66q-63 63 -66 168h-174q12 -180 121 -283q106 -104 291 -104 q84 0 153 24q70 23 121 66t80 104q29 59 29 133q0 154 -121 244q92 37 153 119q59 80 60 182q0 76 -29 135q-31 57 -78 105q-47 47 -108 86q-61 37 -125 71l-125 68q-61 33 -109 70q-49 35 -77 75q-29 39 -29 88q0 92 57 136q55 41 137 40q98 0 152 -65q53 -66 55 -160h174 q-4 193 -106 287q-102 92 -271 92q-70 0 -137 -20q-70 -23 -123 -66t-86 -104t-32 -142q0 -66 24 -116q25 -53 70 -101q-45 -12 -84 -39q-41 -29 -70 -65q-31 -39 -47 -84q-18 -47 -18 -94zM240 674q0 66 45 117q45 49 104 69q69 -47 141 -88l213 -129q37 -25 70 -53 q33 -31 55 -66q20 -37 21 -80q0 -70 -43 -116q-45 -49 -105 -74q-70 47 -141 90q-72 41 -145 80l-76 47q-39 23 -70 51q-31 29 -49 66q-20 37 -20 86z" />
<glyph unicode="&#xa8;" horiz-adv-x="454" d="M-55 1212h182v213h-182v-213zM328 1212h184v213h-184v-213z" />
<glyph unicode="&#xa9;" horiz-adv-x="1638" d="M49 735q1 -166 62 -305q61 -141 168 -244q104 -104 245 -161q139 -57 297 -58q158 0 297 58q139 57 244 161q104 102 166 244q61 139 61 305q0 162 -61 301t-166 242q-104 102 -244 162q-139 57 -297 57t-297 -57q-141 -59 -245 -162q-106 -102 -168 -242 q-61 -139 -62 -301zM188 735q1 137 50 256q47 119 133 207q84 86 200 137q115 49 250 49q133 0 248 -49q115 -51 201 -137q84 -88 133 -207q47 -119 47 -256q0 -141 -47 -260q-49 -121 -133 -209q-86 -88 -201 -137q-115 -51 -248 -51q-135 0 -250 51q-117 49 -200 137 q-86 88 -133 209q-49 119 -50 260zM391 731q0 -100 33 -186q31 -86 90 -148q59 -63 143 -98q84 -37 189 -37q141 0 246 86q102 86 135 236h-131q-14 -92 -80 -150q-66 -59 -170 -59q-74 0 -131 31q-59 29 -101 77q-41 49 -61 115q-23 66 -23 137q0 74 21 137q20 63 59 113 q39 47 99 74q57 27 133 26q104 0 172 -55q66 -57 82 -143h129q-25 154 -131 233q-106 78 -254 78q-104 0 -189 -35q-84 -35 -141 -96t-88 -147t-31 -189z" />
<glyph unicode="&#xaa;" horiz-adv-x="774" d="M51 961q0 -47 21 -82q18 -35 51 -58t76 -33t92 -10q152 0 239 94q6 -94 105 -94q27 0 47 4t41 13v90q-12 -4 -23 -4h-22q-16 0 -23 14q-6 14 -6 51v328q0 55 -24 90q-25 35 -62 55q-39 18 -86 27q-47 6 -94 6q-57 0 -111 -10q-55 -12 -96 -39t-65 -68q-27 -41 -29 -100 h123q4 66 51 90q45 25 119 25q29 0 57 -2q29 -4 51 -15q23 -10 37 -28q12 -20 12 -56q0 -20 -10 -32q-10 -14 -35 -23q-27 -10 -71 -16l-119 -15q-45 -4 -88 -16q-45 -12 -80 -35q-35 -25 -55 -61q-23 -37 -23 -90zM190 965q0 53 39 75q37 20 93 31q57 10 114 19q57 8 90 28 v-96q0 -23 -10 -47q-12 -27 -37 -47t-63 -33q-41 -14 -99 -14q-51 0 -88 16q-39 14 -39 68z" />
<glyph unicode="&#xab;" horiz-adv-x="948" d="M102 479l312 -246v177l-205 159l205 160v176l-312 -246v-180zM504 479l311 -246v177l-205 159l205 160v176l-311 -246v-180z" />
<glyph unicode="&#xac;" horiz-adv-x="1228" d="M98 655h893v-432h139v572h-1032v-140z" />
<glyph unicode="&#xad;" horiz-adv-x="796" d="M102 487v164h592v-164h-592z" />
<glyph unicode="&#xae;" horiz-adv-x="1638" d="M49 735q1 -166 62 -305q61 -141 168 -244q104 -104 245 -161q139 -57 297 -58q158 0 297 58q139 57 244 161q104 102 166 244q61 139 61 305q0 162 -61 301t-166 242q-104 102 -244 162q-139 57 -297 57t-297 -57q-141 -59 -245 -162q-106 -102 -168 -242 q-61 -139 -62 -301zM188 735q1 137 50 256q47 119 133 207q84 86 200 137q115 49 250 49q133 0 248 -49q115 -51 201 -137q84 -88 133 -207q47 -119 47 -256q0 -141 -47 -260q-49 -121 -133 -209q-86 -88 -201 -137q-115 -51 -248 -51q-135 0 -250 51q-117 49 -200 137 q-86 88 -133 209q-49 119 -50 260zM522 285h140v385h147l244 -385h149l-256 395q100 10 168 68q68 55 68 176q0 129 -76 192q-78 63 -238 64h-346v-895zM662 782v285h184q35 0 72 -4q35 -6 63 -21q27 -14 45 -41q16 -27 16 -71q0 -53 -18 -82q-20 -31 -53 -45t-74 -17 q-43 -4 -90 -4h-145z" />
<glyph unicode="&#xaf;" horiz-adv-x="454" d="M-119 1270h697v112h-697v-112z" />
<glyph unicode="&#xb0;" horiz-adv-x="819" d="M115 1157q-1 -62 22 -115q23 -55 64 -94q39 -41 94 -63q53 -23 115 -23q61 0 114 23t94 63q39 39 64 94q23 53 23 115q0 61 -23 115q-25 53 -64 94q-41 39 -94 64q-53 23 -114 22q-61 0 -115 -22q-55 -25 -94 -64q-41 -41 -64 -94t-22 -115zM217 1157q0 37 14 72 q12 33 37 61q25 27 62 43q35 16 80 17q45 0 82 -17q35 -16 59 -43q25 -29 39 -61q12 -35 12 -72t-12 -70q-14 -35 -39 -61q-25 -29 -59 -45q-37 -16 -82 -16t-80 16q-37 16 -62 45q-25 27 -37 61q-14 33 -14 70z" />
<glyph unicode="&#xb1;" horiz-adv-x="1228" d="M98 0h1032v139h-1032v-139zM98 555h447v-342h139v342h446v139h-446v340h-139v-340h-447v-139z" />
<glyph unicode="&#xb2;" horiz-adv-x="681" d="M29 573h620v113h-481q8 33 35 59q25 27 61 52q35 25 80 49q43 25 86 51q43 25 86 53q41 29 74 64q31 35 51 80q20 43 21 100q0 61 -23 111q-25 47 -66 79q-43 33 -98 52q-55 16 -117 16q-143 0 -227 -86q-86 -88 -86 -229h139q0 80 39 141q37 61 129 61q72 0 121 -39 t49 -104q0 -45 -14 -80t-43 -63q-31 -31 -76 -60t-104 -63q-49 -29 -95 -60q-45 -31 -79 -69q-35 -41 -56 -94q-23 -55 -26 -134z" />
<glyph unicode="&#xb3;" horiz-adv-x="681" d="M8 848q0 -72 27 -125q25 -55 69 -90q43 -37 105 -55q59 -18 127 -19q66 0 125 16t106 50q45 33 74 84q27 49 27 116q0 78 -43 136q-43 57 -136 73v4q57 23 99 70q41 45 41 104t-23 105q-23 45 -61 76q-41 29 -94 45q-55 14 -119 14q-137 0 -215 -76q-80 -78 -88 -213h139 q0 76 39 127q39 49 125 49q68 0 112 -32q45 -33 45 -95q0 -72 -51 -102q-51 -31 -119 -31h-49v-102h68q37 0 72 -8q33 -8 59 -27q27 -20 43 -49q16 -31 16 -74q0 -70 -57 -108q-57 -39 -135 -39q-184 0 -189 176h-139z" />
<glyph unicode="&#xb4;" horiz-adv-x="454" d="M102 1204h131l269 293h-223z" />
<glyph unicode="&#xb5;" d="M131 -403h174v456h4q27 -41 74 -57q47 -18 113 -19q117 0 202 48q86 45 142 143h4v-168h164v1059h-174v-598q0 -72 -19 -131q-20 -61 -59 -107q-39 -45 -97 -69q-59 -25 -139 -25q-100 0 -158 57q-57 57 -57 156v717h-174v-1462z" />
<glyph unicode="&#xb6;" horiz-adv-x="1228" d="M98 1040q0 -80 33 -149q31 -70 88 -121q55 -51 135 -80q78 -31 172 -31v-974h140v1665h249v-1665h140v1777h-490q-217 0 -342 -108q-125 -111 -125 -314z" />
<glyph unicode="&#xb7;" horiz-adv-x="569" d="M154 637q0 -53 41 -92q39 -39 92 -39q51 0 90 41t39 90q0 53 -39 92t-92 39t-92 -39t-39 -92z" />
<glyph unicode="&#xb8;" horiz-adv-x="454" d="M10 -389q47 -16 94 -27q45 -12 95 -12q43 0 88 10q45 8 82 31q37 20 61 55q23 35 23 86q0 76 -54 113q-53 37 -118 37q-47 0 -68 -15l-4 5l86 106h-86l-125 -158l35 -57q23 8 41 12t43 4q41 0 69 -16q27 -18 27 -47q0 -18 -12 -29q-12 -12 -31 -20q-18 -8 -41 -11 q-23 -4 -43 -4q-33 0 -66 9q-35 8 -59 18z" />
<glyph unicode="&#xb9;" horiz-adv-x="681" d="M135 1204h236v-631h139v879h-102q-20 -84 -97 -115q-76 -31 -176 -30v-103z" />
<glyph unicode="&#xba;" horiz-adv-x="786" d="M51 1112q0 -74 25 -133q23 -61 67 -107q43 -45 107 -69q63 -25 145 -25q168 0 254 94q86 92 86 240q0 72 -22 135q-23 61 -66 109q-43 45 -106 71q-63 25 -148 25q-82 0 -145 -27q-66 -27 -109 -71q-43 -47 -65 -109q-23 -61 -23 -133zM190 1112q0 123 60 180 q57 57 143 58q33 -1 70 -9q35 -10 65 -36q29 -27 50 -74q18 -47 18 -121q0 -45 -10 -86q-12 -43 -35 -74q-25 -33 -62 -51q-39 -18 -94 -18t-94 18t-63 51q-25 33 -35 76q-12 41 -13 86z" />
<glyph unicode="&#xbb;" horiz-adv-x="948" d="M133 233l311 246v180l-311 246v-176l205 -160l-205 -159v-177zM535 233l311 246v180l-311 246v-176l204 -160l-204 -159v-177z" />
<glyph unicode="&#xbc;" horiz-adv-x="1708" d="M74 1204h235v-631h140v879h-103q-20 -86 -96 -115q-76 -31 -176 -30v-103zM307 -55h131l891 1540h-131zM946 197h408v-197h127v197h123v112h-123v570h-105l-430 -564v-118zM1047 309l303 396h4v-396h-307z" />
<glyph unicode="&#xbd;" horiz-adv-x="1708" d="M74 1204h235v-631h140v879h-103q-20 -86 -96 -115q-76 -31 -176 -30v-103zM276 -55h132l890 1540h-131zM1012 0h620v113h-481q8 33 35 59q25 27 61 51q35 25 80 49q43 25 86 52q43 25 86 53q41 29 74 63q31 35 51 80q20 43 21 101q0 61 -23 110q-25 47 -66 80 q-43 33 -98 51q-55 16 -117 17q-143 0 -227 -86q-86 -88 -86 -230h139q0 80 39 142q37 61 129 61q72 0 121 -39t49 -104q0 -45 -14 -80t-43 -64q-31 -31 -76 -59q-45 -29 -104 -64q-49 -29 -94 -59q-45 -31 -80 -70q-35 -41 -56 -94q-23 -55 -26 -133z" />
<glyph unicode="&#xbe;" horiz-adv-x="1708" d="M100 848q0 -72 27 -125q25 -55 70 -90q43 -37 104 -55q59 -18 127 -19q66 0 125 16t106 50q45 33 74 84q27 49 27 116q0 78 -43 136q-43 57 -135 73v4q57 23 98 70q41 45 41 104t-23 105q-23 45 -61 76q-41 29 -94 45q-55 14 -119 14q-137 0 -215 -76q-80 -78 -88 -213 h139q0 76 39 127q39 49 125 49q68 0 113 -32q45 -33 45 -95q0 -72 -52 -102q-51 -31 -118 -31h-50v-102h68q37 0 72 -8q33 -8 59 -27q27 -20 43 -49q16 -31 17 -74q0 -70 -58 -108q-57 -39 -135 -39q-184 0 -188 176h-140zM440 -55h131l891 1540h-131zM981 197h408v-197h127 v197h122v112h-122v570h-105l-430 -564v-118zM1083 301l303 395h5v-395h-308z" />
<glyph unicode="&#xbf;" d="M139 -18q0 -98 33 -175q31 -76 88 -126q57 -53 137 -80q80 -29 174 -29q106 0 193 39q86 37 147 102q59 66 90 156q31 88 29 192h-174q0 -70 -16 -131t-52 -106q-37 -45 -90 -72t-127 -26q-111 0 -174 63q-66 63 -73 176q-4 74 18 127q23 53 61 98q37 43 82 84 q43 39 84 86q39 47 68 109q27 61 31 145v80h-174v-63q0 -51 -15 -94q-16 -43 -41 -78q-27 -37 -57 -68l-66 -63q-35 -33 -65 -68q-33 -35 -57 -76q-25 -41 -39 -90q-14 -51 -15 -112zM463 831h227v228h-227v-228z" />
<glyph unicode="&#xc0;" horiz-adv-x="1327" d="M-12 0h198l164 440h619l159 -440h215l-571 1462h-215zM389 1860l268 -293h131l-176 293h-223zM412 604l247 682h5l243 -682h-495z" />
<glyph unicode="&#xc1;" horiz-adv-x="1327" d="M-12 0h198l164 440h619l159 -440h215l-571 1462h-215zM412 604l247 682h5l243 -682h-495zM539 1567h131l268 293h-223z" />
<glyph unicode="&#xc2;" horiz-adv-x="1327" d="M-12 0h198l164 440h619l159 -440h215l-571 1462h-215zM356 1567h158l143 196l142 -196h172l-213 293h-191zM412 604l247 682h5l243 -682h-495z" />
<glyph unicode="&#xc3;" horiz-adv-x="1327" d="M-12 0h198l164 440h619l159 -440h215l-571 1462h-215zM317 1585h107q-4 39 31 64q35 23 67 22q29 0 66 -12l71 -27q37 -16 74 -28q35 -12 62 -13q59 0 98 19q37 16 63 45q51 72 64 164h-107q-10 -31 -30 -60q-23 -31 -64 -30q-33 0 -65 14q-35 12 -70 29q-35 14 -72 26 q-39 12 -80 12q-49 0 -83 -18q-35 -18 -60 -49t-41 -72q-18 -41 -31 -86zM412 604l247 682h5l243 -682h-495z" />
<glyph unicode="&#xc4;" horiz-adv-x="1327" d="M-12 0h198l164 440h619l159 -440h215l-571 1462h-215zM379 1575h184v213h-184v-213zM412 604l247 682h5l243 -682h-495zM764 1575h184v213h-184v-213z" />
<glyph unicode="&#xc5;" horiz-adv-x="1327" d="M-12 0l569 1462h215l571 -1462h-215l-159 440h-619l-164 -440h-198zM412 604h495l-243 682h-5zM432 1698q1 47 19 90q18 41 51 74q31 31 73 49q41 18 89 18q47 0 90 -18q41 -18 73 -49q31 -33 50 -74q18 -43 18 -90t-18 -88q-18 -43 -50 -74q-33 -33 -73 -51 q-43 -18 -90 -19q-47 0 -89 19q-43 18 -73 51q-33 31 -51 74q-18 41 -19 88zM524 1698q0 -60 41 -99q39 -41 99 -40q59 0 100 40q39 39 39 99q0 59 -39 100q-41 39 -100 39t-99 -39q-41 -41 -41 -100z" />
<glyph unicode="&#xc6;" horiz-adv-x="1896" d="M-12 0h217l209 426h504v-426h915v164h-731v506h676v164h-676v464h719v164h-1096zM489 590l345 708h84v-708h-429z" />
<glyph unicode="&#xc7;" horiz-adv-x="1478" d="M88 727q0 -154 39 -285q37 -133 113 -233q74 -100 188 -162q115 -63 268 -76l-100 -129l35 -57q23 8 41 12t43 4q41 0 69 -16q27 -18 27 -47q0 -18 -12 -29q-12 -12 -31 -20q-18 -8 -41 -11q-23 -4 -43 -4q-33 0 -66 9q-35 8 -59 18l-37 -90q47 -16 94 -27q45 -12 95 -12 q43 0 88 10q45 8 82 31q37 20 61 55q23 35 23 86q0 76 -54 113q-53 37 -118 37q-47 0 -68 -15l-4 5l59 75q270 4 430 158q158 154 187 424h-195q-6 -90 -37 -168t-84 -133q-55 -57 -129 -88q-76 -33 -172 -33q-131 0 -225 49t-154 133q-61 82 -90 195q-29 111 -28 235 q0 115 28 222q29 106 90 190q59 82 154 131q92 49 223 49q154 0 266 -78q111 -78 144 -233h194q-16 117 -69 207q-53 88 -133 147t-183 90q-102 31 -217 31q-168 0 -297 -59q-131 -61 -217 -166q-88 -104 -133 -244q-45 -141 -45 -301z" />
<glyph unicode="&#xc8;" horiz-adv-x="1251" d="M160 0h1016v164h-822v506h760v164h-760v464h815v164h-1009v-1462zM352 1860l269 -293h131l-177 293h-223z" />
<glyph unicode="&#xc9;" horiz-adv-x="1251" d="M160 0h1016v164h-822v506h760v164h-760v464h815v164h-1009v-1462zM502 1567h131l268 293h-223z" />
<glyph unicode="&#xca;" horiz-adv-x="1251" d="M160 0h1016v164h-822v506h760v164h-760v464h815v164h-1009v-1462zM319 1567h158l144 196l141 -196h172l-213 293h-191z" />
<glyph unicode="&#xcb;" horiz-adv-x="1251" d="M160 0h1016v164h-822v506h760v164h-760v464h815v164h-1009v-1462zM342 1575h184v213h-184v-213zM727 1575h184v213h-184v-213z" />
<glyph unicode="&#xcc;" horiz-adv-x="530" d="M-6 1860l266 -293h131l-176 293h-221zM168 0h194v1462h-194v-1462z" />
<glyph unicode="&#xcd;" horiz-adv-x="530" d="M141 1567h131l269 293h-224zM168 0h194v1462h-194v-1462z" />
<glyph unicode="&#xce;" horiz-adv-x="530" d="M-39 1567h156l143 196l141 -196h172l-213 293h-190zM168 0h194v1462h-194v-1462z" />
<glyph unicode="&#xcf;" horiz-adv-x="530" d="M-16 1575h182v213h-182v-213zM168 0h194v1462h-194v-1462zM367 1575h184v213h-184v-213z" />
<glyph unicode="&#xd0;" horiz-adv-x="1441" d="M16 694h144v-694h502q182 0 315 51t219 150q86 96 127 239q41 141 41 326q0 352 -182 524t-520 172h-502v-628h-144v-140zM354 164v530h439v140h-439v464h328q135 0 227 -36q92 -39 152 -111q57 -74 84 -176q25 -104 24 -236q0 -135 -26 -229q-29 -96 -72 -160 q-43 -63 -96 -100q-55 -37 -111 -55q-55 -20 -104 -25q-49 -6 -82 -6h-324z" />
<glyph unicode="&#xd1;" horiz-adv-x="1478" d="M158 0h184v1174h4l764 -1174h213v1462h-184v-1186h-4l-770 1186h-207v-1462zM393 1585h107q-4 39 30 64q35 23 68 22q29 0 66 -12l71 -27q37 -16 74 -28q35 -12 61 -13q59 0 99 19q37 16 63 45q51 72 64 164h-107q-10 -31 -31 -60q-23 -31 -63 -30q-33 0 -66 14 q-35 12 -69 29q-35 14 -72 26q-39 12 -80 12q-49 0 -84 -18t-59 -49q-25 -31 -41 -72q-18 -41 -31 -86z" />
<glyph unicode="&#xd2;" horiz-adv-x="1556" d="M78 731q0 -150 45 -287q43 -139 131 -245t219 -168q131 -63 305 -64q174 0 305 64q131 61 220 168q88 106 133 245q43 137 43 287t-43 289q-45 137 -133 244q-88 106 -220 170q-131 63 -305 63t-305 -63t-219 -170q-88 -106 -131 -244q-45 -139 -45 -289zM272 731 q0 110 29 219q29 106 90 193q61 86 158 139q96 51 229 51t230 -51q96 -53 157 -139t90 -193q29 -109 29 -219q0 -111 -29 -217q-29 -109 -90 -195t-157 -137q-96 -53 -230 -53q-133 0 -229 53q-96 51 -158 137q-61 86 -90 195q-29 106 -29 217zM504 1860l268 -293h131 l-176 293h-223z" />
<glyph unicode="&#xd3;" horiz-adv-x="1556" d="M78 731q0 -150 45 -287q43 -139 131 -245t219 -168q131 -63 305 -64q174 0 305 64q131 61 220 168q88 106 133 245q43 137 43 287t-43 289q-45 137 -133 244q-88 106 -220 170q-131 63 -305 63t-305 -63t-219 -170q-88 -106 -131 -244q-45 -139 -45 -289zM272 731 q0 110 29 219q29 106 90 193q61 86 158 139q96 51 229 51t230 -51q96 -53 157 -139t90 -193q29 -109 29 -219q0 -111 -29 -217q-29 -109 -90 -195t-157 -137q-96 -53 -230 -53q-133 0 -229 53q-96 51 -158 137q-61 86 -90 195q-29 106 -29 217zM653 1567h131l269 293h-224z " />
<glyph unicode="&#xd4;" horiz-adv-x="1556" d="M78 731q0 -150 45 -287q43 -139 131 -245t219 -168q131 -63 305 -64q174 0 305 64q131 61 220 168q88 106 133 245q43 137 43 287t-43 289q-45 137 -133 244q-88 106 -220 170q-131 63 -305 63t-305 -63t-219 -170q-88 -106 -131 -244q-45 -139 -45 -289zM272 731 q0 110 29 219q29 106 90 193q61 86 158 139q96 51 229 51t230 -51q96 -53 157 -139t90 -193q29 -109 29 -219q0 -111 -29 -217q-29 -109 -90 -195t-157 -137q-96 -53 -230 -53q-133 0 -229 53q-96 51 -158 137q-61 86 -90 195q-29 106 -29 217zM471 1567h158l143 196 l141 -196h172l-213 293h-190z" />
<glyph unicode="&#xd5;" horiz-adv-x="1556" d="M78 731q0 -150 45 -287q43 -139 131 -245t219 -168q131 -63 305 -64q174 0 305 64q131 61 220 168q88 106 133 245q43 137 43 287t-43 289q-45 137 -133 244q-88 106 -220 170q-131 63 -305 63t-305 -63t-219 -170q-88 -106 -131 -244q-45 -139 -45 -289zM272 731 q0 110 29 219q29 106 90 193q61 86 158 139q96 51 229 51t230 -51q96 -53 157 -139t90 -193q29 -109 29 -219q0 -111 -29 -217q-29 -109 -90 -195t-157 -137q-96 -53 -230 -53q-133 0 -229 53q-96 51 -158 137q-61 86 -90 195q-29 106 -29 217zM432 1585h107q-4 39 30 64 q35 23 68 22q29 0 65 -12l72 -27q37 -16 74 -28q35 -12 61 -13q59 0 99 19q37 16 63 45q51 72 64 164h-107q-10 -31 -31 -60q-23 -31 -63 -30q-33 0 -66 14q-35 12 -69 29q-35 14 -72 26q-39 12 -80 12q-49 0 -84 -18t-59 -49q-25 -31 -41 -72q-18 -41 -31 -86z" />
<glyph unicode="&#xd6;" horiz-adv-x="1556" d="M78 731q0 -150 45 -287q43 -139 131 -245t219 -168q131 -63 305 -64q174 0 305 64q131 61 220 168q88 106 133 245q43 137 43 287t-43 289q-45 137 -133 244q-88 106 -220 170q-131 63 -305 63t-305 -63t-219 -170q-88 -106 -131 -244q-45 -139 -45 -289zM272 731 q0 110 29 219q29 106 90 193q61 86 158 139q96 51 229 51t230 -51q96 -53 157 -139t90 -193q29 -109 29 -219q0 -111 -29 -217q-29 -109 -90 -195t-157 -137q-96 -53 -230 -53q-133 0 -229 53q-96 51 -158 137q-61 86 -90 195q-29 106 -29 217zM494 1575h184v213h-184v-213z M879 1575h184v213h-184v-213z" />
<glyph unicode="&#xd7;" horiz-adv-x="1228" d="M145 147l99 -98l372 373l371 -373l98 98l-370 373l368 369l-98 98l-369 -369l-370 369l-99 -98l371 -369z" />
<glyph unicode="&#xd8;" horiz-adv-x="1556" d="M76 20l67 -59l166 180q86 -82 203 -127q117 -47 266 -47q174 0 305 64q131 61 220 168q88 106 133 245q43 137 43 287q0 147 -39 281q-41 131 -127 237l168 185l-66 61l-162 -178q-86 86 -202 133q-119 47 -273 47q-174 0 -305 -63t-219 -170q-88 -106 -131 -244 q-45 -139 -45 -289q0 -147 43 -282q41 -135 127 -240zM272 731q0 111 29 219q29 106 90 193q61 86 158 139q96 51 229 51q117 0 205 -41t147 -110l-755 -834q-53 82 -78 180t-25 203zM430 274l756 834q51 -80 76 -178q23 -98 22 -199q0 -111 -29 -217q-29 -109 -90 -195 t-157 -137q-96 -53 -230 -53q-117 0 -203 39t-145 106z" />
<glyph unicode="&#xd9;" horiz-adv-x="1478" d="M152 528q0 -293 159 -426q158 -135 441 -135q276 0 426 142q150 139 149 419v934h-194v-934q0 -197 -97 -297q-98 -102 -284 -102q-197 0 -301 102q-104 100 -105 297v934h-194v-934zM465 1860l268 -293h131l-176 293h-223z" />
<glyph unicode="&#xda;" horiz-adv-x="1478" d="M152 528q0 -293 159 -426q158 -135 441 -135q276 0 426 142q150 139 149 419v934h-194v-934q0 -197 -97 -297q-98 -102 -284 -102q-197 0 -301 102q-104 100 -105 297v934h-194v-934zM614 1567h131l269 293h-223z" />
<glyph unicode="&#xdb;" horiz-adv-x="1478" d="M152 528q0 -293 159 -426q158 -135 441 -135q276 0 426 142q150 139 149 419v934h-194v-934q0 -197 -97 -297q-98 -102 -284 -102q-197 0 -301 102q-104 100 -105 297v934h-194v-934zM432 1567h158l143 196l141 -196h173l-213 293h-191z" />
<glyph unicode="&#xdc;" horiz-adv-x="1478" d="M152 528q0 -293 159 -426q158 -135 441 -135q276 0 426 142q150 139 149 419v934h-194v-934q0 -197 -97 -297q-98 -102 -284 -102q-197 0 -301 102q-104 100 -105 297v934h-194v-934zM455 1575h184v213h-184v-213zM840 1575h184v213h-184v-213z" />
<glyph unicode="&#xdd;" horiz-adv-x="1327" d="M4 1462l565 -864v-598h195v598l559 864h-221l-428 -696l-438 696h-232zM539 1567h131l268 293h-223z" />
<glyph unicode="&#xde;" horiz-adv-x="1327" d="M160 0h194v365h447q221 -2 336 112q113 113 112 318q0 205 -112 319q-115 115 -336 115h-447v233h-194v-1462zM354 528v537h381q166 0 244 -68q76 -68 76 -202q0 -131 -76 -199q-78 -70 -244 -68h-381z" />
<glyph unicode="&#xdf;" d="M131 0h174v1057q0 86 19 141q18 55 51 88q31 31 76 45q45 12 98 12q49 0 90 -18t72 -49t49 -72q16 -43 16 -92q0 -70 -24 -117q-27 -49 -70 -75q-43 -29 -98 -39q-57 -10 -119 -7v-139q86 0 156 -10t118 -43q49 -33 76 -92q27 -61 27 -162q0 -135 -82 -217 q-84 -82 -225 -82q-16 0 -35 2q-18 0 -35 4v-149q41 -8 88 -9q104 0 192 35q86 33 150 97q61 61 96 149q35 86 35 193q0 68 -16 131q-18 61 -54 110q-35 49 -86 84q-53 33 -122 41v4q117 37 165 119q47 82 48 199q0 90 -37 157q-39 66 -99 111q-61 45 -137 68t-151 22 q-92 0 -166 -29q-76 -31 -129 -84q-53 -55 -82 -129q-29 -76 -29 -168v-1087z" />
<glyph unicode="&#xe0;" horiz-adv-x="1099" d="M74 272q0 -80 28 -135q27 -57 76 -92q47 -37 111 -51q63 -16 135 -17q111 0 207 39q94 37 166 123q0 -86 41 -123q39 -39 106 -39q80 0 125 27v135q-31 -10 -53 -10q-41 0 -47 29q-8 29 -8 90v545q0 92 -35 149t-92 90q-57 31 -127 41q-72 10 -144 10q-88 0 -168 -18 t-141 -59q-61 -43 -98 -111t-41 -166h174q6 117 80 160q74 41 184 41q41 0 84 -6q41 -6 76 -25q33 -18 55 -53q20 -35 20 -92q0 -49 -28 -74q-29 -27 -78 -39q-49 -14 -113 -20q-66 -8 -137 -23q-68 -12 -131 -31q-66 -18 -115 -53q-51 -37 -82 -94t-30 -148zM258 285 q0 66 31 104q29 37 76 57t106 31l119 17q57 6 110 18q53 10 86 35v-178q0 -37 -18 -78q-18 -43 -57 -78q-39 -37 -101 -59q-61 -25 -147 -25q-39 0 -76 8q-39 8 -65 27q-29 18 -46 49q-18 29 -18 72zM276 1497l269 -293h131l-176 293h-224z" />
<glyph unicode="&#xe1;" horiz-adv-x="1099" d="M74 272q0 -80 28 -135q27 -57 76 -92q47 -37 111 -51q63 -16 135 -17q111 0 207 39q94 37 166 123q0 -86 41 -123q39 -39 106 -39q80 0 125 27v135q-31 -10 -53 -10q-41 0 -47 29q-8 29 -8 90v545q0 92 -35 149t-92 90q-57 31 -127 41q-72 10 -144 10q-88 0 -168 -18 t-141 -59q-61 -43 -98 -111t-41 -166h174q6 117 80 160q74 41 184 41q41 0 84 -6q41 -6 76 -25q33 -18 55 -53q20 -35 20 -92q0 -49 -28 -74q-29 -27 -78 -39q-49 -14 -113 -20q-66 -8 -137 -23q-68 -12 -131 -31q-66 -18 -115 -53q-51 -37 -82 -94t-30 -148zM258 285 q0 66 31 104q29 37 76 57t106 31l119 17q57 6 110 18q53 10 86 35v-178q0 -37 -18 -78q-18 -43 -57 -78q-39 -37 -101 -59q-61 -25 -147 -25q-39 0 -76 8q-39 8 -65 27q-29 18 -46 49q-18 29 -18 72zM426 1204h131l268 293h-223z" />
<glyph unicode="&#xe2;" horiz-adv-x="1099" d="M74 272q0 -80 28 -135q27 -57 76 -92q47 -37 111 -51q63 -16 135 -17q111 0 207 39q94 37 166 123q0 -86 41 -123q39 -39 106 -39q80 0 125 27v135q-31 -10 -53 -10q-41 0 -47 29q-8 29 -8 90v545q0 92 -35 149t-92 90q-57 31 -127 41q-72 10 -144 10q-88 0 -168 -18 t-141 -59q-61 -43 -98 -111t-41 -166h174q6 117 80 160q74 41 184 41q41 0 84 -6q41 -6 76 -25q33 -18 55 -53q20 -35 20 -92q0 -49 -28 -74q-29 -27 -78 -39q-49 -14 -113 -20q-66 -8 -137 -23q-68 -12 -131 -31q-66 -18 -115 -53q-51 -37 -82 -94t-30 -148zM244 1204h157 l144 197l141 -197h172l-213 293h-190zM258 285q0 66 31 104q29 37 76 57t106 31l119 17q57 6 110 18q53 10 86 35v-178q0 -37 -18 -78q-18 -43 -57 -78q-39 -37 -101 -59q-61 -25 -147 -25q-39 0 -76 8q-39 8 -65 27q-29 18 -46 49q-18 29 -18 72z" />
<glyph unicode="&#xe3;" horiz-adv-x="1099" d="M74 272q0 -80 28 -135q27 -57 76 -92q47 -37 111 -51q63 -16 135 -17q111 0 207 39q94 37 166 123q0 -86 41 -123q39 -39 106 -39q80 0 125 27v135q-31 -10 -53 -10q-41 0 -47 29q-8 29 -8 90v545q0 92 -35 149t-92 90q-57 31 -127 41q-72 10 -144 10q-88 0 -168 -18 t-141 -59q-61 -43 -98 -111t-41 -166h174q6 117 80 160q74 41 184 41q41 0 84 -6q41 -6 76 -25q33 -18 55 -53q20 -35 20 -92q0 -49 -28 -74q-29 -27 -78 -39q-49 -14 -113 -20q-66 -8 -137 -23q-68 -12 -131 -31q-66 -18 -115 -53q-51 -37 -82 -94t-30 -148zM205 1223h106 q-4 39 31 63q35 23 68 23q29 0 65 -13l72 -26q37 -16 74 -29q35 -12 61 -12q59 0 98 18q37 16 64 45q51 72 63 164h-106q-10 -31 -31 -59q-23 -31 -63 -31q-33 0 -66 14q-35 12 -70 29q-35 14 -71 27q-39 12 -80 12q-49 0 -84 -18t-60 -50q-25 -31 -40 -71q-18 -41 -31 -86z M258 285q0 66 31 104q29 37 76 57t106 31l119 17q57 6 110 18q53 10 86 35v-178q0 -37 -18 -78q-18 -43 -57 -78q-39 -37 -101 -59q-61 -25 -147 -25q-39 0 -76 8q-39 8 -65 27q-29 18 -46 49q-18 29 -18 72z" />
<glyph unicode="&#xe4;" horiz-adv-x="1099" d="M74 272q0 -80 28 -135q27 -57 76 -92q47 -37 111 -51q63 -16 135 -17q111 0 207 39q94 37 166 123q0 -86 41 -123q39 -39 106 -39q80 0 125 27v135q-31 -10 -53 -10q-41 0 -47 29q-8 29 -8 90v545q0 92 -35 149t-92 90q-57 31 -127 41q-72 10 -144 10q-88 0 -168 -18 t-141 -59q-61 -43 -98 -111t-41 -166h174q6 117 80 160q74 41 184 41q41 0 84 -6q41 -6 76 -25q33 -18 55 -53q20 -35 20 -92q0 -49 -28 -74q-29 -27 -78 -39q-49 -14 -113 -20q-66 -8 -137 -23q-68 -12 -131 -31q-66 -18 -115 -53q-51 -37 -82 -94t-30 -148zM258 285 q0 66 31 104q29 37 76 57t106 31l119 17q57 6 110 18q53 10 86 35v-178q0 -37 -18 -78q-18 -43 -57 -78q-39 -37 -101 -59q-61 -25 -147 -25q-39 0 -76 8q-39 8 -65 27q-29 18 -46 49q-18 29 -18 72zM266 1212h185v213h-185v-213zM651 1212h185v213h-185v-213z" />
<glyph unicode="&#xe5;" horiz-adv-x="1099" d="M74 272q0 -80 28 -135q27 -57 76 -92q47 -37 111 -51q63 -16 135 -17q111 0 207 39q94 37 166 123q0 -86 41 -123q39 -39 106 -39q80 0 125 27v135q-31 -10 -53 -10q-41 0 -47 29q-8 29 -8 90v545q0 92 -35 149t-92 90q-57 31 -127 41q-72 10 -144 10q-88 0 -168 -18 t-141 -59q-61 -43 -98 -111t-41 -166h174q6 117 80 160q74 41 184 41q41 0 84 -6q41 -6 76 -25q33 -18 55 -53q20 -35 20 -92q0 -49 -28 -74q-29 -27 -78 -39q-49 -14 -113 -20q-66 -8 -137 -23q-68 -12 -131 -31q-66 -18 -115 -53q-51 -37 -82 -94t-30 -148zM258 285 q0 66 31 104q29 37 76 57t106 31l119 17q57 6 110 18q53 10 86 35v-178q0 -37 -18 -78q-18 -43 -57 -78q-39 -37 -101 -59q-61 -25 -147 -25q-39 0 -76 8q-39 8 -65 27q-29 18 -46 49q-18 29 -18 72zM319 1356q1 -47 19 -88q18 -43 51 -74q31 -33 74 -51q41 -18 88 -19 q47 0 90 19q41 18 74 51q31 31 49 74q18 41 18 88t-18 90q-18 41 -49 74q-33 31 -74 49q-43 18 -90 18t-88 -18q-43 -18 -74 -49q-33 -33 -51 -74q-18 -43 -19 -90zM412 1356q0 59 41 100q39 39 98 39t100 -39q39 -41 39 -100t-39 -99q-41 -41 -100 -40q-59 0 -98 40 q-41 39 -41 99z" />
<glyph unicode="&#xe6;" horiz-adv-x="1781" d="M74 272q0 -80 28 -135q27 -57 76 -92q47 -37 113 -51q66 -16 141 -17q147 0 268 50q119 47 179 155q27 -59 67 -98q39 -39 90 -61q49 -25 107 -35q57 -10 119 -11q180 0 301 93q119 90 157 264h-178q-25 -104 -96 -154q-74 -51 -172 -51q-80 0 -139 29q-61 27 -101 75 q-39 47 -57 111q-20 63 -21 133h777q0 123 -23 234t-78 194q-55 82 -145 131q-92 47 -232 47q-96 0 -190 -34q-94 -37 -147 -119q-25 49 -66 80t-90 47t-100 22q-51 4 -99 4q-88 0 -168 -18t-141 -59q-61 -43 -98 -111t-41 -166h174q6 117 80 160q74 41 184 41q43 0 86 -4 q43 -6 78 -23q33 -18 55 -51q20 -33 21 -86q0 -47 -21 -72q-20 -27 -63 -41q-43 -16 -111 -26q-70 -10 -166 -29q-68 -12 -131 -31q-66 -18 -115 -53q-51 -37 -82 -94t-30 -148zM258 285q0 49 18 82q16 33 46 55q29 20 67 33q39 12 82 20q41 8 88 14q45 6 88 15q43 6 82 16 q37 10 64 27v-178q0 -37 -19 -78q-20 -43 -59 -78q-41 -37 -103 -59q-63 -25 -149 -25q-39 0 -76 8q-39 8 -65 27q-29 18 -46 49q-18 29 -18 72zM956 631q0 66 21 121q20 53 59 94q39 39 94 61q55 23 125 23t125 -23q53 -25 90 -63q37 -41 58 -96q18 -55 20 -117h-592z" />
<glyph unicode="&#xe7;" horiz-adv-x="1099" d="M74 516q0 -113 28 -207q29 -94 84 -164t140 -112q82 -43 190 -51l-108 -140l34 -57q23 8 41 12t43 4q41 0 70 -16q27 -18 27 -47q0 -18 -13 -29q-12 -12 -30 -20t-41 -11q-23 -4 -43 -4q-33 0 -66 9q-35 8 -59 18l-37 -90q47 -16 94 -27q45 -12 94 -12q43 0 88 10 q45 8 82 31q37 20 62 55q23 35 22 86q0 76 -53 113t-119 37q-47 0 -67 -15l-5 5l68 86q186 8 297 114t139 293h-178q-16 -123 -88 -190q-74 -68 -203 -68q-82 0 -141 33t-96 88q-37 53 -54 123q-18 70 -18 143q0 80 16 156q16 74 56 131q37 57 100 92t158 35q111 0 176 -56 q66 -55 86 -155h180q-10 94 -49 164q-39 68 -98 112q-61 45 -140 68q-80 20 -170 20q-125 0 -219 -43q-94 -45 -155 -120q-63 -78 -95 -181q-31 -104 -30 -223z" />
<glyph unicode="&#xe8;" horiz-adv-x="1099" d="M74 532q4 -121 37 -223q31 -102 94 -176t157 -115q92 -41 220 -41q180 0 299 91q119 90 153 268h-172q-23 -104 -92 -156q-72 -51 -182 -51q-86 0 -150 29q-63 29 -104 78q-41 47 -60 110q-18 61 -16 131h793q4 96 -17 203q-23 106 -78 197q-57 90 -149 149 q-94 57 -236 57q-109 0 -198 -41q-92 -41 -158 -114q-68 -74 -104 -174q-37 -100 -37 -222zM258 631q4 61 27 117q23 53 61 94q39 41 94 65q53 23 121 23q66 0 121 -23q53 -25 94 -63q39 -41 64 -96q23 -55 26 -117h-608zM276 1497l269 -293h131l-176 293h-224z" />
<glyph unicode="&#xe9;" horiz-adv-x="1099" d="M74 532q4 -121 37 -223q31 -102 94 -176t157 -115q92 -41 220 -41q180 0 299 91q119 90 153 268h-172q-23 -104 -92 -156q-72 -51 -182 -51q-86 0 -150 29q-63 29 -104 78q-41 47 -60 110q-18 61 -16 131h793q4 96 -17 203q-23 106 -78 197q-57 90 -149 149 q-94 57 -236 57q-109 0 -198 -41q-92 -41 -158 -114q-68 -74 -104 -174q-37 -100 -37 -222zM258 631q4 61 27 117q23 53 61 94q39 41 94 65q53 23 121 23q66 0 121 -23q53 -25 94 -63q39 -41 64 -96q23 -55 26 -117h-608zM426 1204h131l268 293h-223z" />
<glyph unicode="&#xea;" horiz-adv-x="1099" d="M74 532q4 -121 37 -223q31 -102 94 -176t157 -115q92 -41 220 -41q180 0 299 91q119 90 153 268h-172q-23 -104 -92 -156q-72 -51 -182 -51q-86 0 -150 29q-63 29 -104 78q-41 47 -60 110q-18 61 -16 131h793q4 96 -17 203q-23 106 -78 197q-57 90 -149 149 q-94 57 -236 57q-109 0 -198 -41q-92 -41 -158 -114q-68 -74 -104 -174q-37 -100 -37 -222zM244 1204h157l144 197l141 -197h172l-213 293h-190zM258 631q4 61 27 117q23 53 61 94q39 41 94 65q53 23 121 23q66 0 121 -23q53 -25 94 -63q39 -41 64 -96q23 -55 26 -117h-608z " />
<glyph unicode="&#xeb;" horiz-adv-x="1099" d="M74 532q4 -121 37 -223q31 -102 94 -176t157 -115q92 -41 220 -41q180 0 299 91q119 90 153 268h-172q-23 -104 -92 -156q-72 -51 -182 -51q-86 0 -150 29q-63 29 -104 78q-41 47 -60 110q-18 61 -16 131h793q4 96 -17 203q-23 106 -78 197q-57 90 -149 149 q-94 57 -236 57q-109 0 -198 -41q-92 -41 -158 -114q-68 -74 -104 -174q-37 -100 -37 -222zM258 631q4 61 27 117q23 53 61 94q39 41 94 65q53 23 121 23q66 0 121 -23q53 -25 94 -63q39 -41 64 -96q23 -55 26 -117h-608zM266 1212h185v213h-185v-213zM651 1212h185v213 h-185v-213z" />
<glyph unicode="&#xec;" horiz-adv-x="454" d="M-45 1497l266 -293h131l-176 293h-221zM141 0h174v1059h-174v-1059z" />
<glyph unicode="&#xed;" horiz-adv-x="454" d="M102 1204h131l269 293h-223zM141 0h174v1059h-174v-1059z" />
<glyph unicode="&#xee;" horiz-adv-x="454" d="M-78 1204h156l143 197l141 -197h173l-213 293h-191zM141 0h174v1059h-174v-1059z" />
<glyph unicode="&#xef;" horiz-adv-x="454" d="M-55 1212h182v213h-182v-213zM141 0h174v1059h-174v-1059zM328 1212h184v213h-184v-213z" />
<glyph unicode="&#xf0;" horiz-adv-x="1175" d="M74 528q0 -117 32 -217q33 -100 99 -174q66 -76 162 -117q96 -43 221 -43q127 0 223 43q94 41 160 117q66 74 98 174q33 100 33 217q0 236 -84 435q-86 197 -273 350l236 108l-72 76l-245 -115q-41 33 -84 64l-74 51l-144 -92q29 -16 70 -43t74 -55l-223 -105l77 -82 l236 111q25 -16 57 -47q33 -31 68 -72t67 -88q33 -49 58 -102h-4q-55 63 -129 90q-74 25 -156 24q-117 0 -207 -41q-90 -43 -151 -112q-61 -72 -93 -162q-33 -92 -32 -193zM258 528q0 158 82 256q80 98 238 99q89 0 155 -29q63 -29 105 -78q41 -49 61 -112q18 -63 19 -136 q0 -96 -25 -170q-27 -76 -72 -125q-45 -51 -104 -77q-61 -27 -129 -27t-127 27q-61 27 -107 77q-45 49 -69 125q-27 74 -27 170z" />
<glyph unicode="&#xf1;" d="M131 0h174v598q0 72 21 133q18 59 57 105q39 45 98 69q57 25 137 25q100 0 158 -58q57 -57 58 -155v-717h174v696q0 86 -17 158q-18 70 -61 121t-113 80t-174 28q-236 0 -344 -192h-4v168h-164v-1059zM223 1223h107q-4 39 30 63q35 23 68 23q29 0 66 -13l71 -26 q37 -16 74 -29q35 -12 61 -12q59 0 99 18q37 16 63 45q51 72 64 164h-107q-10 -31 -31 -59q-23 -31 -63 -31q-33 0 -66 14q-35 12 -69 29q-35 14 -72 27q-39 12 -80 12q-49 0 -84 -18t-59 -50q-25 -31 -41 -71q-18 -41 -31 -86z" />
<glyph unicode="&#xf2;" horiz-adv-x="1175" d="M74 528q-1 -117 32 -217t99 -174q66 -76 162 -117q96 -43 221 -43q127 0 223 43q94 41 160 117q66 74 98 174q33 100 33 217t-33 220q-33 100 -98 176q-66 74 -160 116q-96 43 -223 43q-125 0 -221 -43t-162 -116q-66 -76 -99 -176q-33 -102 -32 -220zM258 528 q0 96 27 172q25 74 69 125q45 51 107 78q59 27 127 27t129 -27q59 -27 104 -78t72 -125q25 -76 25 -172t-25 -170q-27 -76 -72 -125q-45 -51 -104 -77q-61 -27 -129 -27t-127 27q-61 27 -107 77q-45 49 -69 125q-27 74 -27 170zM313 1497l269 -293h131l-176 293h-224z" />
<glyph unicode="&#xf3;" horiz-adv-x="1175" d="M74 528q-1 -117 32 -217t99 -174q66 -76 162 -117q96 -43 221 -43q127 0 223 43q94 41 160 117q66 74 98 174q33 100 33 217t-33 220q-33 100 -98 176q-66 74 -160 116q-96 43 -223 43q-125 0 -221 -43t-162 -116q-66 -76 -99 -176q-33 -102 -32 -220zM258 528 q0 96 27 172q25 74 69 125q45 51 107 78q59 27 127 27t129 -27q59 -27 104 -78t72 -125q25 -76 25 -172t-25 -170q-27 -76 -72 -125q-45 -51 -104 -77q-61 -27 -129 -27t-127 27q-61 27 -107 77q-45 49 -69 125q-27 74 -27 170zM463 1204h131l268 293h-223z" />
<glyph unicode="&#xf4;" horiz-adv-x="1175" d="M74 528q-1 -117 32 -217t99 -174q66 -76 162 -117q96 -43 221 -43q127 0 223 43q94 41 160 117q66 74 98 174q33 100 33 217t-33 220q-33 100 -98 176q-66 74 -160 116q-96 43 -223 43q-125 0 -221 -43t-162 -116q-66 -76 -99 -176q-33 -102 -32 -220zM258 528 q0 96 27 172q25 74 69 125q45 51 107 78q59 27 127 27t129 -27q59 -27 104 -78t72 -125q25 -76 25 -172t-25 -170q-27 -76 -72 -125q-45 -51 -104 -77q-61 -27 -129 -27t-127 27q-61 27 -107 77q-45 49 -69 125q-27 74 -27 170zM281 1204h157l144 197l141 -197h172l-213 293 h-190z" />
<glyph unicode="&#xf5;" horiz-adv-x="1175" d="M74 528q-1 -117 32 -217t99 -174q66 -76 162 -117q96 -43 221 -43q127 0 223 43q94 41 160 117q66 74 98 174q33 100 33 217t-33 220q-33 100 -98 176q-66 74 -160 116q-96 43 -223 43q-125 0 -221 -43t-162 -116q-66 -76 -99 -176q-33 -102 -32 -220zM242 1223h106 q-4 39 31 63q35 23 67 23q29 0 66 -13l72 -26q37 -16 73 -29q35 -12 62 -12q59 0 98 18q37 16 64 45q51 72 63 164h-106q-10 -31 -31 -59q-23 -31 -64 -31q-33 0 -65 14q-35 12 -70 29q-35 14 -71 27q-39 12 -80 12q-49 0 -84 -18t-60 -50q-25 -31 -41 -71q-18 -41 -30 -86z M258 528q0 96 27 172q25 74 69 125q45 51 107 78q59 27 127 27t129 -27q59 -27 104 -78t72 -125q25 -76 25 -172t-25 -170q-27 -76 -72 -125q-45 -51 -104 -77q-61 -27 -129 -27t-127 27q-61 27 -107 77q-45 49 -69 125q-27 74 -27 170z" />
<glyph unicode="&#xf6;" horiz-adv-x="1175" d="M74 528q-1 -117 32 -217t99 -174q66 -76 162 -117q96 -43 221 -43q127 0 223 43q94 41 160 117q66 74 98 174q33 100 33 217t-33 220q-33 100 -98 176q-66 74 -160 116q-96 43 -223 43q-125 0 -221 -43t-162 -116q-66 -76 -99 -176q-33 -102 -32 -220zM258 528 q0 96 27 172q25 74 69 125q45 51 107 78q59 27 127 27t129 -27q59 -27 104 -78t72 -125q25 -76 25 -172t-25 -170q-27 -76 -72 -125q-45 -51 -104 -77q-61 -27 -129 -27t-127 27q-61 27 -107 77q-45 49 -69 125q-27 74 -27 170zM303 1212h184v213h-184v-213zM688 1212h184 v213h-184v-213z" />
<glyph unicode="&#xf7;" horiz-adv-x="1228" d="M98 449h1032v139h-1032v-139zM483 96q0 -53 41 -90q39 -39 92 -39q51 0 91 41q39 39 38 88q0 53 -38 92q-39 39 -93 39q-53 0 -92 -39t-39 -92zM483 940q0 -53 41 -92q39 -39 92 -39q51 0 91 41q39 41 38 90q0 53 -38 92q-39 39 -93 39q-53 0 -92 -39t-39 -92z" />
<glyph unicode="&#xf8;" horiz-adv-x="1175" d="M70 4l57 -47l123 135q63 -55 147 -84q84 -31 191 -31q127 0 223 43q94 41 160 117q66 74 98 174q33 100 33 217q0 113 -29 211q-31 96 -90 168l123 135l-55 54l-119 -133q-66 59 -150 90t-194 30q-125 0 -221 -43t-162 -116q-66 -76 -99 -176q-33 -102 -32 -220 q0 -113 30 -209q31 -98 93 -174zM258 528q0 96 27 172q25 74 69 125q45 51 107 78q59 27 127 27q137 0 227 -96l-496 -553q-29 51 -45 112t-16 135zM365 221l495 551q27 -47 43 -106q14 -61 15 -138q0 -96 -25 -170q-27 -76 -72 -125q-45 -51 -104 -77q-61 -27 -129 -27 q-131 0 -223 92z" />
<glyph unicode="&#xf9;" d="M131 362q0 -86 19 -155q16 -72 59 -123t113 -78q70 -29 174 -29q117 0 202 48q86 45 142 143h4v-168h164v1059h-174v-598q0 -72 -19 -131q-20 -61 -59 -107q-39 -45 -97 -69q-59 -25 -139 -25q-100 0 -158 57q-57 57 -57 156v717h-174v-697zM295 1497l268 -293h131 l-176 293h-223z" />
<glyph unicode="&#xfa;" d="M131 362q0 -86 19 -155q16 -72 59 -123t113 -78q70 -29 174 -29q117 0 202 48q86 45 142 143h4v-168h164v1059h-174v-598q0 -72 -19 -131q-20 -61 -59 -107q-39 -45 -97 -69q-59 -25 -139 -25q-100 0 -158 57q-57 57 -57 156v717h-174v-697zM444 1204h131l269 293h-223z " />
<glyph unicode="&#xfb;" d="M131 362q0 -86 19 -155q16 -72 59 -123t113 -78q70 -29 174 -29q117 0 202 48q86 45 142 143h4v-168h164v1059h-174v-598q0 -72 -19 -131q-20 -61 -59 -107q-39 -45 -97 -69q-59 -25 -139 -25q-100 0 -158 57q-57 57 -57 156v717h-174v-697zM262 1204h158l143 197 l142 -197h172l-213 293h-191z" />
<glyph unicode="&#xfc;" d="M131 362q0 -86 19 -155q16 -72 59 -123t113 -78q70 -29 174 -29q117 0 202 48q86 45 142 143h4v-168h164v1059h-174v-598q0 -72 -19 -131q-20 -61 -59 -107q-39 -45 -97 -69q-59 -25 -139 -25q-100 0 -158 57q-57 57 -57 156v717h-174v-697zM285 1212h184v213h-184v-213z M670 1212h184v213h-184v-213z" />
<glyph unicode="&#xfd;" horiz-adv-x="1024" d="M16 1059l420 -1053l-71 -178q-25 -47 -58 -72t-86 -24q-27 0 -51 8l-51 16v-159q29 -10 59 -15q31 -4 62 -4q59 0 102 16q43 14 80 50q35 33 65 86q29 53 60 131l461 1198h-185l-297 -866h-4l-309 866h-197zM387 1204h131l268 293h-223z" />
<glyph unicode="&#xfe;" horiz-adv-x="1214" d="M137 -403h174v544h4q29 -47 72 -78q41 -33 88 -51t96 -26q47 -8 86 -9q121 0 213 43q90 43 152 119q59 74 90 174q29 100 29 213t-31 213t-90 179q-61 76 -152 120q-92 45 -215 45q-111 0 -202 -39q-92 -41 -136 -129h-4v547h-174v-1865zM305 530q0 74 19 146 q16 72 55 129q39 55 100 90t150 35q84 0 147 -33q61 -33 103 -88q39 -55 59 -125q18 -72 18 -145q0 -78 -16 -152t-53 -131t-96 -92q-61 -35 -152 -35q-90 0 -154 35q-63 33 -102 88q-41 55 -59 129q-18 72 -19 149z" />
<glyph unicode="&#xff;" horiz-adv-x="1024" d="M16 1059l420 -1053l-71 -178q-25 -47 -58 -72t-86 -24q-27 0 -51 8l-51 16v-159q29 -10 59 -15q31 -4 62 -4q59 0 102 16q43 14 80 50q35 33 65 86q29 53 60 131l461 1198h-185l-297 -866h-4l-309 866h-197zM227 1212h185v213h-185v-213zM612 1212h185v213h-185v-213z " />
<glyph unicode="&#x152;" horiz-adv-x="2199" d="M78 727q0 -162 45 -299q43 -139 129 -242q84 -102 209 -159q125 -59 287 -60q55 0 112 13q55 10 107 32q49 20 90 54q41 33 67 75h4v-141h990v164h-795v506h717v164h-717v464h782v164h-977v-121h-4q-23 41 -61 70q-41 29 -90 49q-49 18 -103 29q-55 8 -106 8 q-162 0 -289 -57q-129 -59 -217 -162q-88 -104 -133 -244q-47 -141 -47 -307zM272 719q0 123 31 235q31 111 92 197q61 84 154 133q92 49 217 49q117 0 205 -47q86 -47 127 -110q23 -35 26 -72q4 -37 4 -70v-616q0 -63 -28 -117q-29 -53 -78 -90q-49 -39 -115 -59 q-68 -23 -145 -23q-119 0 -211 47q-92 45 -154 125q-61 80 -92 188q-33 106 -33 230z" />
<glyph unicode="&#x153;" horiz-adv-x="1824" d="M74 530q0 -115 28 -215q29 -100 88 -176q57 -76 150 -119q90 -43 215 -43q119 0 219 48q98 45 148 159q49 -115 151 -159q100 -47 234 -48q348 0 452 359h-166q-31 -98 -106 -152q-76 -55 -180 -55q-78 0 -136 29q-59 29 -96 78q-39 47 -57 110q-18 61 -17 131h768 q6 125 -16 236q-25 111 -82 192q-57 82 -149 131q-92 47 -226 47q-113 0 -215 -45q-104 -47 -159 -141q-53 111 -148 150q-96 37 -219 36q-123 0 -213 -43t-149 -116q-61 -76 -91 -176q-29 -100 -28 -218zM258 508q0 78 16 154q14 76 50 135q35 59 92 96t139 37 q90 0 147 -35t91 -90q33 -57 45 -127q12 -72 12 -146q0 -71 -12 -143q-14 -72 -47 -129q-35 -59 -91 -94q-57 -37 -145 -37q-80 0 -137 35q-57 33 -92 88q-35 53 -52 121q-16 68 -16 135zM1001 631q-2 131 78 215t217 84t213 -82t76 -217h-584z" />
<glyph unicode="&#x178;" horiz-adv-x="1327" d="M4 1462l565 -864v-598h195v598l559 864h-221l-428 -696l-438 696h-232zM379 1575h184v213h-184v-213zM764 1575h184v213h-184v-213z" />
<glyph unicode="&#x2c6;" horiz-adv-x="454" d="M-78 1204h156l143 197l141 -197h173l-213 293h-191z" />
<glyph unicode="&#x2dc;" horiz-adv-x="454" d="M-117 1223h107q-4 39 28 63q33 23 68 23q29 0 66 -13l71 -26q37 -16 74 -29q35 -12 61 -12q59 0 99 18q37 16 63 45q51 72 64 164h-107q-10 -31 -31 -59q-23 -31 -63 -31q-33 0 -66 14q-35 12 -69 29q-35 14 -72 27q-39 12 -80 12q-47 0 -82 -18t-59 -50q-25 -31 -41 -71 q-18 -41 -31 -86z" />
<glyph unicode="&#x2000;" horiz-adv-x="964" />
<glyph unicode="&#x2001;" horiz-adv-x="1929" />
<glyph unicode="&#x2002;" horiz-adv-x="964" />
<glyph unicode="&#x2003;" horiz-adv-x="1929" />
<glyph unicode="&#x2004;" horiz-adv-x="643" />
<glyph unicode="&#x2005;" horiz-adv-x="482" />
<glyph unicode="&#x2006;" horiz-adv-x="321" />
<glyph unicode="&#x2007;" horiz-adv-x="321" />
<glyph unicode="&#x2008;" horiz-adv-x="241" />
<glyph unicode="&#x2009;" horiz-adv-x="385" />
<glyph unicode="&#x200a;" horiz-adv-x="107" />
<glyph unicode="&#x2010;" horiz-adv-x="796" d="M102 487h592v164h-592v-164z" />
<glyph unicode="&#x2011;" horiz-adv-x="796" d="M102 487h592v164h-592v-164z" />
<glyph unicode="&#x2012;" horiz-adv-x="796" d="M102 487h592v164h-592v-164z" />
<glyph unicode="&#x2013;" horiz-adv-x="1024" d="M0 487h1024v164h-1024v-164z" />
<glyph unicode="&#x2014;" horiz-adv-x="2048" d="M266 487h1516v164h-1516v-164z" />
<glyph unicode="&#x2018;" horiz-adv-x="569" d="M172 934h227v227h-120q0 35 6 72q4 35 18 63q14 29 37 47q23 16 57 17v102q-57 0 -100 -24q-43 -25 -70 -66q-29 -41 -41 -94q-14 -55 -14 -117v-227z" />
<glyph unicode="&#x2019;" horiz-adv-x="569" d="M170 1235h121q0 -35 -4 -70q-6 -37 -21 -65q-14 -29 -37 -45q-23 -18 -57 -19v-102q59 0 102 24q41 25 70 66q27 41 41 96q12 53 12 115v227h-227v-227z" />
<glyph unicode="&#x201a;" horiz-adv-x="569" d="M170 0h121q0 -35 -4 -70q-6 -35 -21 -63q-14 -29 -37 -45q-23 -18 -57 -19v-102q59 0 102 25q41 25 70 65q27 41 41 96q12 53 12 113v227h-227v-227z" />
<glyph unicode="&#x201c;" horiz-adv-x="872" d="M135 934h227v227h-120q0 35 6 72q4 35 18 63q14 29 37 47q23 16 57 17v102q-57 0 -100 -24q-43 -25 -70 -66q-29 -41 -40 -94q-14 -55 -15 -117v-227zM510 934h227v227h-121q0 35 7 72q4 35 18 63q14 29 37 47q23 16 57 17v102q-57 0 -100 -24q-43 -25 -70 -66 q-29 -41 -41 -94q-14 -55 -14 -117v-227z" />
<glyph unicode="&#x201d;" horiz-adv-x="872" d="M135 1235h121q0 -35 -4 -70q-6 -37 -21 -65q-14 -29 -36 -45q-23 -18 -58 -19v-102q59 0 103 24q41 25 69 66q27 41 41 96q12 53 12 115v227h-227v-227zM510 1235h121q0 -35 -4 -70q-6 -37 -21 -65q-14 -29 -37 -45q-23 -18 -57 -19v-102q59 0 102 24q41 25 70 66 q27 41 41 96q12 53 12 115v227h-227v-227z" />
<glyph unicode="&#x201e;" horiz-adv-x="872" d="M135 0h121q0 -35 -4 -70q-6 -35 -21 -63q-14 -29 -36 -45q-23 -18 -58 -19v-102q59 0 103 25q41 25 69 65q27 41 41 96q12 53 12 113v227h-227v-227zM510 0h121q0 -35 -4 -70q-6 -35 -21 -63q-14 -29 -37 -45q-23 -18 -57 -19v-102q59 0 102 25q41 25 70 65q27 41 41 96 q12 53 12 113v227h-227v-227z" />
<glyph unicode="&#x2022;" horiz-adv-x="716" d="M150 733q0 96 63 160q61 61 158 61q96 0 159 -61q61 -63 62 -160q-1 -95 -62 -158q-63 -63 -159 -63t-158 63q-63 63 -63 158z" />
<glyph unicode="&#x2026;" horiz-adv-x="2048" d="M227 0h228v227h-228v-227zM909 0h228v227h-228v-227zM1591 0h228v227h-228v-227z" />
<glyph unicode="&#x202f;" horiz-adv-x="385" />
<glyph unicode="&#x2039;" horiz-adv-x="530" d="M102 479l312 -246v177l-205 159l205 160v176l-312 -246v-180z" />
<glyph unicode="&#x203a;" horiz-adv-x="530" d="M117 233l311 246v180l-311 246v-176l205 -160l-205 -159v-177z" />
<glyph unicode="&#x205f;" horiz-adv-x="482" />
<glyph unicode="&#x20ac;" d="M27 565h157q86 -596 588 -596q178 0 315 88v215q-86 -80 -141 -108q-76 -39 -174 -39q-322 0 -389 440h446l54 125h-510q-2 10 -2 21v53q0 16 2 33h538l56 125h-580q35 170 115 274q100 131 254 131q150 0 293 -141l94 170q-184 129 -371 129q-242 0 -395 -166 q-137 -145 -187 -397h-110l-53 -125h149q-2 -14 -2 -31v-55q0 -10 2 -21h-94z" />
<glyph unicode="&#x2122;" horiz-adv-x="2027" d="M131 1350h264v-732h140v732h264v112h-668v-112zM971 618h139v705h4l277 -705h88l276 705h4v-705h139v844h-212l-248 -641l-252 641h-215v-844z" />
<glyph unicode="&#x25fc;" horiz-adv-x="1054" d="M0 0v1055h1055v-1055h-1055z" />
<glyph unicode="&#xfb03;" horiz-adv-x="1636" d="M25 905v154h178v158q0 129 76 196q74 66 217 66q25 0 57 -4q31 -4 55 -13v-151q-23 8 -49 12q-27 2 -49 2q-63 0 -98 -25t-35 -94v-147h401v158q0 129 76 196q74 66 217 66q25 0 57 -4q31 -4 56 -13v-151q-23 8 -49 12q-27 2 -50 2q-63 0 -98 -25t-35 -94v-147h205v-154 h-205v-905h-174v905h-401v-905h-174v905h-178zM1323 0v1059h174v-1059h-174zM1323 1249v213h174v-213h-174z" />
<glyph unicode="&#xfb04;" horiz-adv-x="1636" d="M25 905v154h178v158q0 129 76 196q74 66 217 66q25 0 57 -4q31 -4 55 -13v-151q-23 8 -49 12q-27 2 -49 2q-63 0 -98 -25t-35 -94v-147h401v158q0 129 76 196q74 66 217 66q25 0 57 -4q31 -4 56 -13v-151q-23 8 -49 12q-27 2 -50 2q-63 0 -98 -25t-35 -94v-147h205v-154 h-205v-905h-174v905h-401v-905h-174v905h-178zM1323 0v1462h174v-1462h-174z" />
<hkern u1="A" u2="&#x2019;" k="152" />
<hkern u1="A" u2="y" k="37" />
<hkern u1="A" u2="w" k="37" />
<hkern u1="A" u2="v" k="37" />
<hkern u1="A" u2="Y" k="152" />
<hkern u1="A" u2="W" k="49" />
<hkern u1="A" u2="V" k="94" />
<hkern u1="A" u2="T" k="188" />
<hkern u1="F" u2="A" k="113" />
<hkern u1="F" u2="&#x2e;" k="322" />
<hkern u1="F" u2="&#x2c;" k="322" />
<hkern u1="L" u2="&#x2019;" k="152" />
<hkern u1="L" u2="y" k="76" />
<hkern u1="L" u2="Y" k="227" />
<hkern u1="L" u2="W" k="113" />
<hkern u1="L" u2="V" k="188" />
<hkern u1="L" u2="T" k="188" />
<hkern u1="P" u2="A" k="152" />
<hkern u1="P" u2="&#x2e;" k="367" />
<hkern u1="P" u2="&#x2c;" k="367" />
<hkern u1="R" u2="Y" k="76" />
<hkern u1="R" u2="W" k="37" />
<hkern u1="R" u2="V" k="37" />
<hkern u1="R" u2="T" k="37" />
<hkern u1="T" u2="y" k="227" />
<hkern u1="T" u2="w" k="227" />
<hkern u1="T" u2="u" k="188" />
<hkern u1="T" u2="s" k="227" />
<hkern u1="T" u2="r" k="188" />
<hkern u1="T" u2="o" k="227" />
<hkern u1="T" u2="e" k="227" />
<hkern u1="T" u2="c" k="227" />
<hkern u1="T" u2="a" k="227" />
<hkern u1="T" u2="A" k="188" />
<hkern u1="T" u2="&#x3b;" k="227" />
<hkern u1="T" u2="&#x3a;" k="227" />
<hkern u1="T" u2="&#x2e;" k="227" />
<hkern u1="T" u2="&#x2d;" k="264" />
<hkern u1="T" u2="&#x2c;" k="227" />
<hkern u1="V" u2="y" k="37" />
<hkern u1="V" u2="u" k="76" />
<hkern u1="V" u2="r" k="76" />
<hkern u1="V" u2="o" k="113" />
<hkern u1="V" u2="i" k="37" />
<hkern u1="V" u2="e" k="113" />
<hkern u1="V" u2="a" k="113" />
<hkern u1="V" u2="A" k="94" />
<hkern u1="V" u2="&#x3b;" k="94" />
<hkern u1="V" u2="&#x3a;" k="94" />
<hkern u1="V" u2="&#x2e;" k="264" />
<hkern u1="V" u2="&#x2d;" k="113" />
<hkern u1="V" u2="&#x2c;" k="264" />
<hkern u1="W" u2="u" k="37" />
<hkern u1="W" u2="r" k="37" />
<hkern u1="W" u2="o" k="117" />
<hkern u1="W" u2="e" k="117" />
<hkern u1="W" u2="a" k="76" />
<hkern u1="W" u2="A" k="49" />
<hkern u1="W" u2="&#x3b;" k="37" />
<hkern u1="W" u2="&#x3a;" k="37" />
<hkern u1="W" u2="&#x2e;" k="152" />
<hkern u1="W" u2="&#x2c;" k="152" />
<hkern u1="Y" u2="v" k="113" />
<hkern u1="Y" u2="u" k="152" />
<hkern u1="Y" u2="q" k="188" />
<hkern u1="Y" u2="p" k="152" />
<hkern u1="Y" u2="o" k="227" />
<hkern u1="Y" u2="i" k="76" />
<hkern u1="Y" u2="e" k="227" />
<hkern u1="Y" u2="a" k="188" />
<hkern u1="Y" u2="A" k="152" />
<hkern u1="Y" u2="&#x3b;" k="188" />
<hkern u1="Y" u2="&#x3a;" k="188" />
<hkern u1="Y" u2="&#x2e;" k="285" />
<hkern u1="Y" u2="&#x2d;" k="227" />
<hkern u1="Y" u2="&#x2c;" k="285" />
<hkern u1="f" u2="&#x2019;" k="-37" />
<hkern u1="f" u2="f" k="37" />
<hkern u1="r" u2="q" k="37" />
<hkern u1="r" u2="o" k="37" />
<hkern u1="r" u2="n" k="-37" />
<hkern u1="r" u2="g" k="57" />
<hkern u1="r" u2="e" k="37" />
<hkern u1="r" u2="d" k="37" />
<hkern u1="r" u2="c" k="37" />
<hkern u1="r" u2="&#x2e;" k="188" />
<hkern u1="r" u2="&#x2d;" k="113" />
<hkern u1="r" u2="&#x2c;" k="188" />
<hkern u1="v" u2="&#x2e;" k="152" />
<hkern u1="v" u2="&#x2c;" k="152" />
<hkern u1="w" u2="&#x2e;" k="113" />
<hkern u1="w" u2="&#x2c;" k="113" />
<hkern u1="y" u2="&#x2e;" k="152" />
<hkern u1="y" u2="&#x2c;" k="152" />
<hkern u1="&#x2018;" u2="&#x2018;" k="195" />
<hkern u1="&#x2019;" u2="&#x2019;" k="195" />
<hkern u1="&#x2019;" u2="t" k="37" />
<hkern u1="&#x2019;" u2="s" k="152" />
</font>
</defs></svg> 