<?xml version="1.0" standalone="no"?>
<!DOCTYPE svg PUBLIC "-//W3C//DTD SVG 1.1//EN" "http://www.w3.org/Graphics/SVG/1.1/DTD/svg11.dtd" >
<svg xmlns="http://www.w3.org/2000/svg">
<metadata></metadata>
<defs>
<font id="helvetica_neuebold" horiz-adv-x="1138" >
<font-face units-per-em="2048" ascent="1638" descent="-410" />
<missing-glyph horiz-adv-x="500" />
<glyph unicode="&#xfb01;" horiz-adv-x="1251" d="M0 864h174v-864h291v864h201v195h-201v63q0 66 27 95q25 27 83 26q55 0 107 -6v217q-37 2 -76 6q-39 2 -78 2q-178 0 -266 -90t-88 -231v-82h-174v-195zM842 0h291v1059h-291v-1059zM842 1223h291v239h-291v-239z" />
<glyph unicode="&#xfb02;" horiz-adv-x="1251" d="M0 864h174v-864h291v864h201v195h-201v63q0 66 27 95q25 27 83 26q55 0 107 -6v217q-37 2 -76 6q-39 2 -78 2q-178 0 -266 -90t-88 -231v-82h-174v-195zM842 0h291v1462h-291v-1462z" />
<glyph horiz-adv-x="0" />
<glyph horiz-adv-x="0" />
<glyph unicode="&#xd;" horiz-adv-x="569" />
<glyph horiz-adv-x="0" />
<glyph unicode="&#x9;" horiz-adv-x="569" />
<glyph unicode="&#xa;" horiz-adv-x="569" />
<glyph horiz-adv-x="0" />
<glyph unicode="!" horiz-adv-x="569" d="M125 0h321v315h-321v-315zM133 1069l78 -631h145l80 631v393h-303v-393z" />
<glyph unicode="&#x22;" horiz-adv-x="948" d="M174 805h219v657h-219v-657zM555 805h219v657h-219v-657z" />
<glyph unicode="#" d="M68 406h170l-58 -406h199l57 406h197l-55 -406h198l55 406h179v184h-152l35 254h178v184h-151l55 406h-199l-55 -406h-199l58 406h-199l-57 -406h-195v-184h170l-37 -254h-194v-184zM461 590l37 254h196l-35 -254h-198z" />
<glyph unicode="$" d="M0 475q20 -242 150 -366q129 -125 358 -142v-174h121v174q154 10 252 62q98 51 157 116q57 66 80 136q23 68 23 112q0 51 -6 117q-8 66 -48 131q-39 66 -120 127q-82 59 -234 100l-104 27v362q70 0 119 -57t51 -139h291q-6 106 -46 184q-39 78 -100 131q-61 51 -141 82 q-82 29 -174 39v158h-121v-158q-92 -6 -178 -35q-86 -31 -152 -84q-66 -55 -104 -135q-41 -80 -41 -184q0 -102 35 -170q35 -70 94 -115q57 -47 131 -74q74 -29 149 -49l39 -8l27 -10v-428q-94 18 -158 86q-63 68 -61 184h-289zM324 1087q0 43 16 76q14 31 41 54 q27 20 59 30q33 10 68 10v-333q-98 23 -141 59q-43 37 -43 104zM629 205v393q121 -33 172 -72q49 -41 49 -120q0 -49 -21 -84q-20 -37 -51 -62q-33 -25 -71 -37q-41 -14 -78 -18z" />
<glyph unicode="%" horiz-adv-x="2048" d="M154 1057q0 -84 18 -156q16 -74 57 -125q39 -53 105 -82q63 -31 158 -30q90 0 155 28q66 29 109 80q41 51 61 123q20 70 21 154q0 84 -17 159q-16 76 -55 133q-41 55 -104 89q-63 33 -160 32q-90 0 -156 -30q-66 -33 -108 -89q-43 -55 -64 -129q-20 -74 -20 -157z M362 1053q1 35 5 80q2 45 16 84t43 65q27 27 76 27q45 0 71 -29q25 -29 37 -70t17 -84q2 -45 2 -75q0 -33 -2 -72q-4 -41 -17 -76q-14 -37 -41 -61q-29 -25 -75 -25q-49 0 -76 25t-39 61q-12 35 -14 76t-3 74zM520 -43h178l844 1522h-174zM1210 375q1 -84 19 -158 q16 -74 57 -127q39 -55 105 -86q63 -31 157 -31q90 0 156 31q66 29 108 82q41 53 62 125q20 72 20 156t-16 157q-16 74 -55 129q-41 53 -105 86q-63 31 -159 31q-90 0 -156 -31t-109 -84t-63 -125t-21 -155zM1419 373q0 35 4 78q2 43 17 79q14 37 43 62q27 25 76 24 q45 0 71 -26q25 -29 37 -66q12 -39 16 -80q2 -43 3 -73q0 -33 -3 -74q-4 -43 -16 -80q-14 -39 -41 -65q-29 -27 -76 -27q-49 0 -75 27q-27 27 -39 65q-12 37 -15 80q-2 43 -2 76z" />
<glyph unicode="&#x26;" horiz-adv-x="1402" d="M66 410q0 -104 36 -185q37 -82 101 -137q63 -57 151 -86q86 -29 185 -29q125 0 225 43q98 43 186 129l119 -145h356l-297 346q61 78 97 170q35 92 45 191h-252q-6 -45 -19 -89q-12 -45 -34 -86l-189 232q111 59 187 147q74 88 73 217q0 86 -30 152q-33 66 -86 111 q-55 43 -127 65q-74 23 -158 23q-74 0 -141 -23q-70 -25 -123 -67q-53 -45 -84 -107q-33 -61 -33 -137q0 -96 41 -168q39 -72 98 -143q-63 -31 -123 -72q-59 -41 -104 -92q-47 -53 -74 -117q-27 -66 -26 -143zM342 403q0 45 18 82q16 37 46 68q29 31 65 53q37 23 76 39 l250 -305q-51 -57 -109 -92q-59 -37 -137 -37q-41 0 -78 16q-39 14 -67 41q-29 25 -46 62q-18 35 -18 73zM518 1155q0 57 39 94q39 35 92 35t94 -41q39 -41 39 -98q0 -80 -43 -125q-45 -45 -106 -84q-41 51 -78 100t-37 119z" />
<glyph unicode="'" horiz-adv-x="569" d="M176 805h219v657h-219v-657z" />
<glyph unicode="(" horiz-adv-x="606" d="M106 549q0 -242 72 -475q70 -233 199 -445h241q-117 223 -167 459q-53 236 -54 481q0 242 54 478q53 233 170 450h-244q-68 -98 -117 -215q-51 -117 -84 -242q-35 -125 -51 -249q-18 -127 -19 -242z" />
<glyph unicode=")" horiz-adv-x="606" d="M-12 -371h241q68 96 119 213t86 242q33 123 49 250q16 125 17 239q0 242 -70 478q-72 236 -201 446h-239q113 -223 166 -461t53 -483q0 -242 -53 -473q-55 -233 -168 -451z" />
<glyph unicode="*" horiz-adv-x="833" d="M45 1139l238 -80l-152 -201l137 -100l144 211l151 -211l135 100l-151 201l241 80l-55 157l-237 -90v256h-164v-256l-232 90z" />
<glyph unicode="+" horiz-adv-x="1228" d="M98 408h408v-408h219v408h408v219h-408v407h-219v-407h-408v-219z" />
<glyph unicode="," horiz-adv-x="569" d="M125 0h147q2 -33 -8 -63q-10 -33 -31 -58q-20 -27 -47 -45q-29 -18 -59 -24v-148q66 10 125 39q57 27 100 70t70 102q25 57 24 127v315h-321v-315z" />
<glyph unicode="-" horiz-adv-x="833" d="M109 434h616v250h-616v-250z" />
<glyph unicode="." horiz-adv-x="569" d="M123 0h321v315h-321v-315z" />
<glyph unicode="/" horiz-adv-x="759" d="M-20 -33h231l571 1530h-233z" />
<glyph unicode="0" d="M43 723q0 -215 43 -358q41 -145 113 -232q72 -86 168 -123q94 -37 200 -37q109 0 205 37q94 37 168 123q72 86 115 232q41 143 41 358q0 209 -41 352q-43 141 -115 228q-74 86 -168 122q-96 37 -205 37q-106 0 -200 -37q-96 -37 -168 -122q-72 -86 -113 -228 q-43 -143 -43 -352zM334 723q0 37 2 90q0 51 6 107q6 55 20 110q14 53 41 96q25 43 66 70q39 27 98 27t101 -27q41 -27 67 -70q27 -43 41 -96q12 -55 21 -110q6 -55 8 -107v-90q0 -61 -4 -148q-4 -88 -25 -167q-23 -82 -69 -140q-49 -57 -140 -57q-88 0 -135 57t-67 140 q-23 80 -27 167q-4 86 -4 148z" />
<glyph unicode="1" d="M152 930h360v-930h291v1434h-232q-12 -82 -51 -138q-39 -55 -94 -88q-57 -35 -127 -47q-72 -14 -147 -12v-219z" />
<glyph unicode="2" d="M43 0h1053v250h-678q53 74 123 129t143 104q74 47 147 97q72 49 130 110q57 59 92 137t34 187q0 104 -38 188q-41 84 -109 141t-156 89q-90 31 -188 30q-129 0 -227 -43q-100 -45 -166 -123q-66 -80 -99 -184q-33 -106 -28 -229h278q0 57 13 116q10 57 36 107 q27 47 72 78q43 29 107 28q94 0 155 -57q59 -59 60 -164q0 -66 -29 -117q-31 -51 -74 -92q-45 -41 -98 -73q-53 -35 -100 -68q-92 -63 -174 -125q-84 -61 -146 -133q-61 -74 -96 -166q-37 -92 -37 -217z" />
<glyph unicode="3" d="M37 494q-2 -125 37 -222q37 -96 106 -161q70 -68 170 -103q98 -35 219 -35q104 0 201 31q96 31 170 90t119 148q43 88 43 200q0 123 -68 211t-186 115v4q100 29 151 109q49 80 50 184q0 96 -43 170t-111 125q-70 51 -156 78q-86 25 -172 24q-111 0 -200 -35 q-90 -37 -154 -102q-66 -66 -100 -156q-37 -92 -41 -202h276q-2 111 55 184q55 72 166 72q80 0 142 -49q61 -49 61 -142q0 -61 -29 -98q-31 -37 -75 -55q-47 -20 -101 -25q-53 -4 -100 0v-205q53 0 113 -2q57 -4 106 -22q49 -20 82 -64q31 -43 31 -125q0 -104 -68 -164 q-68 -61 -166 -61q-63 0 -108 22q-47 23 -78 62q-31 37 -47 90q-16 51 -19 109h-276z" />
<glyph unicode="4" d="M33 332h606v-332h276v332h191v239h-191v863h-260l-622 -836v-266zM262 571l371 498h6v-498h-377z" />
<glyph unicode="5" d="M37 426q2 -113 47 -197q43 -86 117 -143t170 -84q94 -29 198 -29q109 -2 205 37q96 37 170 107q72 70 115 166q43 94 43 204q0 100 -29 191q-31 88 -86 153q-57 66 -139 105t-189 39q-86 0 -153 -25q-68 -27 -127 -86l-4 4l57 326h592v240h-801l-141 -793h262 q43 59 92 88q49 27 127 27q59 0 105 -21q45 -20 77 -57q33 -37 50 -86q16 -49 16 -105q0 -53 -16 -102q-18 -51 -50 -88q-33 -39 -77 -61q-47 -25 -105 -25q-98 0 -162 59q-63 57 -73 156h-291z" />
<glyph unicode="6" d="M43 713q0 -137 25 -269q25 -133 88 -237t170 -168q106 -66 268 -66q113 0 205 41q92 39 159 111q66 70 103 166q35 94 35 205q0 86 -27 170t-84 149q-61 68 -149 109q-88 39 -181 39q-104 0 -184 -37t-139 -123l-4 4q2 59 16 135t45 143q31 66 84 113q51 45 129 45 q76 0 127 -53t66 -125h276q-12 96 -51 170t-100 125q-61 49 -142 76q-80 27 -172 26q-154 0 -260 -67q-106 -68 -174 -174q-68 -109 -98 -242q-31 -133 -31 -266zM354 477q0 53 15 103q14 47 43 84t73 59q43 20 101 20q55 1 98 -22q41 -25 68 -62q27 -39 41 -86 q12 -49 12 -100q0 -49 -14 -96t-43 -84t-68 -60q-41 -23 -94 -22q-55 0 -99 22q-43 23 -71 62q-31 37 -45 86q-16 47 -17 96z" />
<glyph unicode="7" d="M80 1163h680q-205 -248 -330 -545q-127 -297 -151 -618h311q2 143 35 309q31 166 90 328q57 162 145 305q86 143 199 242v250h-979v-271z" />
<glyph unicode="8" d="M29 420q0 -117 47 -201q45 -84 123 -139q76 -55 174 -80q96 -27 200 -27q100 0 197 29q96 27 172 82t123 139q45 84 45 199q0 135 -70 229q-70 92 -198 121v4q104 35 157 115q51 80 52 186q0 53 -25 121q-25 66 -80 125q-57 57 -149 98t-226 41q-88 0 -174 -24 q-86 -25 -153 -74q-70 -49 -113 -123t-43 -170q0 -106 53 -186t158 -109v-4q-129 -31 -199 -123q-72 -92 -71 -229zM319 434q0 111 74 170q74 57 180 58q51 0 97 -17q43 -16 78 -47q33 -31 53 -72q18 -43 18 -94q0 -53 -18 -98t-51 -76q-35 -33 -78 -49q-45 -18 -99 -19 q-51 0 -98 19q-47 16 -80 49q-35 31 -55 76t-21 100zM352 1044q1 49 19 86q16 37 47 62t71 39q39 12 82 12q68 0 111 -20q41 -20 66 -52q23 -31 30 -63q8 -35 8 -64q0 -92 -61 -139q-61 -49 -154 -49q-88 0 -153 49q-66 47 -66 139z" />
<glyph unicode="9" d="M43 938q0 -86 27 -170t84 -150q61 -68 149 -106q88 -41 180 -41q104 0 185 37q80 37 139 123l4 -4q-4 -59 -16 -135q-14 -76 -45 -142q-31 -68 -82 -112q-51 -47 -131 -48q-76 0 -127 54q-51 53 -66 125h-276q12 -94 51 -168t100 -125t141 -76q80 -27 172 -27 q154 0 261 68q106 66 174 174q68 106 98 240q31 133 31 266q0 135 -25 268t-88 240q-63 104 -168 170q-106 63 -270 63q-113 0 -205 -41t-158 -110q-68 -72 -102 -166q-37 -96 -37 -207zM334 961q0 49 14 96t43 84t70 59q41 23 92 23q55 0 98 -23t74 -59q29 -39 45 -86 q14 -49 14 -99q0 -53 -14 -100q-14 -49 -43 -86t-72 -57q-43 -23 -102 -23q-55 0 -96 25q-43 23 -70 61q-27 37 -39 86q-14 47 -14 99z" />
<glyph unicode=":" horiz-adv-x="569" d="M125 0h321v315h-321v-315zM125 725h321v315h-321v-315z" />
<glyph unicode=";" horiz-adv-x="569" d="M125 0h147q2 -33 -8 -63q-10 -33 -31 -58q-20 -27 -47 -45q-29 -18 -59 -24v-148q66 10 125 39q57 27 100 70t70 102q25 57 24 127v315h-321v-315zM125 725h321v315h-321v-315z" />
<glyph unicode="&#x3c;" horiz-adv-x="1228" d="M94 397l1041 -411v233l-752 299l752 299v236l-1041 -414v-242z" />
<glyph unicode="=" horiz-adv-x="1228" d="M98 188h1035v220h-1035v-220zM98 627h1035v219h-1035v-219z" />
<glyph unicode="&#x3e;" horiz-adv-x="1228" d="M94 -14l1041 411v242l-1041 414v-236l752 -299l-752 -299v-233z" />
<glyph unicode="?" d="M66 991h301q0 55 12 105q12 47 39 84q25 35 65 57q39 20 95 20q82 0 129 -45q45 -45 45 -139q2 -55 -19 -92q-23 -37 -57 -68q-35 -31 -76 -61q-41 -31 -78 -72q-37 -43 -63 -102q-29 -59 -35 -148v-92h276v78q8 61 41 102q31 41 72 74q41 31 88 64q45 31 84 75 q37 45 64 109q25 63 24 162q0 59 -24 129q-27 68 -86 127t-156 100q-98 39 -244 39q-113 0 -203 -37q-92 -39 -155 -106q-66 -68 -101 -160q-37 -92 -38 -203zM395 0h322v315h-322v-315z" />
<glyph unicode="@" horiz-adv-x="1638" d="M74 731q0 -164 61 -303q61 -141 170 -244q106 -102 250 -159q143 -57 307 -58q193 0 357 86q164 84 268 244h-172q-80 -80 -195 -123q-117 -45 -246 -45q-131 0 -241 43q-113 43 -193 123q-80 78 -125 188q-45 109 -45 244q0 129 41 242q41 111 117 192q76 80 184 127 q106 45 238 45q117 0 219 -33q100 -33 176 -96q74 -66 117 -157q43 -94 43 -218q0 -82 -21 -151q-23 -70 -55 -119q-35 -51 -78 -78q-45 -29 -88 -28q-18 0 -26 14q-8 12 -9 33q0 20 7 45q4 23 10 43l129 528h-168l-33 -110q-35 80 -104 112q-70 31 -135 31q-100 0 -183 -45 q-84 -45 -141 -119q-59 -74 -90 -168q-33 -94 -33 -190q0 -72 27 -135q25 -63 69 -111q43 -49 103 -76q57 -29 123 -29t125 29t96 90h4q4 -51 45 -84q39 -33 104 -32q49 0 131 34q80 33 160 105q78 72 135 184q55 113 56 270q0 141 -60 258q-59 115 -157 197 q-98 80 -228 125q-129 45 -268 45q-160 0 -301 -59t-248 -162q-106 -102 -168 -242q-61 -141 -61 -303zM596 653q0 52 18 105t54 98q33 43 80 72q47 27 102 26q66 0 113 -49q45 -49 45 -125q0 -53 -19 -108q-18 -55 -51 -99q-35 -45 -80 -73q-47 -29 -102 -29q-72 0 -115 51 q-45 49 -45 131z" />
<glyph unicode="A" horiz-adv-x="1402" d="M-12 0h323l115 326h547l110 -326h334l-547 1462h-329zM510 565l190 537h5l184 -537h-379z" />
<glyph unicode="B" horiz-adv-x="1441" d="M141 0h709q98 0 192 25q92 25 166 75q72 51 115 133q43 80 43 191q0 137 -66 235q-68 96 -202 136q98 47 149 120q49 74 49 185q0 102 -32 172q-35 70 -97 112q-61 41 -147 60q-86 18 -191 18h-688v-1462zM463 250v401h350q104 0 168 -47q63 -49 63 -162q0 -57 -18 -94 q-20 -37 -53 -57q-33 -23 -76 -31q-43 -10 -90 -10h-344zM463 870v342h301q43 0 84 -6q39 -8 70 -26t49 -52q18 -33 18 -84q0 -92 -55 -133t-142 -41h-325z" />
<glyph unicode="C" horiz-adv-x="1517" d="M78 725q0 -160 49 -297q49 -139 141 -242q92 -102 228 -159q133 -59 301 -60q135 0 247 41q113 41 197 119t135 188q51 111 64 248h-312q-18 -147 -100 -237q-84 -90 -231 -90q-109 0 -185 43q-76 41 -123 110q-47 70 -67 158q-23 86 -23 178q0 96 23 186q20 90 67 162 q47 70 123 113q76 41 185 41q59 0 114 -19q53 -20 97 -55q43 -35 71 -80q29 -47 37 -102h311q-14 127 -69 225t-139 166q-86 66 -193 100q-109 35 -229 35q-168 0 -301 -59q-135 -59 -228 -164q-92 -104 -141 -244q-49 -141 -49 -305z" />
<glyph unicode="D" horiz-adv-x="1517" d="M141 0h631q168 0 293 57q123 55 207 154q82 98 123 233t41 295q0 182 -50 318q-51 135 -139 225q-90 90 -211 135q-123 45 -264 45h-631v-1462zM463 270v922h229q119 0 201 -33q80 -35 129 -98t72 -152q20 -90 20 -200q0 -121 -31 -205t-82 -135q-51 -53 -116 -76 q-66 -23 -135 -23h-287z" />
<glyph unicode="E" horiz-adv-x="1327" d="M141 0h1110v270h-788v359h708v250h-708v313h772v270h-1094v-1462z" />
<glyph unicode="F" horiz-adv-x="1214" d="M141 0h322v604h612v250h-612v338h706v270h-1028v-1462z" />
<glyph unicode="G" horiz-adv-x="1554" d="M78 725q0 -160 49 -297q49 -139 141 -242q92 -102 228 -159q133 -59 301 -60q106 0 211 45q104 43 190 154l33 -166h205v791h-615v-240h324q-14 -154 -101 -234q-87 -81 -243 -81h-4q-109 0 -185 43q-76 41 -123 110q-47 70 -67 158q-23 86 -23 178q0 96 23 186 q20 90 67 162q47 70 123 113q76 41 185 41q117 0 198 -62q82 -61 111 -184h307q-12 125 -67 221t-140 162q-86 66 -190 100q-106 33 -219 33q-168 0 -301 -59q-135 -59 -228 -164q-92 -104 -141 -244q-49 -141 -49 -305z" />
<glyph unicode="H" horiz-adv-x="1517" d="M141 0h322v631h592v-631h321v1462h-321v-561h-592v561h-322v-1462z" />
<glyph unicode="I" horiz-adv-x="604" d="M141 0h322v1462h-322v-1462z" />
<glyph unicode="J" d="M29 418q0 -121 41 -205q41 -86 108 -139q68 -55 154 -80q86 -27 178 -27q164 0 260 51q96 49 148 125q51 74 65 160t14 158v1001h-321v-987q0 -39 -2 -80q-4 -43 -19 -78q-16 -37 -51 -59q-34 -22 -93 -22h-5q-57 0 -92 18q-37 18 -58 51q-20 31 -28 76t-9 98v66h-290 v-127z" />
<glyph unicode="K" horiz-adv-x="1478" d="M141 0h322v471l184 186l440 -657h404l-627 885l572 577h-402l-571 -606v606h-322v-1462z" />
<glyph unicode="L" horiz-adv-x="1214" d="M141 0h1035v270h-713v1192h-322v-1462z" />
<glyph unicode="M" horiz-adv-x="1857" d="M141 0h301v1026h4l359 -1026h248l358 1036h4v-1036h301v1462h-452l-324 -1005h-4l-342 1005h-453v-1462z" />
<glyph unicode="N" horiz-adv-x="1517" d="M141 0h301v979h4l609 -979h321v1462h-301v-981h-4l-610 981h-320v-1462z" />
<glyph unicode="O" horiz-adv-x="1593" d="M78 725q0 -160 49 -297q49 -139 141 -242q92 -102 228 -159q133 -59 301 -60q170 0 303 60q133 57 225 159t141 242q49 137 50 297q0 164 -50 305q-49 139 -141 244q-92 104 -225 164q-133 59 -303 59q-168 0 -301 -59q-135 -59 -228 -164q-92 -104 -141 -244 q-49 -141 -49 -305zM399 725q0 96 23 186q20 90 67 162q47 70 123 113q76 41 185 41t184 -41q76 -43 123 -113q47 -72 70 -162q20 -90 20 -186q0 -92 -20 -178q-23 -88 -70 -158t-123 -110q-76 -43 -184 -43q-109 0 -185 43q-76 41 -123 110q-47 70 -67 158q-23 86 -23 178z " />
<glyph unicode="P" horiz-adv-x="1366" d="M141 0h322v524h338q137 0 233 41q96 39 158 105q59 66 88 151q27 84 27 172q0 90 -27 174q-29 84 -88 150q-61 66 -158 106q-96 39 -233 39h-660v-1462zM463 774v438h250q55 0 106 -8t90 -30q39 -25 64 -68q22 -41 22 -107v-6q0 -70 -22 -112q-25 -43 -64 -66 q-39 -25 -90 -33t-106 -8h-250z" />
<glyph unicode="Q" horiz-adv-x="1593" d="M78 725q0 -160 49 -297q49 -139 141 -242q92 -102 228 -159q133 -59 301 -60q209 0 354 84l207 -186l149 155l-182 166q92 104 141 242q49 137 50 297q0 164 -50 305q-49 139 -141 244q-92 104 -225 164q-133 59 -303 59q-168 0 -301 -59q-135 -59 -228 -164 q-92 -104 -141 -244q-49 -141 -49 -305zM399 725q0 96 23 186q20 90 67 162q47 70 123 113q76 41 185 41t184 -41q76 -43 123 -113q47 -72 70 -162q20 -90 20 -186q0 -117 -25 -199t-65 -137l-166 152l-150 -160l138 -125q-16 -16 -56 -18q-39 -2 -73 -2q-109 0 -185 43 q-76 41 -123 110q-47 70 -67 158q-23 86 -23 178z" />
<glyph unicode="R" horiz-adv-x="1478" d="M141 0h322v571h321q121 0 174 -53t70 -168q12 -88 19 -184q6 -96 32 -166h322q-23 31 -33 76q-12 43 -16 92q-6 49 -9 96l-4 82q-4 55 -14 111q-12 55 -37 102q-25 45 -63 80q-39 33 -99 49v4q123 49 179 144q53 94 53 223q0 84 -29 158q-31 72 -86 126q-57 55 -135 89 q-78 30 -172 30h-6h-789v-1462zM463 801v411h352q111 0 166 -47q55 -49 55 -155q0 -111 -55 -160t-166 -49h-352z" />
<glyph unicode="S" horiz-adv-x="1329" d="M49 485v-10q0 -129 49 -223q51 -98 140 -162q86 -63 200 -92q113 -31 234 -31q150 0 264 35q113 35 190 98q76 61 115 148q39 86 39 186q0 123 -51 203q-53 78 -125 125t-143 69q-74 20 -115 29l-221 58q-86 23 -133 45q-49 23 -66 49q-16 27 -16 69q0 47 20 78t53 51 q31 20 70 29q39 8 78 8q59 0 110 -10q49 -10 88 -35t64 -67q23 -43 27 -109h311q0 127 -47 217q-49 88 -131 146q-82 57 -187 84q-102 24 -212 24h-9q-98 0 -196 -27t-177 -81q-78 -55 -125 -138q-49 -84 -49 -196q0 -100 39 -170q37 -72 99 -119q61 -47 139 -76 q78 -31 160 -51q80 -23 157 -41q78 -18 139 -43t101 -61q37 -37 37 -97q0 -55 -29 -90q-29 -37 -72 -57t-92 -27q-49 -8 -92 -8q-63 0 -123 16q-59 14 -102 48q-45 31 -72 81q-27 51 -27 125h-311z" />
<glyph unicode="T" horiz-adv-x="1251" d="M27 1192h438v-1192h321v1192h439v270h-1198v-270z" />
<glyph unicode="U" horiz-adv-x="1517" d="M135 553q0 -299 164 -442q162 -143 459 -144q293 0 459 146q166 143 165 440v909h-321v-909q0 -164 -66 -240q-65 -77 -233 -77h-4q-98 0 -156 28q-59 27 -92 72q-33 43 -43 100t-10 117v909h-322v-909z" />
<glyph unicode="V" horiz-adv-x="1290" d="M-14 1462l473 -1462h362l486 1462h-332l-330 -1028h-4l-326 1028h-329z" />
<glyph unicode="W" horiz-adv-x="1933" d="M6 1462l387 -1462h326l244 995h4l247 -995h320l393 1462h-315l-240 -1007h-4l-250 1007h-301l-254 -995h-4l-231 995h-322z" />
<glyph unicode="X" horiz-adv-x="1366" d="M-10 0h360l326 506l319 -506h383l-510 764l469 698h-352l-297 -467l-287 467h-372l471 -696z" />
<glyph unicode="Y" horiz-adv-x="1366" d="M-16 1462l536 -893v-569h322v561l542 901h-358l-340 -577l-342 577h-360z" />
<glyph unicode="Z" horiz-adv-x="1327" d="M47 0h1233v270h-805l785 938v254h-1151v-270h722l-784 -938v-254z" />
<glyph unicode="[" horiz-adv-x="681" d="M139 -371h541v230h-250v1409h250v229h-541v-1868z" />
<glyph unicode="\" horiz-adv-x="759" d="M-20 1497l569 -1530h233l-571 1530h-231z" />
<glyph unicode="]" horiz-adv-x="681" d="M2 -141v-230h541v1868h-541v-229h250v-1409h-250z" />
<glyph unicode="^" horiz-adv-x="1228" d="M125 645h240l249 563l250 -563h240l-352 789h-275z" />
<glyph unicode="_" horiz-adv-x="1024" d="M0 -152v-102h1024v102h-1024z" />
<glyph unicode="`" horiz-adv-x="530" d="M-96 1481h319l197 -291h-203z" />
<glyph unicode="a" horiz-adv-x="1175" d="M66 289q0 -82 28 -142q27 -59 76 -98t115 -57t141 -19q98 0 192 29t164 100q2 -27 9 -51q4 -27 12 -51h295q-20 33 -29 98q-8 66 -8 138v550q0 96 -43 156q-43 57 -111 90t-149 45q-82 10 -162 10q-88 0 -174 -16q-88 -18 -158 -59t-114 -109q-45 -68 -52 -170h291 q8 86 57 123t136 37q39 0 73 -4q33 -6 60 -21q25 -16 41 -43q14 -29 14 -75v-6q0 -41 -27 -62q-29 -25 -77 -37q-49 -12 -113 -18q-63 -6 -129 -17q-66 -10 -129 -26q-66 -18 -115 -54q-51 -35 -82 -92q-32 -57 -32 -144v-5zM356 301q0 41 15 68q14 27 39 45q23 16 55 26 q31 10 63 17q35 6 70 10t68 10q31 6 59 17q27 8 45 24v-108q0 -25 -4 -66q-6 -41 -29 -80q-23 -41 -69 -69q-47 -29 -133 -29q-35 0 -68 6t-57 23q-25 14 -39 41t-15 65z" />
<glyph unicode="b" horiz-adv-x="1251" d="M111 0h276v135h4q47 -88 139 -125t209 -37q80 0 158 33t141 100q61 68 101 175q39 104 39 249t-39 252q-39 104 -101 172q-63 68 -141 101q-76 32 -153 32h-5q-98 0 -188 -36q-92 -39 -145 -121h-5v532h-290v-1462zM391 528q0 68 15 129q14 61 45 109q31 47 77 76 q45 26 106 26h5q66 0 113 -26q45 -29 75 -76q31 -47 45 -109q14 -61 15 -129q-1 -66 -15 -127t-45 -108t-75 -74q-47 -29 -113 -29q-63 0 -111 29q-47 27 -77 74q-31 47 -45 108t-15 127z" />
<glyph unicode="c" horiz-adv-x="1175" d="M78 514q0 -119 39 -217q39 -100 108 -172q70 -72 170 -111q98 -41 217 -41q211 0 346 111t164 322h-280q-14 -98 -70 -156q-57 -59 -162 -60q-68 0 -114 31q-47 31 -74 80q-29 47 -41 107q-12 59 -12 116q0 59 12 121q12 59 43 111q29 49 76 82q46 30 112 30h4 q186 0 215 -182h285q-6 102 -49 178q-43 74 -111 125q-70 49 -155 74q-85 24 -176 24h-7q-129 0 -229 -43t-170 -118q-70 -78 -104 -183q-37 -106 -37 -229z" />
<glyph unicode="d" horiz-adv-x="1251" d="M66 539q0 -111 30 -213q29 -102 88 -181q57 -80 148 -125q90 -47 209 -47q104 0 188 39q82 37 133 123h4v-135h277v1462h-291v-532h-4q-49 78 -133 119q-84 38 -175 38h-5q-117 0 -205 -45q-88 -47 -146 -122q-59 -76 -88 -175q-30 -97 -30 -199v-7zM356 530q0 66 15 127 q12 59 43 107q29 47 78 76q47 28 115 28h5q72 0 119 -28q47 -29 78 -74q29 -47 41 -107q12 -61 12 -127q0 -65 -12 -126t-41 -109q-29 -49 -76 -78q-49 -29 -121 -29q-68 0 -114 31q-49 29 -80 78q-33 47 -47 109q-14 61 -15 122z" />
<glyph unicode="e" horiz-adv-x="1175" d="M59 528q0 -123 39 -225q37 -102 107 -176t170 -113q100 -41 225 -41q180 0 307 82t189 273h-256q-14 -49 -78 -92q-63 -45 -152 -46q-123 0 -188 64q-66 63 -72 205h764q2 27 2 54q0 94 -22 181q-29 113 -93 201q-66 88 -165 141q-100 51 -236 51q-121 0 -219 -43 q-100 -43 -172 -116q-72 -76 -111 -178t-39 -222zM350 643q2 31 15 70q10 39 38 73q27 35 74 60q43 22 109 22h6q106 0 160 -57q51 -57 71 -168h-473z" />
<glyph unicode="f" horiz-adv-x="681" d="M0 864h174v-864h291v864h201v195h-201v63q0 66 27 95q24 26 79 26h4q55 0 107 -6v217q-37 2 -76 6q-39 2 -78 2q-178 0 -266 -90t-88 -231v-82h-174v-195z" />
<glyph unicode="g" horiz-adv-x="1251" d="M78 563q0 -109 26 -205q25 -98 80 -170q55 -74 142 -114q86 -43 204 -43q96 0 185 41q86 39 133 123h4v-140v-8q0 -108 -53 -178q-57 -74 -181 -74q-78 0 -137 33q-59 31 -80 113h-288q6 -90 51 -154q43 -66 110 -106q66 -41 148 -60q80 -20 158 -20q182 0 290 49 q109 49 166 121q57 70 76 151q16 82 16 146v991h-276v-141h-4q-53 92 -131 131q-78 38 -180 38h-5q-111 0 -194 -43q-86 -43 -143 -114q-57 -74 -86 -168q-31 -96 -31 -199zM369 567q0 59 14 115q12 53 43 96q29 41 74 66q41 24 99 24h5q72 0 119 -26q47 -27 76 -72t41 -102 q12 -59 12 -125q0 -57 -14 -109q-16 -53 -47 -94t-78 -66q-45 -24 -104 -24h-5q-67 0 -112 29t-72 73q-29 45 -39 103q-12 55 -12 112z" />
<glyph unicode="h" horiz-adv-x="1214" d="M111 0h290v555q0 162 54 233q53 70 172 70q104 0 145 -63q41 -66 41 -197v-598h291v651q0 98 -17 180q-18 80 -61 138q-43 55 -117 88q-74 30 -185 30h-7q-82 0 -168 -40q-86 -43 -141 -136h-7v551h-290v-1462z" />
<glyph unicode="i" horiz-adv-x="528" d="M119 0h291v1059h-291v-1059zM119 1223h291v239h-291v-239z" />
<glyph unicode="j" horiz-adv-x="569" d="M-37 -123v-239q41 -8 92 -9q111 0 183 21q72 18 114 59q41 39 60 98q16 59 16 142v1110h-291v-1096q0 -59 -33 -76q-35 -18 -79 -18q-39 0 -62 8zM137 1223h291v239h-291v-239z" />
<glyph unicode="k" horiz-adv-x="1175" d="M137 0h291v365l113 108l290 -473h353l-445 670l400 389h-344l-367 -381v784h-291v-1462z" />
<glyph unicode="l" horiz-adv-x="528" d="M119 0h291v1462h-291v-1462z" />
<glyph unicode="m" horiz-adv-x="1855" d="M119 0h291v614q0 78 22 127q23 47 55 74q31 25 66 35q33 8 53 8q70 0 107 -22q35 -25 51 -64q14 -39 16 -84q2 -47 2 -94v-594h291v590q0 49 8 98q6 47 29 86q20 37 59 62q35 22 94 22h5q61 0 98 -20q35 -20 53 -56q18 -35 23 -82q4 -47 4 -100v-600h291v709 q0 102 -29 176q-29 72 -80 116q-51 45 -123 66q-72 20 -155 20q-111 0 -191 -53q-82 -53 -129 -123q-43 98 -125 138q-82 38 -179 38h-5q-104 0 -184 -45q-82 -45 -140 -127h-4v144h-274v-1059z" />
<glyph unicode="n" horiz-adv-x="1214" d="M111 0h290v555q0 162 54 233q53 70 172 70q104 0 145 -63q41 -66 41 -197v-598h291v651q0 98 -17 180q-18 80 -61 138q-43 55 -117 88q-74 30 -185 30h-7q-92 0 -180 -40q-88 -43 -144 -136h-6v148h-276v-1059z" />
<glyph unicode="o" horiz-adv-x="1251" d="M78 528q0 -127 39 -229t110 -174q72 -74 172 -113t226 -39q125 0 227 39q100 39 172 113q72 72 111 174t39 229t-39 232q-39 102 -111 176q-72 72 -172 113q-99 38 -221 38h-6q-125 0 -226 -38q-100 -41 -172 -113q-72 -74 -110 -176q-39 -104 -39 -232zM369 528 q0 64 12 125t43 109q29 47 78 78q47 28 118 28h5q74 0 125 -28q49 -31 79 -78q29 -47 41 -109q12 -61 13 -125q0 -63 -13 -122q-12 -61 -41 -109q-31 -49 -79 -78q-51 -29 -125 -29t-123 29t-78 78q-31 47 -43 109q-12 59 -12 122z" />
<glyph unicode="p" horiz-adv-x="1251" d="M111 -371h290v502h5q53 -78 137 -117q82 -41 180 -41q117 0 205 45q86 45 145 121q57 76 86 174t29 205q0 113 -29 217q-29 102 -88 180t-149 125t-215 47q-98 0 -181 -38q-82 -39 -135 -125h-4v135h-276v-1430zM391 526q0 66 12 127t43 109q29 47 78 78q45 28 114 28h5 q70 0 119 -28q47 -31 78 -78q31 -49 45 -111q12 -61 12 -125q0 -63 -12 -125q-12 -61 -41 -106q-31 -47 -78 -76q-49 -29 -121 -29q-70 0 -119 29t-77 76q-31 45 -43 106q-14 61 -15 125z" />
<glyph unicode="q" horiz-adv-x="1251" d="M66 522q0 -154 43 -258q43 -106 108 -170q66 -66 145 -92q78 -29 152 -29q98 0 191 37q92 37 143 123h4v-504h291v1430h-277v-135h-4q-49 88 -135 127q-86 36 -181 36h-5q-121 0 -209 -47q-90 -47 -150 -125q-59 -80 -88 -182q-28 -99 -28 -204v-7zM356 528q1 66 15 127 q12 59 43 109q31 47 80 76q47 28 115 28h5q68 0 117 -30q47 -31 76 -80t43 -111q12 -61 12 -123q0 -66 -12 -125q-14 -61 -43 -106q-31 -47 -78 -74q-49 -29 -121 -29t-119 29q-49 29 -77 78q-31 47 -43 109q-12 59 -13 122z" />
<glyph unicode="r" horiz-adv-x="796" d="M111 0h290v477q0 72 15 133q14 61 49 109q33 45 88 72q53 26 129 26h6q27 0 55 -2l50 -8v270q-35 10 -64 10q-55 0 -106 -16t-97 -45q-45 -31 -80 -72q-35 -43 -55 -92h-4v197h-276v-1059z" />
<glyph unicode="s" horiz-adv-x="1099" d="M59 344q4 -106 50 -176q43 -72 112 -115q68 -43 156 -61t180 -19q90 0 178 19q86 16 154 59t110 115q41 70 41 174q0 74 -28 125q-29 49 -76 84q-47 33 -107 53q-61 20 -124 35l-121 27q-59 12 -105 28q-47 14 -76 39q-28 24 -28 61q0 36 16 56q16 18 41 29q23 10 51 14 q29 2 54 2q78 0 135 -29q57 -31 63 -114h277q-8 98 -49 163q-43 63 -107 103q-63 39 -143 55q-82 16 -168 16t-168 -14q-82 -16 -148 -53q-66 -39 -104 -105q-41 -66 -41 -167q0 -70 29 -117q29 -49 75 -80q47 -33 109 -51q59 -20 123 -35q156 -33 244 -66q86 -33 86 -98 q0 -39 -19 -63q-18 -27 -45 -41q-29 -16 -61 -23q-35 -8 -66 -8q-43 0 -82 10q-41 10 -71 33q-31 20 -50 55q-20 33 -20 80h-277z" />
<glyph unicode="t" horiz-adv-x="720" d="M12 864h176v-624q0 -80 27 -129t74 -76q45 -27 106 -35q59 -10 127 -10q43 0 88 2t82 8v225q-20 -4 -43 -6t-47 -2q-74 0 -98 25q-25 25 -25 98v524h213v195h-213v317h-291v-317h-176v-195z" />
<glyph unicode="u" horiz-adv-x="1214" d="M111 408q0 -98 18 -179q16 -82 59 -137q43 -57 119 -88q74 -31 191 -31q92 0 180 41t143 133h6v-147h277v1059h-291v-555q0 -162 -53 -232q-52 -71 -169 -71h-3q-104 0 -146 65q-41 63 -41 195v598h-290v-651z" />
<glyph unicode="v" horiz-adv-x="1064" d="M10 1059l363 -1059h323l359 1059h-289l-223 -723h-4l-224 723h-305z" />
<glyph unicode="w" horiz-adv-x="1667" d="M12 1059l336 -1059h301l180 711h5l188 -711h299l334 1059h-299l-195 -717h-4l-180 717h-283l-176 -719h-4l-195 719h-307z" />
<glyph unicode="x" horiz-adv-x="1099" d="M0 0h326l221 334l221 -334h332l-391 563l348 496h-322l-184 -277l-186 277h-332l348 -502z" />
<glyph unicode="y" horiz-adv-x="1062" d="M-10 1059l370 -993q12 -31 13 -66q0 -47 -27 -86q-29 -39 -86 -45q-14 -1 -29 -1l-57 3l-84 8v-239q45 -4 90 -7q43 -4 88 -4q150 0 234 56q84 55 131 184l442 1190h-301l-231 -725h-4l-240 725h-309z" />
<glyph unicode="z" horiz-adv-x="1062" d="M45 0h973v219h-590l551 621v219h-893v-219h510l-551 -621v-219z" />
<glyph unicode="{" horiz-adv-x="681" d="M-16 473q23 0 55 -8q33 -10 61 -29q29 -20 50 -53q20 -33 20 -80v-397q0 -70 27 -121q27 -53 65 -86q37 -35 82 -51q43 -18 78 -19h260v230h-111q-37 0 -57 14q-23 14 -35 37q-12 20 -14 47q-4 27 -4 49v328q0 66 -23 108q-25 41 -55 68q-33 25 -68 37q-35 10 -57 12v6 q23 2 57 13q35 10 68 36q31 25 55 72q23 45 23 121v311q0 25 4 51q2 27 14 50q12 20 35 34q20 14 57 15h111v229h-260q-35 0 -78 -16q-45 -18 -82 -51q-39 -35 -65 -87q-27 -53 -27 -122v-385q0 -51 -20 -86q-20 -37 -50 -58q-29 -23 -61 -30q-33 -10 -55 -11v-178z" />
<glyph unicode="|" horiz-adv-x="456" d="M119 -436h219v2046h-219v-2046z" />
<glyph unicode="}" horiz-adv-x="681" d="M0 -141v-230h260q35 0 80 19q43 16 82 51q37 33 63 86q27 51 27 121v397q0 47 20 80t50 53q29 18 61 29q33 8 57 8v178q-25 0 -57 11q-33 8 -61 30q-29 20 -50 58q-20 35 -20 86v385q0 70 -27 122q-27 51 -63 87q-39 33 -82 51q-45 16 -80 16h-260v-229h111q37 0 59 -15 q20 -14 33 -34q12 -23 16 -50q2 -27 2 -51v-311q0 -76 25 -121q23 -47 55 -72q31 -27 66 -36q35 -10 57 -13v-6q-23 -2 -57 -12q-35 -12 -66 -37q-33 -27 -55 -68q-25 -43 -25 -108v-328q0 -23 -2 -49q-4 -27 -16 -47q-12 -23 -33 -37q-23 -14 -59 -14h-111z" />
<glyph unicode="~" horiz-adv-x="1228" d="M137 520l82 -190q12 27 29 53q14 27 37 47q20 20 47 35q27 12 59 12q72 0 129 -20q57 -23 107 -51q51 -29 102 -48q49 -20 107 -20q47 0 86 16q37 14 67 39q31 25 55 58q25 31 48 63l-82 191l-37 -54q-18 -27 -39 -47q-23 -20 -47 -33q-27 -14 -58 -14q-41 0 -96 25 l-112 49q-59 27 -117 47q-57 18 -111 18q-51 0 -90 -14q-41 -16 -72 -41q-33 -25 -55 -55q-23 -33 -39 -66z" />
<glyph unicode="&#xa1;" horiz-adv-x="569" d="M125 772h321v315h-321v-315zM133 18v-391h303v391l-78 631h-145z" />
<glyph unicode="&#xa2;" d="M43 512q0 -109 35 -203q35 -96 100 -168q63 -74 154 -116q90 -45 200 -52v-206h121v206q94 8 176 41q80 33 142 90q61 55 100 136q37 78 45 176h-285q0 -39 -14 -76q-14 -39 -37 -70q-25 -31 -57 -51q-33 -23 -70 -29v678q70 -6 119 -57q49 -53 55 -127h285 q-4 92 -43 168q-41 74 -104 127q-66 51 -146 80q-82 29 -166 28v175h-121v-175q-119 -10 -208 -57q-92 -47 -154 -123q-63 -78 -94 -178q-33 -100 -33 -217zM334 541q0 53 10 106q10 51 35 96q23 43 61 76q37 33 92 47v-676q-57 18 -94 56q-39 35 -61 84q-23 47 -33 102 q-10 53 -10 109z" />
<glyph unicode="&#xa3;" d="M43 633h203q16 -35 28 -68q10 -35 11 -69q0 -55 -21 -105q-20 -51 -51 -94q-33 -43 -74 -78q-43 -37 -86 -63l127 -189q59 45 121 62q59 14 115 14q68 0 112 -12q45 -12 90 -29q43 -14 95 -25q51 -10 129 -10t162 29t157 100l-123 207q-55 -59 -96 -74q-43 -14 -84 -14 t-80 8q-39 6 -80 17l-80 16q-41 6 -81 6q-29 0 -60 -8t-80 -39l-4 4q68 53 119 123q49 68 49 164q0 35 -2 65q-4 31 -14 62h215v174h-273q-31 55 -47 94q-18 39 -24 70q-8 29 -10 51q-2 23 -3 47q0 86 56 137q53 51 145 51q78 0 123 -30q43 -33 66 -76q20 -43 26 -88 q6 -47 8 -78h277q0 250 -131 381t-367 131q-129 0 -227 -33t-164 -88q-66 -57 -98 -131q-35 -74 -35 -155q0 -92 31 -168t61 -115h-131v-174z" />
<glyph unicode="&#xa4;" d="M41 305l115 -115l114 119q53 -49 131 -73q78 -27 170 -27q86 0 164 27t129 75l117 -118l113 112l-113 115q47 57 72 135q23 78 22 164q0 86 -22 166q-25 78 -70 127l115 112l-125 125l-119 -116q-47 41 -123 67q-76 25 -158 25q-86 0 -165 -25q-82 -27 -134 -70l-116 115 l-117 -117l117 -118q-51 -51 -74 -129q-25 -80 -25 -166q0 -176 99 -291zM313 715q0 57 17 110q16 51 49 93q33 39 82 63q49 25 112 25q62 0 109 -25t78 -63q31 -41 47 -93q14 -53 14 -106q0 -55 -14 -107q-16 -53 -47 -94t-78 -65q-47 -25 -111 -25q-63 0 -110 25 q-49 23 -82 63q-33 39 -49 92q-16 51 -17 107z" />
<glyph unicode="&#xa5;" d="M-16 1462l313 -637h-195v-194h293l29 -60v-94h-322v-194h322v-283h311v283h324v194h-324v94l31 60h293v194h-195l318 637h-332l-264 -637l-271 637h-331z" />
<glyph unicode="&#xa6;" horiz-adv-x="456" d="M119 -180h219v510h-219v-510zM119 842h219v512h-219v-512z" />
<glyph unicode="&#xa7;" d="M20 637q0 -100 54 -172q53 -72 133 -125t172 -92q92 -41 170 -80t129 -82t49 -102q0 -68 -43 -101q-45 -35 -109 -35q-92 0 -143 46q-53 43 -57 131h-254q0 -102 35 -177q35 -76 98 -122q61 -49 145 -72q84 -25 183 -25q78 0 155 23q78 20 142 63q61 43 100 109 q39 63 39 149q0 72 -27 133t-86 107q98 35 156 115q57 80 57 184q0 96 -49 166q-51 68 -127 121q-76 51 -166 90t-166 78q-78 39 -129 82q-51 41 -53 98q0 61 51 96q49 35 105 35q82 0 129 -49q45 -51 45 -127h254q0 96 -33 170q-35 72 -92 123q-59 51 -137 78 q-80 25 -170 24q-78 0 -154 -22q-78 -23 -137 -68q-61 -45 -99 -111q-39 -68 -38 -153q0 -66 22 -113q23 -47 66 -94q-104 -37 -162 -113q-57 -76 -58 -186zM274 662q0 23 9 47q8 23 22 43q12 18 33 32q18 12 41 15q16 2 31 -6q12 -8 24 -15l338 -190q37 -20 66 -51 q27 -31 26 -78q0 -16 -6 -35q-8 -20 -20 -37q-12 -18 -29 -29q-18 -12 -39 -12q-18 0 -35 6q-16 4 -26 8l-369 201q-35 18 -49 45q-16 27 -17 56z" />
<glyph unicode="&#xa8;" horiz-adv-x="530" d="M-82 1223v239h275v-239h-275zM338 1223v239h276v-239h-276z" />
<glyph unicode="&#xa9;" horiz-adv-x="1638" d="M33 731q-1 -174 65 -315q63 -141 172 -242q109 -100 252 -154q141 -53 297 -53t299 53q141 53 250 154q109 100 174 242q63 141 64 315q0 176 -64 318q-66 141 -174 241q-109 98 -250 154q-143 53 -299 53t-297 -53q-143 -55 -252 -154q-109 -100 -172 -241 q-66 -141 -65 -318zM242 731q0 131 45 242t123 190q78 80 184 125q104 45 225 45q119 0 225 -45q104 -45 183 -125q78 -80 125 -190q45 -111 45 -242t-45 -242q-47 -111 -125 -190q-78 -80 -183 -125q-106 -45 -225 -45q-121 0 -225 45q-106 45 -184 125t-123 190 q-45 111 -45 242zM408 735q0 -96 32 -178q31 -84 88 -145t140 -97q80 -35 180 -34q68 0 131 22q61 20 113 64q49 41 84 102q33 59 45 135h-166q-10 -74 -66 -117q-55 -43 -141 -43q-55 0 -100 25q-45 23 -76 63q-33 39 -49 95q-18 53 -19 112q0 129 62 211q61 80 178 80 q80 0 137 -41t74 -112h159q-10 78 -43 137t-81 100q-49 39 -111 60q-63 20 -135 20q-102 0 -182 -35q-82 -35 -138 -96q-57 -61 -86 -145q-31 -84 -30 -183z" />
<glyph unicode="&#xaa;" horiz-adv-x="704" d="M20 973q0 -109 68 -156q66 -49 162 -49q55 0 117 18q59 16 104 64q2 -16 6 -31l8 -33h207q-25 47 -24 154v340q0 57 -27 94q-29 35 -72 56q-45 18 -100 26q-55 6 -109 6q-57 0 -110 -10t-96 -35t-72 -67q-31 -43 -41 -111h209q4 47 35 70q31 20 65 20q51 0 88 -12 q35 -14 35 -68q0 -25 -16 -37q-18 -14 -47 -20q-29 -8 -68 -10l-88 -11q-43 -6 -84 -16q-43 -10 -76 -31q-33 -23 -53 -57q-20 -37 -21 -94zM229 977q0 39 31 55t74 27q31 6 74 12q41 4 63 25v-41q0 -25 -4 -51q-4 -27 -18 -50q-16 -23 -46 -36q-31 -16 -81 -17 q-29 0 -60 17q-33 14 -33 59z" />
<glyph unicode="&#xab;" horiz-adv-x="909" d="M86 420l322 -256v246l-185 147l185 145v246l-322 -252v-276zM502 420l321 -256v246l-184 147l184 145v246l-321 -252v-276z" />
<glyph unicode="&#xac;" horiz-adv-x="1228" d="M98 612h813v-409h219v628h-1032v-219z" />
<glyph unicode="&#xad;" horiz-adv-x="833" d="M109 434v250h616v-250h-616z" />
<glyph unicode="&#xae;" horiz-adv-x="1638" d="M33 733q-1 -176 65 -317q63 -141 172 -242q109 -100 252 -154q141 -53 297 -53t299 53q141 53 250 154q109 100 174 242q63 141 64 317q0 174 -64 316q-66 141 -174 241q-109 98 -250 154q-143 53 -299 53t-297 -53q-143 -55 -252 -154q-109 -100 -172 -241 q-66 -141 -65 -316zM242 733q0 131 45 242q45 109 123 188q78 80 184 125q104 45 225 45q119 0 225 -45q104 -45 183 -125q78 -80 125 -188q45 -111 45 -242t-45 -241q-47 -111 -125 -191q-78 -82 -183 -127q-106 -45 -225 -45q-121 0 -225 45q-106 45 -184 127 q-78 80 -123 191t-45 241zM514 305h170v367h107l208 -367h179l-230 375q47 4 88 18t72 41t49 70q16 41 17 100q0 139 -87 197q-88 57 -249 57h-324v-858zM684 805v225h143q29 0 62 -4q31 -4 57 -14q25 -12 41 -33q16 -20 17 -55q0 -78 -48 -99q-47 -20 -120 -20h-152z" />
<glyph unicode="&#xaf;" horiz-adv-x="530" d="M-115 1262v153h762v-153h-762z" />
<glyph unicode="&#xb0;" horiz-adv-x="819" d="M106 1159q0 -64 25 -119q23 -55 64 -96t96 -63q55 -25 119 -25q63 0 118 25q55 23 97 63q41 41 65 96q23 55 23 119q0 63 -23 119q-25 55 -65 96q-41 41 -97 66q-55 23 -118 22q-63 0 -119 -22q-55 -25 -96 -66t-64 -96q-25 -55 -25 -119zM240 1159q0 37 14 70t39 57 q23 25 53 39q31 14 64 14t63 -14q31 -14 55 -39q23 -25 37 -57q14 -33 15 -70q0 -37 -15 -69q-14 -33 -37 -58q-25 -25 -55 -39q-31 -14 -63 -14q-33 0 -64 14t-53 39q-25 25 -39 58t-14 69z" />
<glyph unicode="&#xb1;" horiz-adv-x="1228" d="M98 0h1035v219h-1035v-219zM98 549h408v-268h219v268h408v219h-408v268h-219v-268h-408v-219z" />
<glyph unicode="&#xb2;" horiz-adv-x="802" d="M55 559h684v164h-428q53 70 127 115q74 43 144 88t118 104q47 57 48 156q0 68 -25 121q-27 51 -70 86q-45 35 -102 53q-57 16 -123 16q-188 0 -281 -98q-92 -100 -90 -258h209q-2 31 6 65q6 33 25 62q16 29 45 47t72 18q57 0 92 -36q33 -37 33 -91q0 -39 -19 -69 q-20 -31 -49 -55q-31 -25 -63 -46q-35 -20 -66 -40q-59 -37 -111 -74q-53 -37 -92 -82q-39 -47 -61 -105q-23 -59 -23 -141z" />
<glyph unicode="&#xb3;" horiz-adv-x="802" d="M45 868q-4 -160 94 -243q98 -84 264 -84q72 0 138 18q63 18 112 57q47 37 76 93q29 55 29 129q0 72 -43 125q-45 53 -123 67v4q68 16 102 66q33 49 33 110q0 63 -27 111q-29 47 -73 80q-47 31 -105 47q-59 14 -121 14q-154 0 -239 -84q-88 -84 -92 -227h196q-2 61 35 104 t102 43q49 0 89 -28q39 -29 38 -80q0 -37 -18 -55q-20 -20 -49 -29q-31 -10 -64 -10q-35 -2 -63 -2v-144q35 0 72 -2t69 -12q31 -10 51 -35t21 -67q0 -57 -43 -93q-45 -37 -107 -36q-78 0 -114 49q-39 49 -43 114h-197z" />
<glyph unicode="&#xb4;" horiz-adv-x="530" d="M111 1190l196 291h322l-316 -291h-202z" />
<glyph unicode="&#xb5;" horiz-adv-x="1214" d="M111 -371h290v391q18 -20 56 -32q37 -14 98 -15q25 0 59 11q33 10 70 32q37 20 74 54q35 33 63 77h6v-147h277v1059h-291v-555q0 -162 -53 -232q-53 -72 -172 -71q-104 0 -146 65q-41 63 -41 195v598h-290v-1430z" />
<glyph unicode="&#xb6;" horiz-adv-x="1269" d="M4 1090q0 -166 117 -263q115 -96 332 -96v-1069h209v1636h225v-1636h209v1800h-600q-106 0 -197 -18q-90 -18 -156 -62q-66 -43 -102 -114q-37 -72 -37 -178z" />
<glyph unicode="&#xb7;" horiz-adv-x="569" d="M113 588q0 -35 14 -66q14 -33 39 -55q23 -25 55 -37q31 -14 68 -14q35 0 65 14q31 14 54 39t36 55q14 31 15 64q0 37 -15 69q-14 31 -36 56q-25 23 -56 37q-31 12 -65 12q-70 0 -121 -49q-53 -51 -53 -125z" />
<glyph unicode="&#xb8;" horiz-adv-x="530" d="M25 -399l55 -19q25 -8 53 -14q27 -6 62 -8q35 -4 84 -4q45 0 88 10q43 8 77 33q33 23 54 63q20 39 20 98q0 37 -16 66q-16 27 -43 45q-27 16 -60 25q-35 8 -69 8q-45 0 -70 -10h-4l80 110h-100l-121 -172l43 -49q37 14 82 14q35 0 59 -12q23 -14 23 -53q0 -37 -23 -54 q-23 -16 -59 -16q-53 0 -97 12q-43 10 -75 25z" />
<glyph unicode="&#xb9;" horiz-adv-x="802" d="M158 1120h225v-561h209v885h-172q-6 -49 -29 -82q-25 -35 -59 -53q-37 -20 -80 -29q-45 -8 -94 -6v-154z" />
<glyph unicode="&#xba;" horiz-adv-x="751" d="M25 1114q0 -162 96 -254q94 -92 254 -92t256 92t96 254t-96 256q-96 92 -256 92t-254 -92q-96 -94 -96 -256zM244 1114q0 35 8 70q6 35 22 63q16 27 41 45q25 16 60 17q35 0 61 -17q25 -18 41 -45q16 -29 25 -63q6 -35 6 -70q0 -33 -6 -67q-8 -35 -25 -62 q-16 -29 -41 -45q-27 -18 -61 -18q-35 0 -60 18q-25 16 -41 45q-16 27 -22 62q-8 35 -8 67z" />
<glyph unicode="&#xbb;" horiz-adv-x="909" d="M86 164l322 256v276l-322 252v-246l184 -145l-184 -147v-246zM502 164l321 256v276l-321 252v-246l184 -145l-184 -147v-246z" />
<glyph unicode="&#xbc;" horiz-adv-x="1826" d="M49 1120h225v-561h209v885h-172q-6 -49 -28 -82q-25 -35 -60 -53q-37 -20 -80 -29q-45 -8 -94 -6v-154zM311 -43h178l844 1522h-174zM1018 182h393v-182h197v182h116v164h-116v514h-205l-385 -487v-191zM1174 346l233 295h4v-295h-237z" />
<glyph unicode="&#xbd;" horiz-adv-x="1820" d="M49 1120h225v-561h209v885h-172q-6 -49 -28 -82q-25 -35 -60 -53q-37 -20 -80 -29q-45 -8 -94 -6v-154zM311 -43h178l844 1522h-174zM1040 0h684v164h-428q53 70 127 115q74 43 144 88t119 104q47 57 47 156q0 68 -25 121q-27 51 -70 86q-45 35 -102 53q-57 16 -123 16 q-188 0 -280 -98q-92 -100 -91 -258h209q-2 31 6 65q6 33 25 62q16 29 45 47t72 18q57 0 92 -37q33 -37 33 -90q0 -39 -19 -69q-20 -31 -49 -56q-31 -25 -63 -45q-35 -20 -66 -41q-59 -37 -110 -73q-53 -37 -93 -82q-39 -47 -61 -105q-23 -59 -23 -141z" />
<glyph unicode="&#xbe;" horiz-adv-x="1820" d="M80 868q-4 -160 94 -243q98 -84 264 -84q72 0 137 18q63 18 113 57q47 37 76 93q29 55 29 129q0 72 -43 125q-45 53 -123 67v4q68 16 102 66q33 49 33 110q0 63 -27 111q-29 47 -73 80q-47 31 -105 47q-59 14 -121 14q-154 0 -239 -84q-88 -84 -93 -227h197q-2 61 35 104 t102 43q49 0 88 -28q39 -29 39 -80q0 -37 -18 -55q-20 -20 -49 -29q-31 -10 -64 -10q-35 -2 -63 -2v-144q35 0 71 -2q37 -2 70 -12q31 -10 51 -35t21 -67q0 -57 -43 -93q-45 -37 -107 -36q-78 0 -115 49q-39 49 -43 114h-196zM489 -43h179l843 1522h-174zM1059 182h393v-182 h197v182h116v164h-116v514h-205l-385 -487v-191zM1214 346l234 295h4v-295h-238z" />
<glyph unicode="&#xbf;" d="M66 -4q0 -59 26 -127q25 -70 84 -129t158 -98q98 -41 241 -41q111 0 201 39q90 37 156 104q63 68 100 160q35 92 37 200h-301q0 -53 -12 -100q-12 -49 -37 -84q-27 -37 -66 -57q-39 -23 -92 -23q-82 0 -127 45q-47 45 -47 138q-2 55 21 92q20 37 55 67q35 31 76 62t77 73 q37 41 66 101q27 59 33 147v92h-277v-77q-8 -61 -39 -103q-31 -41 -71 -74q-43 -33 -88 -63q-45 -31 -84 -76t-64 -108q-27 -63 -26 -160zM422 772h321v315h-321v-315z" />
<glyph unicode="&#xc0;" horiz-adv-x="1402" d="M-12 0h323l115 326h547l110 -326h334l-547 1462h-329zM338 1884l315 -291h203l-197 291h-321zM510 565l190 537h5l184 -537h-379z" />
<glyph unicode="&#xc1;" horiz-adv-x="1402" d="M-12 0h323l115 326h547l110 -326h334l-547 1462h-329zM510 565l190 537h5l184 -537h-379zM547 1593h203l315 291h-322z" />
<glyph unicode="&#xc2;" horiz-adv-x="1402" d="M-12 0h323l115 326h547l110 -326h334l-547 1462h-329zM342 1593h221l131 166l127 -166h240l-225 291h-267zM510 565l190 537h5l184 -537h-379z" />
<glyph unicode="&#xc3;" horiz-adv-x="1402" d="M-12 0h323l115 326h547l110 -326h334l-547 1462h-329zM326 1616h125q10 39 28 63q16 23 58 23q35 0 69 -10q35 -10 74 -25q39 -12 80 -22q41 -12 88 -13q61 0 102 25q39 23 66 57q25 35 39 76l22 76h-141q2 -29 -18 -49q-20 -23 -68 -23q-35 0 -68 12q-35 10 -67 25 l-64 24q-33 10 -67 11q-68 0 -113 -23t-74 -57q-29 -37 -45 -80q-16 -45 -26 -90zM510 565l190 537h5l184 -537h-379z" />
<glyph unicode="&#xc4;" horiz-adv-x="1402" d="M-12 0h323l115 326h547l110 -326h334l-547 1462h-329zM352 1626h277v240h-277v-240zM510 565l190 537h5l184 -537h-379zM774 1626h277v240h-277v-240z" />
<glyph unicode="&#xc5;" horiz-adv-x="1402" d="M-12 0l553 1462h329l547 -1462h-334l-110 326h-547l-115 -326h-323zM449 1706q0 53 20 98q18 45 53 80q33 33 80 53q45 18 96 19q53 0 99 -19q45 -20 80 -53q35 -35 55 -80q18 -45 18 -98q0 -51 -18 -96q-20 -47 -55 -80q-35 -35 -80 -53q-45 -20 -99 -21q-51 0 -96 21 q-47 18 -80 53q-35 33 -53 80q-20 45 -20 96zM510 565h379l-184 537h-5zM569 1706q0 -59 35 -100q35 -43 94 -43t97 43q35 41 34 100q0 59 -34 102q-37 41 -97 41q-59 0 -94 -41q-35 -43 -35 -102z" />
<glyph unicode="&#xc6;" horiz-adv-x="2009" d="M-20 0h339l148 326h459v-326h1007v270h-696v359h639v250h-639v313h680v270h-1241zM573 565l283 627h70v-627h-353z" />
<glyph unicode="&#xc7;" horiz-adv-x="1517" d="M78 725q0 -147 43 -276q41 -131 123 -232q80 -100 196 -164q117 -66 267 -80l-99 -141l43 -49q37 14 82 14q35 0 60 -12q23 -14 22 -53q0 -37 -22 -54q-23 -16 -60 -16q-53 0 -96 12q-43 10 -76 25l-43 -98l55 -19q25 -8 54 -14q27 -6 61 -8q35 -4 84 -4q45 0 88 10 q43 8 78 33q33 23 53 63q20 39 21 98q0 37 -17 66q-16 27 -43 45q-27 16 -59 25q-35 8 -70 8q-45 0 -69 -10h-4l53 73q133 2 246 45q111 41 194 119q82 76 133 186q51 109 64 246h-312q-18 -147 -100 -237q-84 -90 -231 -90q-109 0 -185 43q-76 41 -123 110q-47 70 -67 158 q-23 86 -23 178q0 96 23 186q20 90 67 162q47 70 123 113q76 41 185 41q59 0 114 -19q53 -20 97 -55q43 -35 71 -80q29 -47 37 -102h311q-14 127 -69 225t-139 166q-86 66 -193 100q-109 35 -229 35q-168 0 -301 -59q-135 -59 -228 -164q-92 -104 -141 -244 q-49 -141 -49 -305z" />
<glyph unicode="&#xc8;" horiz-adv-x="1327" d="M141 0h1110v270h-788v359h708v250h-708v313h772v270h-1094v-1462zM301 1884l315 -291h203l-196 291h-322z" />
<glyph unicode="&#xc9;" horiz-adv-x="1327" d="M141 0h1110v270h-788v359h708v250h-708v313h772v270h-1094v-1462zM510 1593h203l315 291h-321z" />
<glyph unicode="&#xca;" horiz-adv-x="1327" d="M141 0h1110v270h-788v359h708v250h-708v313h772v270h-1094v-1462zM305 1593h221l131 166l127 -166h240l-225 291h-267z" />
<glyph unicode="&#xcb;" horiz-adv-x="1327" d="M141 0h1110v270h-788v359h708v250h-708v313h772v270h-1094v-1462zM315 1626h277v240h-277v-240zM737 1626h277v240h-277v-240z" />
<glyph unicode="&#xcc;" horiz-adv-x="604" d="M-59 1884l313 -291h203l-197 291h-319zM141 0h322v1462h-322v-1462z" />
<glyph unicode="&#xcd;" horiz-adv-x="604" d="M141 0h322v1462h-322v-1462zM147 1593h203l316 291h-322z" />
<glyph unicode="&#xce;" horiz-adv-x="604" d="M-55 1593h219l131 166l127 -166h240l-226 291h-266zM141 0h322v1462h-322v-1462z" />
<glyph unicode="&#xcf;" horiz-adv-x="604" d="M-45 1626h274v240h-274v-240zM141 0h322v1462h-322v-1462zM375 1626h276v240h-276v-240z" />
<glyph unicode="&#xd0;" horiz-adv-x="1517" d="M6 637h135v-637h631q168 0 293 57q123 55 207 154q82 98 123 233t41 295q0 182 -50 318q-51 135 -139 225q-90 90 -211 135q-123 45 -264 45h-631v-588h-135v-237zM463 270v365h328v239h-328v318h229q119 0 201 -33q80 -35 129 -98t72 -152q20 -90 20 -200 q0 -121 -31 -205t-82 -135q-51 -53 -116 -76q-66 -23 -135 -23h-287z" />
<glyph unicode="&#xd1;" horiz-adv-x="1517" d="M141 0h301v979h4l609 -979h321v1462h-301v-981h-4l-610 981h-320v-1462zM383 1616h125q10 39 29 63q16 23 57 23q35 0 70 -10t73 -25q39 -12 80 -22q41 -12 88 -13q61 0 103 25q39 23 65 57q25 35 39 76l23 76h-142q2 -29 -18 -49q-20 -23 -68 -23q-35 0 -67 12 q-35 10 -68 25l-63 24q-33 10 -68 11q-68 0 -113 -23t-73 -57q-29 -37 -45 -80q-16 -45 -27 -90z" />
<glyph unicode="&#xd2;" horiz-adv-x="1593" d="M78 725q0 -160 49 -297q49 -139 141 -242q92 -102 228 -159q133 -59 301 -60q170 0 303 60q133 57 225 159t141 242q49 137 50 297q0 164 -50 305q-49 139 -141 244q-92 104 -225 164q-133 59 -303 59q-168 0 -301 -59q-135 -59 -228 -164q-92 -104 -141 -244 q-49 -141 -49 -305zM399 725q0 96 23 186q20 90 67 162q47 70 123 113q76 41 185 41t184 -41q76 -43 123 -113q47 -72 70 -162q20 -90 20 -186q0 -92 -20 -178q-23 -88 -70 -158t-123 -110q-76 -43 -184 -43q-109 0 -185 43q-76 41 -123 110q-47 70 -67 158q-23 86 -23 178z M434 1884l316 -291h202l-196 291h-322z" />
<glyph unicode="&#xd3;" horiz-adv-x="1593" d="M78 725q0 -160 49 -297q49 -139 141 -242q92 -102 228 -159q133 -59 301 -60q170 0 303 60q133 57 225 159t141 242q49 137 50 297q0 164 -50 305q-49 139 -141 244q-92 104 -225 164q-133 59 -303 59q-168 0 -301 -59q-135 -59 -228 -164q-92 -104 -141 -244 q-49 -141 -49 -305zM399 725q0 96 23 186q20 90 67 162q47 70 123 113q76 41 185 41t184 -41q76 -43 123 -113q47 -72 70 -162q20 -90 20 -186q0 -92 -20 -178q-23 -88 -70 -158t-123 -110q-76 -43 -184 -43q-109 0 -185 43q-76 41 -123 110q-47 70 -67 158q-23 86 -23 178z M643 1593h203l315 291h-321z" />
<glyph unicode="&#xd4;" horiz-adv-x="1593" d="M78 725q0 -160 49 -297q49 -139 141 -242q92 -102 228 -159q133 -59 301 -60q170 0 303 60q133 57 225 159t141 242q49 137 50 297q0 164 -50 305q-49 139 -141 244q-92 104 -225 164q-133 59 -303 59q-168 0 -301 -59q-135 -59 -228 -164q-92 -104 -141 -244 q-49 -141 -49 -305zM399 725q0 96 23 186q20 90 67 162q47 70 123 113q76 41 185 41t184 -41q76 -43 123 -113q47 -72 70 -162q20 -90 20 -186q0 -92 -20 -178q-23 -88 -70 -158t-123 -110q-76 -43 -184 -43q-109 0 -185 43q-76 41 -123 110q-47 70 -67 158q-23 86 -23 178z M438 1593h221l132 166l127 -166h239l-225 291h-266z" />
<glyph unicode="&#xd5;" horiz-adv-x="1593" d="M78 725q0 -160 49 -297q49 -139 141 -242q92 -102 228 -159q133 -59 301 -60q170 0 303 60q133 57 225 159t141 242q49 137 50 297q0 164 -50 305q-49 139 -141 244q-92 104 -225 164q-133 59 -303 59q-168 0 -301 -59q-135 -59 -228 -164q-92 -104 -141 -244 q-49 -141 -49 -305zM399 725q0 96 23 186q20 90 67 162q47 70 123 113q76 41 185 41t184 -41q76 -43 123 -113q47 -72 70 -162q20 -90 20 -186q0 -92 -20 -178q-23 -88 -70 -158t-123 -110q-76 -43 -184 -43q-109 0 -185 43q-76 41 -123 110q-47 70 -67 158q-23 86 -23 178z M422 1616h125q10 39 28 63q16 23 58 23q35 0 69 -10q35 -10 74 -25q39 -12 80 -22q41 -12 88 -13q61 0 103 25q39 23 65 57q25 35 39 76l23 76h-142q2 -29 -18 -49q-20 -23 -68 -23q-35 0 -67 12q-35 10 -68 25l-63 24q-33 10 -68 11q-68 0 -113 -23t-73 -57 q-29 -37 -45 -80q-16 -45 -27 -90z" />
<glyph unicode="&#xd6;" horiz-adv-x="1593" d="M78 725q0 -160 49 -297q49 -139 141 -242q92 -102 228 -159q133 -59 301 -60q170 0 303 60q133 57 225 159t141 242q49 137 50 297q0 164 -50 305q-49 139 -141 244q-92 104 -225 164q-133 59 -303 59q-168 0 -301 -59q-135 -59 -228 -164q-92 -104 -141 -244 q-49 -141 -49 -305zM399 725q0 96 23 186q20 90 67 162q47 70 123 113q76 41 185 41t184 -41q76 -43 123 -113q47 -72 70 -162q20 -90 20 -186q0 -92 -20 -178q-23 -88 -70 -158t-123 -110q-76 -43 -184 -43q-109 0 -185 43q-76 41 -123 110q-47 70 -67 158q-23 86 -23 178z M449 1626h276v240h-276v-240zM870 1626h277v240h-277v-240z" />
<glyph unicode="&#xd7;" horiz-adv-x="1228" d="M131 190l156 -155l329 330l328 -330l156 155l-330 328l330 328l-156 155l-328 -327l-325 327l-156 -155l326 -328z" />
<glyph unicode="&#xd8;" horiz-adv-x="1593" d="M70 20l100 -86l170 187q86 -72 201 -113t256 -41q170 0 303 60q133 57 225 159t141 242q49 137 50 297q0 154 -41 283q-43 129 -123 233l172 191l-103 90l-164 -183q-88 76 -202 117q-117 41 -258 41q-168 0 -301 -59q-135 -59 -228 -164q-92 -104 -141 -244 q-49 -141 -49 -305q0 -147 41 -276t127 -234zM399 725q0 96 23 186q20 90 67 162q47 70 123 113q76 41 185 41q88 0 153 -29q66 -29 113 -76l-606 -673q-31 63 -43 135q-14 70 -15 141zM535 336l604 668q29 -63 43 -134q12 -72 12 -145q0 -92 -20 -178q-23 -88 -70 -158 t-123 -110q-76 -43 -184 -43q-86 0 -150 26q-66 27 -112 74z" />
<glyph unicode="&#xd9;" horiz-adv-x="1517" d="M135 553q0 -299 164 -442q162 -143 459 -144q293 0 459 146q166 143 165 440v909h-321v-909q0 -164 -66 -240q-66 -78 -237 -77q-98 0 -156 28q-59 27 -92 72q-33 43 -43 100t-10 117v909h-322v-909zM395 1884l316 -291h202l-196 291h-322z" />
<glyph unicode="&#xda;" horiz-adv-x="1517" d="M135 553q0 -299 164 -442q162 -143 459 -144q293 0 459 146q166 143 165 440v909h-321v-909q0 -164 -66 -240q-66 -78 -237 -77q-98 0 -156 28q-59 27 -92 72q-33 43 -43 100t-10 117v909h-322v-909zM604 1593h203l315 291h-321z" />
<glyph unicode="&#xdb;" horiz-adv-x="1517" d="M135 553q0 -299 164 -442q162 -143 459 -144q293 0 459 146q166 143 165 440v909h-321v-909q0 -164 -66 -240q-66 -78 -237 -77q-98 0 -156 28q-59 27 -92 72q-33 43 -43 100t-10 117v909h-322v-909zM399 1593h222l131 166l127 -166h239l-225 291h-266z" />
<glyph unicode="&#xdc;" horiz-adv-x="1517" d="M135 553q0 -299 164 -442q162 -143 459 -144q293 0 459 146q166 143 165 440v909h-321v-909q0 -164 -66 -240q-66 -78 -237 -77q-98 0 -156 28q-59 27 -92 72q-33 43 -43 100t-10 117v909h-322v-909zM410 1626h276v240h-276v-240zM831 1626h277v240h-277v-240z" />
<glyph unicode="&#xdd;" horiz-adv-x="1366" d="M-16 1462l536 -893v-569h322v561l542 901h-358l-340 -577l-342 577h-360zM528 1593h203l316 291h-322z" />
<glyph unicode="&#xde;" horiz-adv-x="1366" d="M141 0h322v326h338q137 0 233 41q96 39 158 104q59 66 88 152q27 84 27 172q0 90 -27 174q-29 84 -88 149q-61 66 -158 107q-96 39 -233 39h-338v198h-322v-1462zM463 575v439h250q55 0 106 -8t90 -31q39 -25 64 -68q23 -43 22 -112q0 -70 -22 -113q-25 -43 -64 -66 q-39 -25 -90 -32q-51 -8 -106 -9h-250z" />
<glyph unicode="&#xdf;" horiz-adv-x="1251" d="M115 0h291v1057q0 92 47 147q47 53 135 53q23 0 57 -4q33 -4 64 -22t53 -53q23 -37 22 -103q0 -47 -18 -82t-47 -57q-31 -23 -70 -33t-80 -10q-10 0 -20 2q-12 0 -25 2v-192l37 4h35q129 0 190 -70q59 -70 60 -180q0 -51 -17 -97q-18 -45 -49 -77q-33 -35 -75 -54 q-43 -20 -97 -20q-23 0 -43 2t-41 8v-235q84 -12 168 -13q98 0 180 39q80 37 140 103q59 66 92 151q33 86 33 183q0 66 -17 126q-16 59 -49 109q-35 49 -84 84q-49 33 -117 47v4q86 27 140 107q51 80 51 178q0 102 -37 176q-39 74 -102 123q-66 47 -150 72q-84 23 -176 22 q-154 0 -248 -45t-145 -115q-53 -72 -70 -157q-18 -88 -18 -174v-1006z" />
<glyph unicode="&#xe0;" horiz-adv-x="1175" d="M66 289q0 -82 28 -142q27 -59 76 -98t115 -57t141 -19q98 0 192 29t164 100q2 -27 9 -51q4 -27 12 -51h295q-20 33 -29 98q-8 66 -8 138v550q0 96 -43 156q-43 57 -111 90t-149 45q-82 10 -162 10q-88 0 -174 -16q-88 -18 -158 -59t-114 -109q-45 -68 -52 -170h291 q8 86 57 123t136 37q39 0 73 -4q33 -6 60 -21q25 -16 41 -43q14 -29 14 -75q2 -45 -27 -68q-29 -25 -77 -37q-49 -12 -113 -18q-63 -6 -129 -17q-66 -10 -129 -26q-66 -18 -115 -54q-51 -35 -82 -92q-33 -59 -32 -149zM225 1481l316 -291h202l-196 291h-322zM356 301 q0 41 15 68q14 27 39 45q23 16 55 26q31 10 63 17q35 6 70 10t68 10q31 6 59 17q27 8 45 24v-108q0 -25 -4 -66q-6 -41 -29 -80q-23 -41 -69 -69q-47 -29 -133 -29q-35 0 -68 6t-57 23q-25 14 -39 41t-15 65z" />
<glyph unicode="&#xe1;" horiz-adv-x="1175" d="M66 289q0 -82 28 -142q27 -59 76 -98t115 -57t141 -19q98 0 192 29t164 100q2 -27 9 -51q4 -27 12 -51h295q-20 33 -29 98q-8 66 -8 138v550q0 96 -43 156q-43 57 -111 90t-149 45q-82 10 -162 10q-88 0 -174 -16q-88 -18 -158 -59t-114 -109q-45 -68 -52 -170h291 q8 86 57 123t136 37q39 0 73 -4q33 -6 60 -21q25 -16 41 -43q14 -29 14 -75q2 -45 -27 -68q-29 -25 -77 -37q-49 -12 -113 -18q-63 -6 -129 -17q-66 -10 -129 -26q-66 -18 -115 -54q-51 -35 -82 -92q-33 -59 -32 -149zM356 301q0 41 15 68q14 27 39 45q23 16 55 26 q31 10 63 17q35 6 70 10t68 10q31 6 59 17q27 8 45 24v-108q0 -25 -4 -66q-6 -41 -29 -80q-23 -41 -69 -69q-47 -29 -133 -29q-35 0 -68 6t-57 23q-25 14 -39 41t-15 65zM434 1190h203l315 291h-321z" />
<glyph unicode="&#xe2;" horiz-adv-x="1175" d="M66 289q0 -82 28 -142q27 -59 76 -98t115 -57t141 -19q98 0 192 29t164 100q2 -27 9 -51q4 -27 12 -51h295q-20 33 -29 98q-8 66 -8 138v550q0 96 -43 156q-43 57 -111 90t-149 45q-82 10 -162 10q-88 0 -174 -16q-88 -18 -158 -59t-114 -109q-45 -68 -52 -170h291 q8 86 57 123t136 37q39 0 73 -4q33 -6 60 -21q25 -16 41 -43q14 -29 14 -75q2 -45 -27 -68q-29 -25 -77 -37q-49 -12 -113 -18q-63 -6 -129 -17q-66 -10 -129 -26q-66 -18 -115 -54q-51 -35 -82 -92q-33 -59 -32 -149zM229 1190h222l131 166l127 -166h239l-225 291h-266z M356 301q0 41 15 68q14 27 39 45q23 16 55 26q31 10 63 17q35 6 70 10t68 10q31 6 59 17q27 8 45 24v-108q0 -25 -4 -66q-6 -41 -29 -80q-23 -41 -69 -69q-47 -29 -133 -29q-35 0 -68 6t-57 23q-25 14 -39 41t-15 65z" />
<glyph unicode="&#xe3;" horiz-adv-x="1175" d="M66 289q0 -82 28 -142q27 -59 76 -98t115 -57t141 -19q98 0 192 29t164 100q2 -27 9 -51q4 -27 12 -51h295q-20 33 -29 98q-8 66 -8 138v550q0 96 -43 156q-43 57 -111 90t-149 45q-82 10 -162 10q-88 0 -174 -16q-88 -18 -158 -59t-114 -109q-45 -68 -52 -170h291 q8 86 57 123t136 37q39 0 73 -4q33 -6 60 -21q25 -16 41 -43q14 -29 14 -75q2 -45 -27 -68q-29 -25 -77 -37q-49 -12 -113 -18q-63 -6 -129 -17q-66 -10 -129 -26q-66 -18 -115 -54q-51 -35 -82 -92q-33 -59 -32 -149zM213 1212h125q10 39 29 64q16 23 57 22q35 0 70 -10 t73 -24q39 -12 80 -23q41 -12 88 -12q61 0 103 24q39 23 65 58q25 35 39 75l23 76h-142q2 -29 -18 -49q-20 -23 -68 -22q-35 0 -67 12q-35 10 -68 24l-63 25q-33 10 -68 10q-68 0 -113 -22q-45 -23 -73 -58q-29 -37 -45 -79q-16 -45 -27 -91zM356 301q0 41 15 68 q14 27 39 45q23 16 55 26q31 10 63 17q35 6 70 10t68 10q31 6 59 17q27 8 45 24v-108q0 -25 -4 -66q-6 -41 -29 -80q-23 -41 -69 -69q-47 -29 -133 -29q-35 0 -68 6t-57 23q-25 14 -39 41t-15 65z" />
<glyph unicode="&#xe4;" horiz-adv-x="1175" d="M66 289q0 -82 28 -142q27 -59 76 -98t115 -57t141 -19q98 0 192 29t164 100q2 -27 9 -51q4 -27 12 -51h295q-20 33 -29 98q-8 66 -8 138v550q0 96 -43 156q-43 57 -111 90t-149 45q-82 10 -162 10q-88 0 -174 -16q-88 -18 -158 -59t-114 -109q-45 -68 -52 -170h291 q8 86 57 123t136 37q39 0 73 -4q33 -6 60 -21q25 -16 41 -43q14 -29 14 -75q2 -45 -27 -68q-29 -25 -77 -37q-49 -12 -113 -18q-63 -6 -129 -17q-66 -10 -129 -26q-66 -18 -115 -54q-51 -35 -82 -92q-33 -59 -32 -149zM240 1223h276v239h-276v-239zM356 301q0 41 15 68 q14 27 39 45q23 16 55 26q31 10 63 17q35 6 70 10t68 10q31 6 59 17q27 8 45 24v-108q0 -25 -4 -66q-6 -41 -29 -80q-23 -41 -69 -69q-47 -29 -133 -29q-35 0 -68 6t-57 23q-25 14 -39 41t-15 65zM662 1223h276v239h-276v-239z" />
<glyph unicode="&#xe5;" horiz-adv-x="1175" d="M66 289q0 -82 28 -142q27 -59 76 -98t115 -57t141 -19q98 0 192 29t164 100q2 -27 9 -51q4 -27 12 -51h295q-20 33 -29 98q-8 66 -8 138v550q0 96 -43 156q-43 57 -111 90t-149 45q-82 10 -162 10q-88 0 -174 -16q-88 -18 -158 -59t-114 -109q-45 -68 -52 -170h291 q8 86 57 123t136 37q39 0 73 -4q33 -6 60 -21q25 -16 41 -43q14 -29 14 -75q2 -45 -27 -68q-29 -25 -77 -37q-49 -12 -113 -18q-63 -6 -129 -17q-66 -10 -129 -26q-66 -18 -115 -54q-51 -35 -82 -92q-33 -59 -32 -149zM338 1343q0 -51 20 -96q18 -47 54 -80q33 -35 80 -53 q45 -20 96 -20q53 0 98 20q45 18 80 53q35 33 55 80q18 45 19 96q0 53 -19 99q-20 45 -55 80q-35 33 -80 53q-45 18 -98 18q-51 0 -96 -18q-47 -20 -80 -53q-35 -35 -54 -80q-20 -45 -20 -99zM356 301q0 41 15 68q14 27 39 45q23 16 55 26q31 10 63 17q35 6 70 10t68 10 q31 6 59 17q27 8 45 24v-108q0 -25 -4 -66q-6 -41 -29 -80q-23 -41 -69 -69q-47 -29 -133 -29q-35 0 -68 6t-57 23q-25 14 -39 41t-15 65zM459 1343q0 60 35 103q35 41 94 41t96 -41q35 -43 35 -103q0 -59 -35 -100q-37 -43 -96 -43t-94 43q-35 41 -35 100z" />
<glyph unicode="&#xe6;" horiz-adv-x="1857" d="M78 287q0 -88 35 -148q33 -61 88 -98t127 -51q70 -16 145 -17q59 0 121 11q61 8 119 30q55 20 106 56q49 33 86 82q68 -96 174 -138q106 -41 221 -41q86 0 166 25q78 23 142 70q63 45 110 112q47 66 70 152h-283q-14 -78 -63 -121q-49 -45 -148 -45q-61 0 -108 27t-80 67 q-33 41 -49 94t-15 105h756q0 123 -26 237q-27 113 -84 201q-59 86 -152 139q-92 51 -225 51q-129 0 -211 -34q-82 -37 -144 -109q-29 41 -69 70q-41 27 -88 43t-97 24q-49 6 -96 6q-92 0 -180 -18q-90 -18 -158 -59q-70 -43 -112 -111q-45 -70 -50 -170h291q4 92 62 129 q55 35 141 35q35 0 70 -4q33 -6 59 -21q27 -16 43 -43t16 -67q0 -41 -20 -64t-63 -35q-45 -14 -113 -24l-160 -25q-66 -10 -129 -26q-63 -18 -113 -54q-51 -37 -81 -94q-31 -59 -31 -149zM369 303q0 51 24 80q23 29 62 45q37 16 84 25q47 6 94 14q45 6 88 16q41 10 67 33 v-131q0 -57 -22 -98q-23 -43 -57 -70q-35 -27 -76 -39q-43 -12 -84 -12q-33 0 -66 6t-57 23q-27 16 -41 43q-16 27 -16 65zM1042 643q0 49 17 94q16 45 47 80t76 55q43 20 98 21q55 0 98 -21q41 -20 72 -55q29 -35 43 -80t14 -94h-465z" />
<glyph unicode="&#xe7;" horiz-adv-x="1175" d="M78 514q0 -111 33 -203q33 -94 94 -164q61 -72 147 -114q84 -43 189 -53l-103 -148l43 -49q37 14 82 14q35 0 60 -12q23 -14 22 -53q0 -37 -22 -54q-23 -16 -60 -16q-53 0 -96 12q-43 10 -76 25l-43 -98l55 -19q25 -8 54 -14q27 -6 61 -8q35 -4 84 -4q45 0 88 10 q43 8 78 33q33 23 53 63q20 39 21 98q0 37 -17 66q-16 27 -43 45q-27 16 -59 25q-35 8 -70 8q-45 0 -69 -10h-4l57 81q203 6 332 117q127 109 153 314h-280q-14 -98 -70 -156q-57 -59 -162 -60q-68 0 -114 31q-47 31 -74 80q-29 47 -41 107q-12 59 -12 116q0 59 12 121 q12 59 43 111q29 49 76 82q47 31 116 30q186 0 215 -182h285q-6 102 -49 178q-43 74 -111 125q-70 49 -155 74q-88 25 -183 24q-129 0 -229 -43t-170 -118q-70 -78 -104 -183q-37 -106 -37 -229z" />
<glyph unicode="&#xe8;" horiz-adv-x="1175" d="M59 528q0 -123 39 -225q37 -102 107 -176t170 -113q100 -41 225 -41q180 0 307 82t189 273h-256q-14 -49 -78 -92q-63 -45 -152 -46q-123 0 -188 64q-66 63 -72 205h764q8 123 -20 235q-29 113 -93 201q-66 88 -165 141q-100 51 -236 51q-121 0 -219 -43 q-100 -43 -172 -116q-72 -76 -111 -178t-39 -222zM225 1481l316 -291h202l-196 291h-322zM350 643q2 31 15 70q10 39 38 73q27 35 74 60q45 23 115 22q106 0 160 -57q51 -57 71 -168h-473z" />
<glyph unicode="&#xe9;" horiz-adv-x="1175" d="M59 528q0 -123 39 -225q37 -102 107 -176t170 -113q100 -41 225 -41q180 0 307 82t189 273h-256q-14 -49 -78 -92q-63 -45 -152 -46q-123 0 -188 64q-66 63 -72 205h764q8 123 -20 235q-29 113 -93 201q-66 88 -165 141q-100 51 -236 51q-121 0 -219 -43 q-100 -43 -172 -116q-72 -76 -111 -178t-39 -222zM350 643q2 31 15 70q10 39 38 73q27 35 74 60q45 23 115 22q106 0 160 -57q51 -57 71 -168h-473zM434 1190h203l315 291h-321z" />
<glyph unicode="&#xea;" horiz-adv-x="1175" d="M59 528q0 -123 39 -225q37 -102 107 -176t170 -113q100 -41 225 -41q180 0 307 82t189 273h-256q-14 -49 -78 -92q-63 -45 -152 -46q-123 0 -188 64q-66 63 -72 205h764q8 123 -20 235q-29 113 -93 201q-66 88 -165 141q-100 51 -236 51q-121 0 -219 -43 q-100 -43 -172 -116q-72 -76 -111 -178t-39 -222zM229 1190h222l131 166l127 -166h239l-225 291h-266zM350 643q2 31 15 70q10 39 38 73q27 35 74 60q45 23 115 22q106 0 160 -57q51 -57 71 -168h-473z" />
<glyph unicode="&#xeb;" horiz-adv-x="1175" d="M59 528q0 -123 39 -225q37 -102 107 -176t170 -113q100 -41 225 -41q180 0 307 82t189 273h-256q-14 -49 -78 -92q-63 -45 -152 -46q-123 0 -188 64q-66 63 -72 205h764q8 123 -20 235q-29 113 -93 201q-66 88 -165 141q-100 51 -236 51q-121 0 -219 -43 q-100 -43 -172 -116q-72 -76 -111 -178t-39 -222zM240 1223h276v239h-276v-239zM350 643q2 31 15 70q10 39 38 73q27 35 74 60q45 23 115 22q106 0 160 -57q51 -57 71 -168h-473zM662 1223h276v239h-276v-239z" />
<glyph unicode="&#xec;" horiz-adv-x="528" d="M-96 1481l313 -291h203l-197 291h-319zM119 0h291v1059h-291v-1059z" />
<glyph unicode="&#xed;" horiz-adv-x="528" d="M111 1190h202l316 291h-322zM119 0h291v1059h-291v-1059z" />
<glyph unicode="&#xee;" horiz-adv-x="528" d="M-92 1190h219l131 166l127 -166h240l-226 291h-266zM119 0h291v1059h-291v-1059z" />
<glyph unicode="&#xef;" horiz-adv-x="528" d="M-82 1223h275v239h-275v-239zM119 0h291v1059h-291v-1059zM338 1223h276v239h-276v-239z" />
<glyph unicode="&#xf0;" horiz-adv-x="1251" d="M78 506q0 -117 39 -215t110 -168q72 -72 172 -111t226 -39q125 0 227 45q100 43 172 121t111 187q39 106 39 233q4 240 -84 422t-254 342l233 117l-106 121l-252 -127q-92 74 -203 135l-189 -142q41 -20 84 -45t89 -57l-220 -111l119 -114l230 114q51 -45 112 -108 q59 -66 96 -152h-4q-72 49 -143 66q-74 16 -133 16q-123 0 -211 -47q-90 -47 -148 -123q-57 -76 -84 -170q-29 -94 -28 -190zM369 528q0 55 14 113q12 55 43 100q29 45 78 74q49 27 119 27q72 0 120 -27q49 -29 80 -72q31 -45 45 -100q14 -57 15 -115q0 -63 -13 -122 q-12 -61 -41 -109q-31 -49 -79 -78q-51 -29 -125 -29t-123 29t-78 78q-31 47 -43 109q-12 59 -12 122z" />
<glyph unicode="&#xf1;" horiz-adv-x="1214" d="M111 0h290v555q0 162 54 233q53 70 172 70q104 0 145 -63q41 -66 41 -197v-598h291v651q0 98 -17 180q-18 80 -61 138q-43 55 -117 88q-76 31 -192 30q-92 0 -180 -40q-88 -43 -144 -136h-6v148h-276v-1059zM231 1212h125q10 39 29 64q16 23 57 22q35 0 70 -10t74 -24 q39 -12 80 -23q41 -12 88 -12q61 0 102 24q39 23 66 58q25 35 39 75l22 76h-141q2 -29 -19 -49q-20 -23 -67 -22q-35 0 -68 12q-35 10 -67 24l-64 25q-33 10 -68 10q-68 0 -112 -22q-45 -23 -74 -58q-29 -37 -45 -79q-16 -45 -27 -91z" />
<glyph unicode="&#xf2;" horiz-adv-x="1251" d="M78 528q0 -127 39 -229t110 -174q72 -74 172 -113t226 -39q125 0 227 39q100 39 172 113q72 72 111 174t39 229t-39 232q-39 102 -111 176q-72 72 -172 113q-102 39 -227 38q-125 0 -226 -38q-100 -41 -172 -113q-72 -74 -110 -176q-39 -104 -39 -232zM262 1481l316 -291 h202l-196 291h-322zM369 528q0 64 12 125t43 109q29 47 78 78q49 29 123 28q74 0 125 -28q49 -31 79 -78q29 -47 41 -109q12 -61 13 -125q0 -63 -13 -122q-12 -61 -41 -109q-31 -49 -79 -78q-51 -29 -125 -29t-123 29t-78 78q-31 47 -43 109q-12 59 -12 122z" />
<glyph unicode="&#xf3;" horiz-adv-x="1251" d="M78 528q0 -127 39 -229t110 -174q72 -74 172 -113t226 -39q125 0 227 39q100 39 172 113q72 72 111 174t39 229t-39 232q-39 102 -111 176q-72 72 -172 113q-102 39 -227 38q-125 0 -226 -38q-100 -41 -172 -113q-72 -74 -110 -176q-39 -104 -39 -232zM369 528 q0 64 12 125t43 109q29 47 78 78q49 29 123 28q74 0 125 -28q49 -31 79 -78q29 -47 41 -109q12 -61 13 -125q0 -63 -13 -122q-12 -61 -41 -109q-31 -49 -79 -78q-51 -29 -125 -29t-123 29t-78 78q-31 47 -43 109q-12 59 -12 122zM471 1190h203l315 291h-321z" />
<glyph unicode="&#xf4;" horiz-adv-x="1251" d="M78 528q0 -127 39 -229t110 -174q72 -74 172 -113t226 -39q125 0 227 39q100 39 172 113q72 72 111 174t39 229t-39 232q-39 102 -111 176q-72 72 -172 113q-102 39 -227 38q-125 0 -226 -38q-100 -41 -172 -113q-72 -74 -110 -176q-39 -104 -39 -232zM266 1190h221 l131 166l127 -166h240l-225 291h-266zM369 528q0 64 12 125t43 109q29 47 78 78q49 29 123 28q74 0 125 -28q49 -31 79 -78q29 -47 41 -109q12 -61 13 -125q0 -63 -13 -122q-12 -61 -41 -109q-31 -49 -79 -78q-51 -29 -125 -29t-123 29t-78 78q-31 47 -43 109 q-12 59 -12 122z" />
<glyph unicode="&#xf5;" horiz-adv-x="1251" d="M78 528q0 -127 39 -229t110 -174q72 -74 172 -113t226 -39q125 0 227 39q100 39 172 113q72 72 111 174t39 229t-39 232q-39 102 -111 176q-72 72 -172 113q-102 39 -227 38q-125 0 -226 -38q-100 -41 -172 -113q-72 -74 -110 -176q-39 -104 -39 -232zM250 1212h125 q10 39 28 64q16 23 58 22q35 0 69 -10q35 -10 74 -24q39 -12 80 -23q41 -12 88 -12q61 0 102 24q39 23 66 58q25 35 39 75l22 76h-141q2 -29 -18 -49q-20 -23 -68 -22q-35 0 -67 12q-35 10 -68 24l-64 25q-33 10 -67 10q-68 0 -113 -22q-45 -23 -73 -58q-29 -37 -46 -79 q-16 -45 -26 -91zM369 528q0 64 12 125t43 109q29 47 78 78q49 29 123 28q74 0 125 -28q49 -31 79 -78q29 -47 41 -109q12 -61 13 -125q0 -63 -13 -122q-12 -61 -41 -109q-31 -49 -79 -78q-51 -29 -125 -29t-123 29t-78 78q-31 47 -43 109q-12 59 -12 122z" />
<glyph unicode="&#xf6;" horiz-adv-x="1251" d="M78 528q0 -127 39 -229t110 -174q72 -74 172 -113t226 -39q125 0 227 39q100 39 172 113q72 72 111 174t39 229t-39 232q-39 102 -111 176q-72 72 -172 113q-102 39 -227 38q-125 0 -226 -38q-100 -41 -172 -113q-72 -74 -110 -176q-39 -104 -39 -232zM276 1223h277v239 h-277v-239zM369 528q0 64 12 125t43 109q29 47 78 78q49 29 123 28q74 0 125 -28q49 -31 79 -78q29 -47 41 -109q12 -61 13 -125q0 -63 -13 -122q-12 -61 -41 -109q-31 -49 -79 -78q-51 -29 -125 -29t-123 29t-78 78q-31 47 -43 109q-12 59 -12 122zM698 1223h277v239h-277 v-239z" />
<glyph unicode="&#xf7;" horiz-adv-x="1228" d="M98 408h1035v219h-1035v-219zM442 92q1 -32 15 -63q14 -33 39 -56q23 -25 55 -39q31 -14 67 -14q35 0 66 17q31 14 53 38q23 25 37 56t14 61q0 37 -14 68t-37 55q-25 23 -55 37q-31 12 -66 12t-65 -12q-33 -14 -55 -37q-25 -25 -39 -55q-14 -31 -15 -68zM442 942 q1 -34 15 -65q14 -33 39 -56q23 -25 55 -37q31 -14 67 -14q35 0 66 14t53 39q23 25 37 56t14 63q0 37 -14 70q-14 31 -37 55q-25 23 -55 37q-31 12 -66 12q-70 0 -120 -49q-53 -51 -54 -125z" />
<glyph unicode="&#xf8;" horiz-adv-x="1251" d="M78 528q0 -240 135 -387l-123 -139l76 -63l121 135q137 -100 338 -101q125 0 227 39q100 39 172 113q72 72 111 174t39 229q0 123 -37 224q-37 100 -105 172l111 125l-76 65l-109 -125q-137 98 -333 98q-125 0 -226 -38q-100 -41 -172 -113q-72 -74 -110 -176 q-39 -104 -39 -232zM369 528q0 63 12 125q12 61 43 109q29 47 78 78q49 29 123 28q109 0 170 -65l-396 -451q-16 39 -22 84q-8 45 -8 92zM451 260l399 455q16 -41 24 -88q8 -49 9 -99q0 -63 -13 -122q-12 -61 -41 -109q-31 -49 -79 -78q-51 -29 -125 -29q-59 0 -103 19 q-43 18 -71 51z" />
<glyph unicode="&#xf9;" horiz-adv-x="1214" d="M111 408q0 -98 18 -179q16 -82 59 -137q43 -57 119 -88q74 -31 191 -31q92 0 180 41t143 133h6v-147h277v1059h-291v-555q0 -162 -53 -232q-53 -72 -172 -71q-104 0 -146 65q-41 63 -41 195v598h-290v-651zM244 1481l315 -291h203l-197 291h-321z" />
<glyph unicode="&#xfa;" horiz-adv-x="1214" d="M111 408q0 -98 18 -179q16 -82 59 -137q43 -57 119 -88q74 -31 191 -31q92 0 180 41t143 133h6v-147h277v1059h-291v-555q0 -162 -53 -232q-53 -72 -172 -71q-104 0 -146 65q-41 63 -41 195v598h-290v-651zM453 1190h202l316 291h-322z" />
<glyph unicode="&#xfb;" horiz-adv-x="1214" d="M111 408q0 -98 18 -179q16 -82 59 -137q43 -57 119 -88q74 -31 191 -31q92 0 180 41t143 133h6v-147h277v1059h-291v-555q0 -162 -53 -232q-53 -72 -172 -71q-104 0 -146 65q-41 63 -41 195v598h-290v-651zM248 1190h221l131 166l127 -166h240l-226 291h-266z" />
<glyph unicode="&#xfc;" horiz-adv-x="1214" d="M111 408q0 -98 18 -179q16 -82 59 -137q43 -57 119 -88q74 -31 191 -31q92 0 180 41t143 133h6v-147h277v1059h-291v-555q0 -162 -53 -232q-53 -72 -172 -71q-104 0 -146 65q-41 63 -41 195v598h-290v-651zM258 1223h277v239h-277v-239zM680 1223h276v239h-276v-239z" />
<glyph unicode="&#xfd;" horiz-adv-x="1062" d="M-10 1059l370 -993q12 -31 13 -66q0 -47 -27 -86q-29 -39 -86 -45q-43 -2 -86 2l-84 8v-239q45 -4 90 -7q43 -4 88 -4q150 0 234 56q84 55 131 184l442 1190h-301l-231 -725h-4l-240 725h-309zM377 1190h203l315 291h-322z" />
<glyph unicode="&#xfe;" horiz-adv-x="1251" d="M111 -371h290v502h5q53 -78 137 -117q82 -41 180 -41q117 0 205 45q86 45 145 121q57 76 86 174t29 205q0 113 -29 217q-29 102 -88 180t-149 125t-215 47q-88 0 -168 -38q-80 -39 -133 -125h-5v538h-290v-1833zM391 526q0 66 12 127t43 109q29 47 78 78q47 29 119 28 q70 0 119 -28q47 -31 78 -78q31 -49 45 -111q12 -61 12 -125t-12 -125t-41 -106q-31 -47 -78 -76q-49 -29 -121 -29q-70 0 -119 29t-77 76q-31 45 -43 106q-14 61 -15 125z" />
<glyph unicode="&#xff;" horiz-adv-x="1062" d="M-10 1059l370 -993q12 -31 13 -66q0 -47 -27 -86q-29 -39 -86 -45q-43 -2 -86 2l-84 8v-239q45 -4 90 -7q43 -4 88 -4q150 0 234 56q84 55 131 184l442 1190h-301l-231 -725h-4l-240 725h-309zM182 1223h277v239h-277v-239zM604 1223h277v239h-277v-239z" />
<glyph unicode="&#x152;" horiz-adv-x="2238" d="M78 723q0 -152 45 -289t133 -239q86 -104 213 -166q127 -61 289 -62q98 0 192 37q94 35 160 107h4v-111h1038v270h-739v359h664v250h-664v313h725v270h-1024v-104h-4q-61 78 -156 108q-94 31 -190 31q-162 0 -289 -63q-129 -63 -217 -170q-88 -109 -133 -248 q-47 -141 -47 -293zM399 727q0 92 21 182q20 88 67 160q45 70 119 115q74 43 180 43q68 0 127 -23q57 -23 101 -63q41 -41 65 -97q23 -57 23 -126v-349q0 -150 -86 -241q-88 -92 -236 -92q-102 0 -174 43q-74 43 -119 112q-47 70 -67 158t-21 178z" />
<glyph unicode="&#x153;" horiz-adv-x="1896" d="M78 535q0 -113 33 -216q31 -102 94 -178q61 -78 155 -123q92 -45 215 -45q53 0 109 11q53 8 104 30q49 20 93 56q41 33 69 82q61 -98 168 -138q104 -41 215 -41q180 0 314 95q131 94 182 268h-283q-29 -72 -80 -109q-53 -37 -133 -37q-127 0 -188 78q-63 76 -64 191h756 q0 127 -29 241q-29 113 -90 199q-63 86 -162 137q-98 51 -239 51q-47 0 -98 -10q-51 -12 -99 -33q-49 -23 -90 -53q-41 -31 -67 -71q-59 92 -160 131q-100 37 -205 36q-119 0 -215 -43t-164 -116q-68 -74 -104 -174q-37 -102 -37 -219zM369 524q0 61 12 123q10 61 37 111 q27 49 71 80q43 31 111 30q74 0 119 -32q43 -33 67 -82q25 -49 33 -109q8 -59 8 -113q0 -57 -8 -116q-10 -61 -35 -111q-27 -51 -71 -82q-45 -33 -119 -33q-66 0 -109 33q-43 31 -69 80q-27 49 -37 109q-10 57 -10 112zM1081 643q4 94 62 160q57 66 168 65q117 0 174 -59 q57 -61 61 -166h-465z" />
<glyph unicode="&#x178;" horiz-adv-x="1366" d="M-16 1462l536 -893v-569h322v561l542 901h-358l-340 -577l-342 577h-360zM334 1626h276v240h-276v-240zM756 1626h276v240h-276v-240z" />
<glyph unicode="&#x2c6;" horiz-adv-x="530" d="M-92 1190h219l131 166l127 -166h240l-226 291h-266z" />
<glyph unicode="&#x2dc;" horiz-adv-x="530" d="M-109 1212h123q10 39 29 64q16 23 57 22q35 0 70 -10t74 -24q39 -12 80 -23q41 -12 88 -12q61 0 102 24q39 23 66 58q25 35 38 75l23 76h-141q2 -29 -19 -49q-20 -23 -67 -22q-35 0 -68 12q-35 10 -67 24l-64 25q-33 10 -68 10q-68 0 -110 -22q-45 -23 -74 -58 q-29 -37 -45 -79q-16 -45 -27 -91z" />
<glyph unicode="&#x2000;" horiz-adv-x="978" />
<glyph unicode="&#x2001;" horiz-adv-x="1956" />
<glyph unicode="&#x2002;" horiz-adv-x="978" />
<glyph unicode="&#x2003;" horiz-adv-x="1956" />
<glyph unicode="&#x2004;" horiz-adv-x="652" />
<glyph unicode="&#x2005;" horiz-adv-x="489" />
<glyph unicode="&#x2006;" horiz-adv-x="326" />
<glyph unicode="&#x2007;" horiz-adv-x="326" />
<glyph unicode="&#x2008;" horiz-adv-x="244" />
<glyph unicode="&#x2009;" horiz-adv-x="391" />
<glyph unicode="&#x200a;" horiz-adv-x="108" />
<glyph unicode="&#x2010;" horiz-adv-x="833" d="M109 434h616v250h-616v-250z" />
<glyph unicode="&#x2011;" horiz-adv-x="833" d="M109 434h616v250h-616v-250z" />
<glyph unicode="&#x2012;" horiz-adv-x="833" d="M109 434h616v250h-616v-250z" />
<glyph unicode="&#x2013;" horiz-adv-x="1024" d="M0 434h1024v250h-1024v-250z" />
<glyph unicode="&#x2014;" horiz-adv-x="2048" d="M266 434h1516v250h-1516v-250z" />
<glyph unicode="&#x2018;" horiz-adv-x="569" d="M139 805h291v315h-135q0 76 29 129q29 51 106 78v135q-63 -8 -117 -37q-55 -31 -94 -75q-39 -45 -59 -105q-23 -59 -21 -127v-313z" />
<glyph unicode="&#x2019;" horiz-adv-x="569" d="M139 805q63 8 119 39q53 29 92 74t62 104q20 59 18 127v313h-291v-315h135q0 -76 -28 -127q-29 -53 -107 -80v-135z" />
<glyph unicode="&#x201a;" horiz-adv-x="569" d="M139 0h135q0 -74 -28 -125q-29 -53 -107 -80v-135q63 8 119 39q53 29 92 76q39 45 62 104q20 57 18 123v313h-291v-315z" />
<glyph unicode="&#x201c;" horiz-adv-x="948" d="M111 805h290v315h-135q0 76 29 129q29 51 106 78v135q-63 -8 -116 -37q-55 -31 -95 -75q-39 -45 -59 -105q-23 -59 -20 -127v-313zM547 805h291v315h-136q0 76 29 129q29 51 107 78v135q-63 -8 -117 -37q-55 -31 -94 -75q-39 -45 -60 -105q-23 -59 -20 -127v-313z" />
<glyph unicode="&#x201d;" horiz-adv-x="948" d="M111 805q63 8 118 39q53 29 93 74q39 45 61 104q20 59 18 127v313h-290v-315h135q0 -76 -29 -127q-29 -53 -106 -80v-135zM547 805q63 8 119 39q53 29 92 74t61 104q20 59 19 127v313h-291v-315h135q0 -76 -29 -127q-29 -53 -106 -80v-135z" />
<glyph unicode="&#x201e;" horiz-adv-x="948" d="M111 0h135q0 -74 -29 -125q-29 -53 -106 -80v-135q63 8 118 39q53 29 93 76q39 45 61 104q20 57 18 123v313h-290v-315zM547 0h135q0 -74 -29 -125q-29 -53 -106 -80v-135q63 8 119 39q53 29 92 76q39 45 61 104q20 57 19 123v313h-291v-315z" />
<glyph unicode="&#x2022;" horiz-adv-x="716" d="M145 733q0 96 64 160q61 61 158 61q96 0 159 -61q61 -63 62 -160q-1 -95 -62 -158q-63 -63 -159 -63t-158 63q-63 63 -64 158z" />
<glyph unicode="&#x2026;" horiz-adv-x="2048" d="M180 0h322v315h-322v-315zM862 0h322v315h-322v-315zM1544 0h322v315h-322v-315z" />
<glyph unicode="&#x202f;" horiz-adv-x="391" />
<glyph unicode="&#x2039;" horiz-adv-x="493" d="M86 420l322 -256v246l-185 147l185 145v246l-322 -252v-276z" />
<glyph unicode="&#x203a;" horiz-adv-x="493" d="M86 164l322 256v276l-322 252v-246l184 -145l-184 -147v-246z" />
<glyph unicode="&#x205f;" horiz-adv-x="489" />
<glyph unicode="&#x20ac;" d="M31 784h149q-2 -4 -2 -32v-54h-82l-63 -147h157q43 -268 187 -418q158 -166 416 -166q178 0 315 80l2 309q-162 -129 -315 -129q-238 0 -303 324h356l63 147h-436l2 86h459l63 148h-499q72 281 286 280q125 0 269 -92l125 256q-201 102 -373 103q-244 0 -406 -156 q-154 -143 -202 -391h-105z" />
<glyph unicode="&#x2122;" horiz-adv-x="2048" d="M127 1298h240v-680h208v680h240v164h-688v-164zM924 618h196v599h4l217 -599h142l217 599h4v-599h197v844h-277l-211 -555l-211 555h-278v-844z" />
<glyph unicode="&#x25fc;" horiz-adv-x="1054" d="M0 0v1055h1055v-1055h-1055z" />
<glyph unicode="&#xfb03;" horiz-adv-x="1830" d="M0 864v195h174v82q0 141 88 231t266 90q39 0 78 -2q39 -4 76 -6v-217q-53 6 -107 6q-59 0 -83 -26q-27 -29 -27 -95v-63h330v82q0 141 88 231t266 90q39 0 78 -2q39 -4 76 -6v-217q-53 6 -107 6q-59 0 -84 -26q-27 -29 -27 -95v-63h201v-195h-201v-864h-290v864h-330 v-864h-291v864h-174zM1421 0v1059h291v-1059h-291zM1421 1223v239h291v-239h-291z" />
<glyph unicode="&#xfb04;" horiz-adv-x="1830" d="M0 864v195h174v82q0 141 88 231t266 90q39 0 78 -2q39 -4 76 -6v-217q-53 6 -107 6q-59 0 -83 -26q-27 -29 -27 -95v-63h330v82q0 141 88 231t266 90q39 0 78 -2q39 -4 76 -6v-217q-53 6 -107 6q-59 0 -84 -26q-27 -29 -27 -95v-63h201v-195h-201v-864h-290v864h-330 v-864h-291v864h-174zM1421 0v1462h291v-1462h-291z" />
<hkern u1="A" u2="&#x2019;" k="152" />
<hkern u1="A" u2="y" k="37" />
<hkern u1="A" u2="w" k="37" />
<hkern u1="A" u2="v" k="37" />
<hkern u1="A" u2="Y" k="152" />
<hkern u1="A" u2="W" k="49" />
<hkern u1="A" u2="V" k="94" />
<hkern u1="A" u2="T" k="188" />
<hkern u1="F" u2="A" k="113" />
<hkern u1="F" u2="&#x2e;" k="322" />
<hkern u1="F" u2="&#x2c;" k="322" />
<hkern u1="L" u2="&#x2019;" k="152" />
<hkern u1="L" u2="y" k="76" />
<hkern u1="L" u2="Y" k="227" />
<hkern u1="L" u2="W" k="113" />
<hkern u1="L" u2="V" k="188" />
<hkern u1="L" u2="T" k="188" />
<hkern u1="P" u2="A" k="152" />
<hkern u1="P" u2="&#x2e;" k="367" />
<hkern u1="P" u2="&#x2c;" k="367" />
<hkern u1="R" u2="Y" k="76" />
<hkern u1="R" u2="W" k="37" />
<hkern u1="R" u2="V" k="37" />
<hkern u1="R" u2="T" k="37" />
<hkern u1="T" u2="y" k="227" />
<hkern u1="T" u2="w" k="227" />
<hkern u1="T" u2="u" k="188" />
<hkern u1="T" u2="s" k="227" />
<hkern u1="T" u2="r" k="188" />
<hkern u1="T" u2="o" k="227" />
<hkern u1="T" u2="e" k="227" />
<hkern u1="T" u2="c" k="227" />
<hkern u1="T" u2="a" k="227" />
<hkern u1="T" u2="A" k="188" />
<hkern u1="T" u2="&#x3b;" k="227" />
<hkern u1="T" u2="&#x3a;" k="227" />
<hkern u1="T" u2="&#x2e;" k="227" />
<hkern u1="T" u2="&#x2d;" k="264" />
<hkern u1="T" u2="&#x2c;" k="227" />
<hkern u1="V" u2="y" k="37" />
<hkern u1="V" u2="u" k="76" />
<hkern u1="V" u2="r" k="76" />
<hkern u1="V" u2="o" k="113" />
<hkern u1="V" u2="i" k="37" />
<hkern u1="V" u2="e" k="113" />
<hkern u1="V" u2="a" k="113" />
<hkern u1="V" u2="A" k="94" />
<hkern u1="V" u2="&#x3b;" k="94" />
<hkern u1="V" u2="&#x3a;" k="94" />
<hkern u1="V" u2="&#x2e;" k="264" />
<hkern u1="V" u2="&#x2d;" k="113" />
<hkern u1="V" u2="&#x2c;" k="264" />
<hkern u1="W" u2="u" k="37" />
<hkern u1="W" u2="r" k="37" />
<hkern u1="W" u2="o" k="117" />
<hkern u1="W" u2="e" k="117" />
<hkern u1="W" u2="a" k="76" />
<hkern u1="W" u2="A" k="49" />
<hkern u1="W" u2="&#x3b;" k="37" />
<hkern u1="W" u2="&#x3a;" k="37" />
<hkern u1="W" u2="&#x2e;" k="152" />
<hkern u1="W" u2="&#x2c;" k="152" />
<hkern u1="Y" u2="v" k="113" />
<hkern u1="Y" u2="u" k="152" />
<hkern u1="Y" u2="q" k="188" />
<hkern u1="Y" u2="p" k="152" />
<hkern u1="Y" u2="o" k="227" />
<hkern u1="Y" u2="i" k="76" />
<hkern u1="Y" u2="e" k="227" />
<hkern u1="Y" u2="a" k="188" />
<hkern u1="Y" u2="A" k="152" />
<hkern u1="Y" u2="&#x3b;" k="188" />
<hkern u1="Y" u2="&#x3a;" k="188" />
<hkern u1="Y" u2="&#x2e;" k="285" />
<hkern u1="Y" u2="&#x2d;" k="227" />
<hkern u1="Y" u2="&#x2c;" k="285" />
<hkern u1="f" u2="&#x2019;" k="-37" />
<hkern u1="f" u2="f" k="37" />
<hkern u1="r" u2="q" k="37" />
<hkern u1="r" u2="o" k="37" />
<hkern u1="r" u2="n" k="-37" />
<hkern u1="r" u2="g" k="57" />
<hkern u1="r" u2="e" k="37" />
<hkern u1="r" u2="d" k="37" />
<hkern u1="r" u2="c" k="37" />
<hkern u1="r" u2="&#x2e;" k="188" />
<hkern u1="r" u2="&#x2d;" k="113" />
<hkern u1="r" u2="&#x2c;" k="188" />
<hkern u1="v" u2="&#x2e;" k="152" />
<hkern u1="v" u2="&#x2c;" k="152" />
<hkern u1="w" u2="&#x2e;" k="113" />
<hkern u1="w" u2="&#x2c;" k="113" />
<hkern u1="y" u2="&#x2e;" k="152" />
<hkern u1="y" u2="&#x2c;" k="152" />
<hkern u1="&#x2018;" u2="&#x2018;" k="195" />
<hkern u1="&#x2019;" u2="&#x2019;" k="195" />
<hkern u1="&#x2019;" u2="t" k="37" />
<hkern u1="&#x2019;" u2="s" k="152" />
</font>
</defs></svg> 